time,社長,副社長
14:0,0.0,0.0
14:1,0.0,0.0
14:2,0.0,0.0
14:3,0.0,0.0
14:4,0.0,0.0
14:5,0.0,0.0
14:6,0.0,0.0
14:7,0.0,0.0
14:8,0.0,0.0
14:9,0.0,0.0
14:10,3,1
14:11,7,1
14:12,9,1
14:13,7,1
14:14,12,1
14:15,7,1
14:16,9,0.0
14:17,9,0.0
14:18,11,2
14:19,12,1
14:20,9,1
14:21,6,0.0
14:22,4,0.0
14:23,13,1
14:24,7,0.0
14:25,7,0.0
14:26,7,0.0
14:27,4,0.0
14:28,11,1
14:29,10,0.0
14:30,8,0.0
14:31,10,0.0
14:32,4,0.0
14:33,9,0.0
14:34,4,0.0
14:35,4,1
14:36,4,0.0
14:37,5,1
14:38,4,0.0
14:39,3,1
14:40,4,0.0
14:41,10,2
14:42,5,0.0
14:43,2,1
14:44,11,0.0
14:45,2,0.0
14:46,5,1
14:47,2,0.0
14:48,4,0.0
14:49,5,0.0
14:50,3,1
14:51,4,1
14:52,2,0.0
14:53,6,0.0
14:54,11,0.0
14:55,4,0.0
14:56,8,1
14:57,3,0.0
14:58,5,0.0
14:59,7,0.0
15:0,0.0,0.0
15:1,0.0,0.0
15:2,0.0,0.0
15:3,0.0,0.0
15:4,0.0,0.0
15:5,0.0,0.0
15:6,0.0,0.0
15:7,0.0,0.0
15:8,0.0,0.0
15:9,0.0,0.0
15:10,13,2
15:11,8,1
15:12,6,0.0
15:13,6,0.0
15:14,8,1
15:15,9,0.0
15:16,11,0.0
15:17,10,1
15:18,2,0.0
15:19,9,1
15:20,5,1
15:21,11,1
15:22,6,1
15:23,7,2
15:24,1,0.0
15:25,2,0.0
15:26,6,0.0
15:27,3,0.0
15:28,5,2
15:29,5,1
15:30,3,0.0
15:31,5,1
15:32,4,0.0
15:33,4,0.0
15:34,5,1
15:35,9,0.0
15:36,5,1
15:37,8,2
15:38,4,1
15:39,10,1
15:40,10,0.0
15:41,4,1
15:42,5,0.0
15:43,8,0.0
15:44,6,1
15:45,8,2
15:46,6,0.0
15:47,7,0.0
15:48,7,0.0
15:49,5,0.0
15:50,8,1
15:51,5,1
15:52,11,1
15:53,8,1
15:54,7,1
15:55,14,1
15:56,7,0.0
15:57,11,3
15:58,10,0.0
15:59,6,0.0
16:0,0.0,0.0
16:1,0.0,0.0
16:2,0.0,0.0
16:3,0.0,0.0
16:4,0.0,0.0
16:5,0.0,0.0
16:6,0.0,0.0
16:7,0.0,0.0
16:8,0.0,0.0
16:9,0.0,0.0
16:10,10,2
16:11,5,0.0
16:12,7,1
16:13,12,0.0
16:14,13,1
16:15,12,1
16:16,7,1
16:17,9,1
16:18,14,0.0
16:19,11,2
16:20,10,0.0
16:21,12,1
16:22,15,0.0
16:23,15,0.0
16:24,8,0.0
16:25,12,0.0
16:26,12,1
16:27,13,1
16:28,15,0.0
16:29,11,0.0
16:30,6,0.0
16:31,7,0.0
16:32,12,1
16:33,6,0.0
16:34,9,0.0
16:35,9,0.0
16:36,14,1
16:37,8,0.0
16:38,15,2
16:39,8,0.0
16:40,15,0.0
16:41,10,0.0
16:42,15,0.0
16:43,12,0.0
16:44,10,0.0
16:45,7,1
16:46,13,0.0
16:47,12,0.0
16:48,7,0.0
16:49,7,0.0
16:50,11,0.0
16:51,8,0.0
16:52,6,0.0
16:53,7,1
16:54,10,4
16:55,7,0.0
16:56,5,0.0
16:57,9,1
16:58,15,3
16:59,11,0.0
17:0,0.0,0.0
17:1,0.0,0.0
17:2,0.0,0.0
17:3,0.0,0.0
17:4,0.0,0.0
17:5,0.0,0.0
17:6,0.0,0.0
17:7,0.0,0.0
17:8,0.0,0.0
17:9,0.0,0.0
17:10,16,1
17:11,9,0.0
17:12,12,0.0
17:13,6,0.0
17:14,13,2
17:15,12,2
17:16,11,1
17:17,8,1
17:18,11,0.0
17:19,15,3
17:20,10,0.0
17:21,14,3
17:22,13,2
17:23,14,1
17:24,13,0.0
17:25,14,0.0
17:26,6,0.0
17:27,10,0.0
17:28,11,2
17:29,10,0.0
17:30,14,0.0
17:31,16,1
17:32,13,2
17:33,6,0.0
17:34,11,1
17:35,8,0.0
17:36,12,2
17:37,12,0.0
17:38,14,4
17:39,13,0.0
17:40,15,3
17:41,20,3
17:42,17,6
17:43,12,2
17:44,16,3
17:45,10,3
17:46,11,0.0
17:47,9,2
17:48,8,3
17:49,11,1
17:50,13,3
17:51,17,6
17:52,21,8
17:53,17,4
17:54,12,4
17:55,23,5
17:56,15,3
17:57,19,5
17:58,19,6
17:59,13,1
18:0,0.0,0.0
18:1,0.0,0.0
18:2,0.0,0.0
18:3,0.0,0.0
18:4,0.0,0.0
18:5,0.0,0.0
18:6,0.0,0.0
18:7,0.0,0.0
18:8,0.0,0.0
18:9,0.0,0.0
18:10,15,6
18:11,19,10
18:12,20,2
18:13,20,6
18:14,9,4
18:15,19,8
18:16,16,8
18:17,12,3
18:18,14,5
18:19,19,4
18:20,10,2
18:21,21,6
18:22,17,5
18:23,13,4
18:24,13,4
18:25,13,3
18:26,20,4
18:27,25,4
18:28,17,5
18:29,24,8
18:30,20,7
18:31,26,10
18:32,24,9
18:33,19,10
18:34,27,10
18:35,26,12
18:36,29,12
18:37,28,16
18:38,21,8
18:39,28,7
18:40,34,9
18:41,27,10
18:42,24,7
18:43,30,3
18:44,29,6
18:45,24,7
18:46,23,5
18:47,34,8
18:48,23,4
18:49,26,5
18:50,25,5
18:51,29,3
18:52,24,5
18:53,31,7
18:54,19,0.0
18:55,33,7
18:56,30,5
18:57,20,3
18:58,29,9
18:59,29,3
19:0,0.0,0.0
19:1,0.0,0.0
19:2,0.0,0.0
19:3,0.0,0.0
19:4,0.0,0.0
19:5,0.0,0.0
19:6,0.0,0.0
19:7,0.0,0.0
19:8,0.0,0.0
19:9,0.0,0.0
19:10,37,3
19:11,28,2
19:12,29,3
19:13,34,4
19:14,29,1
19:15,17,2
19:16,24,0.0
19:17,22,2
19:18,24,3
19:19,23,2
19:20,27,1
19:21,20,0.0
19:22,21,1
19:23,18,0.0
19:24,19,1
19:25,13,0.0
19:26,22,1
19:27,19,0.0
19:28,20,2
19:29,16,2
19:30,21,3
19:31,17,2
19:32,17,1
19:33,16,1
19:34,15,1
19:35,19,2
19:36,9,0.0
19:37,10,0.0
19:38,20,1
19:39,25,2
19:40,17,4
19:41,17,3
19:42,7,0.0
19:43,21,1
19:44,18,2
19:45,14,1
19:46,16,2
19:47,17,1
19:48,15,0.0
19:49,17,2
19:50,20,2
19:51,31,1
19:52,24,4
19:53,15,1
19:54,13,2
19:55,19,2
19:56,14,0.0
19:57,21,2
19:58,22,0.0
19:59,19,3
20:0,0.0,0.0
20:1,0.0,0.0
20:2,0.0,0.0
20:3,0.0,0.0
20:4,0.0,0.0
20:5,0.0,0.0
20:6,0.0,0.0
20:7,0.0,0.0
20:8,0.0,0.0
20:9,0.0,0.0
20:10,10,2
20:11,15,1
20:12,16,2
20:13,11,0.0
20:14,14,1
20:15,6,1
20:16,13,1
20:17,13,0.0
20:18,14,1
20:19,19,4
20:20,17,2
20:21,10,2
20:22,17,4
20:23,16,5
20:24,12,3
20:25,17,1
20:26,17,1
20:27,14,0.0
20:28,9,1
20:29,10,1
20:30,11,1
20:31,17,4
20:32,13,2
20:33,14,1
20:34,24,3
20:35,8,2
20:36,10,3
20:37,12,1
20:38,12,0.0
20:39,13,1
20:40,14,0.0
20:41,20,2
20:42,10,0.0
20:43,12,0.0
20:44,10,0.0
20:45,14,2
20:46,15,1
20:47,16,2
20:48,12,1
20:49,14,0.0
20:50,10,0.0
20:51,12,1
20:52,14,1
20:53,15,0.0
20:54,18,1
20:55,23,0.0
20:56,13,0.0
20:57,15,0.0
20:58,23,2
20:59,15,0.0
21:0,0.0,0.0
21:1,0.0,0.0
21:2,0.0,0.0
21:3,0.0,0.0
21:4,0.0,0.0
21:5,0.0,0.0
21:6,0.0,0.0
21:7,0.0,0.0
21:8,0.0,0.0
21:9,0.0,0.0
21:10,16,1
21:11,9,2
21:12,14,0.0
21:13,11,2
21:14,13,0.0
21:15,10,1
21:16,13,0.0
21:17,11,0.0
21:18,10,0.0
21:19,5,1
21:20,14,2
21:21,6,0.0
21:22,14,0.0
21:23,12,1
21:24,13,1
21:25,9,3
21:26,5,0.0
21:27,6,2
21:28,12,1
21:29,8,0.0
21:30,11,1
21:31,10,0.0
21:32,15,0.0
21:33,9,1
21:34,17,1
21:35,11,2
21:36,5,0.0
21:37,12,2
21:38,9,1
21:39,16,3
21:40,14,2
21:41,19,1
21:42,18,2
21:43,13,0.0
21:44,23,7
21:45,17,2
21:46,14,1
21:47,12,1
21:48,9,0.0
21:49,11,1
21:50,18,1
21:51,13,0.0
21:52,18,1
21:53,25,0.0
21:54,14,0.0
21:55,17,1
21:56,12,0.0
21:57,13,1
21:58,14,1
21:59,9,1
22:0,0.0,0.0
22:1,0.0,0.0
22:2,0.0,0.0
22:3,0.0,0.0
22:4,0.0,0.0
22:5,0.0,0.0
22:6,0.0,0.0
22:7,0.0,0.0
22:8,0.0,0.0
22:9,0.0,0.0
22:10,8,3
22:11,8,0.0
22:12,16,1
22:13,17,1
22:14,20,0.0
22:15,20,1
22:16,23,0.0
22:17,19,0.0
22:18,19,2
22:19,18,1
22:20,16,1
22:21,11,3
22:22,17,2
22:23,11,1
22:24,10,3
22:25,14,1
22:26,16,2
22:27,11,2
22:28,14,0.0
22:29,10,0.0
22:30,11,3
22:31,17,1
22:32,13,1
22:33,7,2
22:34,8,3
22:35,8,1
22:36,10,1
22:37,4,1
22:38,7,1
22:39,14,0.0
22:40,21,0.0
22:41,15,1
22:42,7,0.0
22:43,13,5
22:44,10,0.0
22:45,16,3
22:46,9,0.0
22:47,13,2
22:48,7,1
22:49,16,1
22:50,18,1
22:51,11,0.0
22:52,13,0.0
22:53,13,2
22:54,14,2
22:55,12,3
22:56,16,3
22:57,9,0.0
22:58,15,1
22:59,11,0.0
23:0,0.0,0.0
23:1,0.0,0.0
23:2,0.0,0.0
23:3,0.0,0.0
23:4,0.0,0.0
23:5,0.0,0.0
23:6,0.0,0.0
23:7,0.0,0.0
23:8,0.0,0.0
23:9,0.0,0.0
23:10,20,0.0
23:11,25,1
23:12,28,2
23:13,27,2
23:14,18,0.0
23:15,30,0.0
23:16,19,0.0
23:17,20,1
23:18,16,1
23:19,25,2
23:20,15,0.0
23:21,18,4
23:22,28,1
23:23,24,2
23:24,19,1
23:25,26,2
23:26,19,0.0
23:27,21,1
23:28,21,1
23:29,19,0.0
23:30,17,0.0
23:31,16,1
23:32,21,0.0
23:33,26,0.0
23:34,21,1
23:35,27,3
23:36,25,0.0
23:37,18,0.0
23:38,28,1
23:39,22,0.0
23:40,19,1
23:41,24,0.0
23:42,22,1
23:43,17,2
23:44,15,1
23:45,19,1
23:46,7,0.0
23:47,12,1
23:48,21,3
23:49,20,1
23:50,24,1
23:51,14,0.0
23:52,14,1
23:53,18,1
23:54,17,1
23:55,16,0.0
23:56,18,0.0
23:57,16,0.0
23:58,12,0.0
23:59,15,2
0:0,0.0,0.0
0:1,0.0,0.0
0:2,0.0,0.0
0:3,0.0,0.0
0:4,0.0,0.0
0:5,0.0,0.0
0:6,0.0,0.0
0:7,0.0,0.0
0:8,0.0,0.0
0:9,0.0,0.0
0:10,0.0,0.0
0:11,0.0,0.0
0:12,0.0,0.0
0:13,0.0,0.0
0:14,0.0,0.0
0:15,0.0,0.0
0:16,0.0,0.0
0:17,0.0,0.0
0:18,0.0,0.0
0:19,0.0,0.0
0:20,0.0,0.0
0:21,0.0,0.0
0:22,0.0,0.0
0:23,0.0,0.0
0:24,0.0,0.0
0:25,0.0,0.0
0:26,0.0,0.0
0:27,0.0,0.0
0:28,0.0,0.0
0:29,0.0,0.0
0:30,0.0,0.0
0:31,0.0,0.0
0:32,0.0,0.0
0:33,0.0,0.0
0:34,0.0,0.0
0:35,0.0,0.0
0:36,0.0,0.0
0:37,0.0,0.0
0:38,0.0,0.0
0:39,0.0,0.0
0:40,0.0,0.0
0:41,0.0,0.0
0:42,0.0,0.0
0:43,0.0,0.0
0:44,0.0,0.0
0:45,0.0,0.0
0:46,0.0,0.0
0:47,0.0,0.0
0:48,0.0,0.0
0:49,0.0,0.0
0:50,0.0,0.0
0:51,0.0,0.0
0:52,0.0,0.0
0:53,0.0,0.0
0:54,0.0,0.0
0:55,0.0,0.0
0:56,0.0,0.0
0:57,0.0,0.0
0:58,0.0,0.0
0:59,0.0,0.0
1:0,0.0,0.0
