﻿Username	On topic	Off topic
MewMew2tomoya	32	26
manuelpenaloza	1	13
ReUbono	89	92
tatinori	95	33
Mayu360	139	122
m1utaso	212	87
keiCi	185	136
t_hero	38	83
eosis_n	120	30
keik0_k	21	7
shaggylive	0	2
Mily116	0	10
tokimatsuri1124	106	52
crawlingAP	35	11
FlashPresse	0	5
takuyabb	60	24
yunyuuuuunchi20	84	162
hukuokaeighter	99	56
makilatte	11	10
kamenatsu7	35	13
yoshi3098	81	81
megpyon12231975	138	21
futacobu	29	41
donchan1919	143	84
k_Anekawa	58	15
toonaoom	145	264
y_onelove_g	76	40
seigi55	161	42
dokomademoissyo	15	34
outueichi	60	32
nisema_ex	48	55
muxia0214	7	6
zachang	15	12
kajuoppa	87	23
kia1_	151	198
azu666azu	61	33
black00012	84	59
cafemocha27	7	5
AllEmergMed	0	21
aya127star	76	56
HELIODOPTERO	0	1
kokumaijp	68	110
link0722	152	190
ysyk_aka_ojiki	48	66
pocopoco08	17	14
saganii	5	11
sannnoumaru	29	72
jiwonapa	21	17
KUMA626_kyoto	119	43
simonhokuraku	92	100
AnnaKwmki	48	43
sayikron	105	94
bealtuck	357	517
southmoon7	96	27
keinaru8kyo9	29	9
minechanz	316	607
chura_xxx	24	26
anchas25	140	108
msensk	9	13
nikkaninspire	9	9
dragonNao	9	4
dejouroom	35	41
ClassicCoolProd	2	14
isayac	9	12
tsukitter5	112	96
kazu0880	153	194
webstyleking	103	24
takumi73h	43	14
Tosche_J	10	6
ulala_	27	6
maimimit	52	20
japannewstoday	0	8
Non_Rei	110	26
tak_mo	14	5
nonomax	309	212
shala1212	19	9
37zen	53	16
Earahha	28	19
kimutime	102	114
sting1969	118	52
kwsm44	103	142
bonchan0927	8	4
hackrecipe	14	10
noriki0624	8	6
tmrkccccc	84	103
TOMMY_ARMY	8	2
tp0724	17	5
syumoku_uraura	110	60
Nya_714	120	23
nagialarubra	14	20
darkfalcon_kuro	0	3
atsuko8shimauma	132	35
Kuon_Muneharu	127	132
GENMITSUxACE	124	75
glassgroove	11	6
kyonseasons	94	30
__HARUKAZE__	76	76
m_michan	29	31
htn3911	117	195
musspowman	210	113
yuchan1101412	65	44
ku_ha_naicha	29	9
chirima00	79	63
yoco1008	184	115
rendezvous_6_02	85	16
kiyooshi	18	9
16naga	26	10
mikihug	94	32
ryhy09	28	5
led_mattsuelin	65	96
on1529	200	114
pistacchiio	44	10
yumiwindslife	58	23
gin_ajigasawa	95	80
orologio	58	30
yoshinoya_2010	12	24
gakesita_rui	295	695
ringo0626	52	19
rerulili	64	61
wahousan	35	13
max_hodges	1	22
ka_sou	47	69
ayu_min	21	16
monyayuchun	48	78
odeko0522	60	36
wel_staff	7	8
pin_pan	35	9
takukonkon	29	34
nesudesuyo	98	96
fucargo	46	18
Rambler234	20	10
kuriharakageri	22	11
earththreats	10	79
GURUGURUISM	67	48
arata_uesugi	74	32
inoueeriko	4	9
__satoto__	184	115
chantaroz	14	14
from810	26	18
marocha_24	10	2
pichurry	39	13
swU6a	75	39
18stella	6	99
optimist3544	29	37
pinky96lll	103	25
yamanakako_info	5	2
nakanakakana12	21	7
DHC_6	31	70
toriniku_wing	113	65
minami_kawa_	33	11
masumi_tvfxq	67	16
asagi76	17	6
tkcproductions	1	1
kumakotou	152	46
atemoztli	136	63
awawamax	40	4
richeymouse	21	19
yusuke_sub	81	106
shinopi19860906	82	27
milkfresh	21	12
chicchi29	15	3
oldestowl	53	153
ironyfox	221	692
bjcity_raul	49	21
jetsteak	52	15
s2xxsiitqmuxxs2	8	9
akkoyan2	18	10
yuyu_tei	37	28
ri_t	19	6
LOUKPARS	7	157
musapyon	136	34
rad_one13	79	31
AntiAtomOWL	0	31
friends0924	41	17
rarirureroppa	84	65
toutokaabe	50	24
suikyokitan	1	4
michy_yasu	111	37
seranee3	36	10
y_choco16	31	24
satomint_aka	5	1
mmitachi	57	64
aoiori_0909	15	2
naya610	145	117
oohashishika	0	0
Real_Great	116	122
chikusyo	118	138
piro_mikage	97	170
pinpoon	29	22
konosobenama	55	26
nyawachi	25	14
tomo25178	27	6
spinart	77	71
Terurinmama	87	25
peace373say	248	293
kudoooh	204	188
rrgullyrrgully	215	232
nobbypop	41	18
yurachi321	222	134
rab8240	30	26
lojapang	8	79
rainbowsend1127	54	18
pikota1211	115	48
fran2beck	69	85
isin4519	31	83
kiiko3	150	129
hanjuku21	8	15
kanae38	127	83
555_accel	27	51
kitakamijc	27	30
sekainomuraatsu	168	219
bnbn1122	5	10
jun134	300	245
flatearth_blog	210	118
sa_1002	47	10
kco36	18	14
moemoewankorong	46	19
bebebetty	38	76
sunanotubu	23	22
yukimohu	121	35
Airu_mari	141	91
kobe_sikai_nada	5	7
lcmarshal	14	82
owadayumi	21	22
xjapan_bot	62	13
wantacchi	28	31
katayama_g_bot	0	0
Sgt_Syl	195	112
fuminyaon	51	10
kamogawarannpo	32	31
sake720ml	32	21
nao_noise0610	141	117
ohkumawataru	4	8
yusapion	74	18
Aki_Katsukawa	162	51
R_KAKI	36	27
kushibuchi	19	0
crocrow	312	129
mika_tsushima	3	2
acktt	1	4
buckdenton	6	90
1010Radio	20	8
ayuno7_m3	290	328
yamaminn	106	61
nacha_n	15	4
club_elf_yura_	69	35
yoshikun6387	13	21
iz_neriko	45	36
AeroZeppelin_	28	23
Kawawawai	5	8
Keloring	102	93
nascy13	38	8
nagyo_nyaggi	77	38
YoISOMICHI	0	2
girindera	2	114
kasu625	117	52
pi_1019	101	97
Uzurakamemusi	21	15
adp1983	4	25
hondaosamu	14	1
yashiki6	119	66
shunsuke21119	26	11
pozithibutatuzi	3	4
hys100	139	84
usmilesknow	62	61
mic32ki	20	8
junpom	8	3
ichi_5124	131	42
chaa87sw	21	3
FUJIROCK_RIZE	46	39
huruhuru	24	10
naopi7039	147	68
seyasan	84	27
robocake33	4	205
diegolagambeta	0	101
arisugawa29	60	34
tapiya000	17	18
naoki730	13	15
333_blueice	583	426
yossi11111	33	4
_wakaba	10	7
kiriya_832	68	35
matutomoyo	44	35
BLENDAaaaxis	76	25
sakurasima_aki	62	39
_sweet654	194	126
myongbebe	93	83
PopularBeats	0	48
harapion	41	33
ytktkmr	44	15
mihoetlulu	193	73
kmgk0314	110	79
BeanMonk	5	9
may_little_uk	118	94
chi_hiro24	33	27
Vatatata	7	1
MRWK_K	71	45
naoko_u	29	20
tanubow	28	33
chiemi0830	95	88
SAKAYANOTAISHO	33	18
TA_TH	109	7
mrn_pp	48	23
hidesixteen	21	3
amane_cattime	24	16
mi2e3	9	3
kazu_diamond	44	11
milcamomo	15	17
meso	19	24
kony_mama	46	23
nakajima443	21	34
n_kinfo	153	78
hkrmlibrarian	32	1
F86F	58	64
marie_love_	182	91
shimisho19	98	112
foxy_R	58	61
shiboku	41	34
toyasoe	143	132
misato_ty	277	282
keroko_san	59	32
providence_e	33	30
nyaa_chan	60	28
hanezidenki	10	6
sironasu	74	49
mamii_poko	6	8
y2104xx	55	40
Benjamin_Potter	53	53
choco1ove	121	89
hiro_esaki	112	78
GaemGao	503	364
noni_tima	250	143
hopstepbump	53	18
orionaveugle	116	69
pururunpurin	54	47
aoksh	78	144
oOoAMAoOo	25	13
miya_kakeo	24	5
Mr_Krispy99	29	15
ari1129	369	272
kanon_y02	44	51
SAWAfumiaki	17	5
akira_jaken	40	17
saikoengawa	52	44
Mrpotato1122	66	61
Ale_Valdi	0	0
jasor_cr	1	52
se287	24	9
missedinyou	0	4
ryohanasora	40	30
ex1ton	21	29
Aikobayashitwt	0	0
shimasusumu	15	12
washoiuechi	4	20
_euphorie	131	64
Marsh_Mallice	64	53
kaze_manabu	12	6
SiGEO122341	16	4
8nonbiri8	1	1
nobugoodman	127	54
satome3103	42	3
i1k9u0	95	41
rumcoki	65	16
naitoharuto101	121	117
Saaya_npc	36	12
machin1974	33	34
muu20	67	89
okaby	64	66
SarahSmiles88	0	85
pianotoukulele	32	10
Ayakawa_Fuka	63	26
asuka522	16	4
yearth	82	28
st___ar	82	136
yururi119s	48	11
minloveartxxx	12	15
1_7_1_8	17	15
maaya24	2	4
4869sgi	52	70
app_sumio	88	37
kouryu11	124	48
youthnotikara	33	20
tama_mushi01	1	2
hoshimi_ran	89	208
mimo76mimo	37	9
lovelovejuly	232	204
doraming	15	8
simachan_m	67	19
Atani_H	15	3
akiyama924	36	18
kokistarlight	39	23
6xx9	15	41
chibalions47	64	27
Eegen	0	5
qwonyuri	13	18
bd_j	31	12
eurasia_group	3	0
glyuriay	36	93
kazumasugita	41	7
rtxtime	352	156
sachiochiwo	95	47
8c1r0	135	80
chimi1843	51	12
haruponsei	11	7
digitalarkcom	20	7
thetyuya	24	15
AMmiso	66	30
Zero8923	17	89
rubberstamprosk	0	77
namy1230	116	22
NKR279	96	46
fullvirtue	229	93
chidaks	40	40
gnkm	15	4
MOHOSAN	5	4
anekochi	40	32
cubebit	36	55
kooo_ki	174	180
packdisplay	21	5
kibou_no_sora	151	79
_keipiyo_	9	2
s_tetsuya0928	109	74
tokyote	3	86
koma2_a	97	86
mmc_kgur	48	22
rokro_poid	200	390
tsuru_jp	49	16
undertones66	75	51
Lily_kohaku	93	99
kiki_cafe	10	1
sj0mkb	55	42
yurika615	59	16
misakimmy	177	141
mwtkr	20	6
infinityorca	50	50
takeponchi	163	154
koshikawakazuma	6	16
Halloumi_	17	8
masahif	111	157
NakamuraToshiya	5	13
maquwe	34	24
gab_km	113	48
mayutomitsu	2	0
nagashimoney	43	33
chisatogk77	25	26
gurtyan	171	43
mariyokoyama	12	3
massunsan	83	23
typena	19	47
naonainar	16	5
catwoman_rocks	24	15
TweetTempt4tion	0	5
minoko1973	37	12
ego_tw	27	34
cottontail_d	98	69
U708	60	22
fw11_red5	5	0
myuneko117	42	15
xxshiina	220	169
cyana_y	82	34
rin_yao	64	94
sasoiukeotsu	13	10
reanbell_love	94	132
radiowave777	30	35
bouyuuzin	27	15
sg9_	62	50
carl_louis	45	13
momo1120	16	13
IHNFSA_	46	32
okazy37	39	8
Shimatorax	89	32
t2yos	12	12
Koinbla	104	40
moomlight00	69	49
kanmayoi	102	98
Hennessy__VSOP	200	321
yuuri1122	18	7
miracoro	10	2
coloringscent	49	24
vividspirit	5	71
miri04mirthless	24	17
hanuru1114	28	17
GO7thJ	16	14
ma_ati_ilda_a	79	45
kaz0358	54	8
FEAR_PRIDE0311	6	7
horntheara	87	92
thegodfather___	27	48
wrack0721	24	24
sugi_yui	96	65
2PM_626lgm	138	133
sekino	19	14
ktm_22_haru	13	2
Smile_mist	15	10
shigekikeda	15	16
ArsenalJP	3	15
_zorori	103	221
jinkohshi	20	6
kijineko54	82	20
kumtil	31	16
CylonModel7	0	0
sakuran_nyao	22	6
kappukirai	24	17
fatman_110	28	25
jaewook_moe	63	33
tabinowa	54	35
hoguretu	99	113
comfort_mika	28	7
sparkman_bot	20	15
orbitthree	30	1
silverhoneys	12	14
princess_maitel	12	2
maruwakaya	100	40
uroit5	44	65
nage0727	153	96
denversolarguy	0	15
HeyEsTanCierto	0	0
bluebluered	149	20
yukiekinoko	18	6
kuturo62	22	23
moggue	38	16
chamuu3	134	77
gussanrx	13	7
mee207	76	87
kodiwo	107	22
k_mikity	37	22
Akira_Valhalla	102	129
hiddy_k	6	23
0730totto	39	30
KAN_cam	31	32
krbs4296	189	195
NEWLA	57	32
08084645	19	11
RHODES_Premier	12	4
masamuneo	33	6
k_haruna87	154	99
genki_chiba	91	67
yui_shina	50	13
nyamisuke	32	4
re_comoi	11	9
brainsymmetry	51	30
banpreios	176	79
yuji_abe	48	24
inuinagi	71	99
niji_xxx	64	8
lomotter	98	23
momon012	56	14
asrting	43	10
popolon6	72	18
COCOZOmaster	27	17
RINGxRING	367	554
rTweeeter	65	128
mio_xxxx	51	16
caravan387	320	269
zzz__u_u	17	2
mobbyuki	151	52
gomayarow	18	9
tsi	44	51
6milimeter	154	157
KIKKA_Show	38	6
toqyama919	24	8
Fentanyl94	3	135
Leader_retuden	12	9
paru_kun	24	29
zildjian79590	7	10
SHOCO_aka_king	98	84
rinnecoton	97	47
kmmks379111	48	40
okamokkori_0614	98	86
teotsuka	45	41
beat_hr	22	21
merimacco	38	18
manken_red	37	24
taku_nonaka	18	16
panillo	9	3
suzukican	57	29
Kxnx11_vila07	22	16
saiyajinbardack	5	2
_taurine	25	20
leadertaka	179	188
SweetMint_Mai	35	26
HisashiF	177	206
jugo17	21	3
crubbby	53	61
ne_net_vv	153	115
odaibanet	3	59
riekitaharusumi	6	8
Linfiel	539	995
Kintsubo	3	8
hirenko_luou	245	184
runpini	11	34
tukikumo_12	28	42
ririhae	151	74
moonstaruna	8	6
SikataA	43	42
312705_	124	34
nyahahacat	12	4
ryoryowww	181	217
tvxq_herojj	220	185
viewchuo	20	25
BIGSLOTtoma	1	1
danee090923	27	11
pulmodane	173	165
curepassion	24	26
wild_abandon	19	5
HSTT77	265	168
GoodTP	14	1
sensho_gahara	52	25
mutevox	671	332
ccc_5559	107	232
yr_k133	116	64
Gelieve_trouwen	150	120
chessneko713	179	112
penlabo	63	90
bara_jp	36	14
anapalme	1	14
bozattack	14	4
Erusie	161	214
ukiss2kiss2me	3	1
arinkoarly	27	4
suzu_pixiv	137	293
tamai_youki	31	31
qjbjt945	13	62
attadipa	10	5
monmie	15	22
fuka_chan06	68	46
kuma_sakumi	203	44
ca1ci0	17	16
yoga_tocy	4	6
fivemangokun	19	25
ymym64	8	9
15ssozacho	8	2
peridot1st	61	23
3h3e1r0o	47	12
motiko280n	107	130
akkkiiiii	16	3
singerskorea	21	17
sirocl6102318ti	29	4
takesuzume	19	21
yone_suke	10	7
mirintomato	7	6
taktcy	66	39
mame_goma	17	7
jtandst_wluv	86	33
smomoe	8	6
kureha789	47	130
fjwr_Vv	82	31
muchachee	13	13
walkerplus_news	3	2
nachishina	65	20
itnow_jp	255	444
garapago	246	173
gift_1topi	32	17
yRim9	202	195
308xxx	90	67
you_mko	103	79
nalu1238	22	19
setsui_kbtks	38	25
sayujj	182	89
shiwabull	28	16
superGOTENX	28	16
miiiikchonansb	28	20
shinno_	202	182
royksopps	5	98
layne_f	35	40
kz_gattamorta	92	30
G_kuo	201	98
risa_kikilala	238	229
hrtskk7	43	66
sugara88	108	96
ttyokoyama	24	57
asukah0321	181	148
mnbru	139	178
dear_pro	35	30
yoyoyokoman	21	14
watasigamamara	15	10
Nanayia	0	10
mokachaan	25	30
yoshiken0915	34	27
yuammiii	86	29
akira1099n	251	224
b_b2	13	8
maruppon	10	204
niwatoriof4	183	262
yoru_factor	149	67
taki_jiru	54	19
a144a	47	18
kenichisumimoto	55	3
0smdy0	6	0
123kmorita	13	2
lnclk	81	64
gungnir74	91	34
kent_ara	37	10
keishikc	46	21
nile_yok	261	337
kewpie0510	102	18
POP1984	180	132
licca12	155	57
TanithMia	0	4
masaogjwh	5	2
RisakoMagazine	158	252
nara0223	132	98
JackieLNelson	3	35
RS_Wakita	97	72
takashinoyome	62	13
kjmn0925	120	112
KrystinAvarbuch	0	0
rin_410	1	1
RufusYamamoto	225	225
mbtkjray	129	234
ryou056	106	59
Okapia_Johnston	27	22
junvjun	189	66
ryo_imamura	49	38
yukishirabe	180	76
matsuO626	17	4
neko1225	117	284
todays3263	23	15
38wa0617love	32	42
rika16go	26	5
tcbnn	196	236
RB22Kishi	23	19
ss501foever	43	30
kaory13	57	40
marymary922	19	25
zuuuuaaaa	25	26
to_lucky1492	191	65
Naochicken	97	69
nagaiyukari	24	2
chaborich	15	6
kieramoletking	0	16
fujiirika	19	3
Pademelon0123	30	19
zizzJack	22	23
wan_co	76	79
nxkxxx	5	5
hikch	35	64
issuian	30	8
ishiimasaki	34	15
utomr	120	53
hako_2_ksk	58	39
mtsmr7	26	19
AdaMonAmour	229	425
arieslvk2	51	25
n_yagishita	87	56
MAKYAMI	117	91
ka7nanz	49	8
ideastree	2	12
akurah_i	48	40
maplesucre	149	63
TheOnion	0	21
junjiro26	65	66
mymr_s2	70	14
aDandyInAspic	16	14
MITOMANAchan	59	28
avecchiFC	22	14
Tarteauflan	38	49
ymf724	5	12
kyon_gsx	9	9
845myst	103	79
umi_pk	56	54
ktam1	98	54
PiadasNerds	0	6
ktrymysk	109	109
sen_JPN	75	57
HavanaHavana	49	9
02fairy	110	20
mr1582	40	26
goga_rocha	0	47
s_gemma	34	27
eccentric_marki	18	14
phosphor_m	74	44
mieno	143	141
tadashi1213	15	2
totty0912	17	9
pinoco928	13	3
tohoshinkishota	12	7
RicopiEAL	15	41
nakamoo999	4	2
coccodama	40	28
eatmemthrfkr	0	3
pu0017	10	11
skm1115	10	7
nasta1123	275	488
nomuzou3609	61	17
atunngo	1	9
mahology	115	99
giko_neko_k_pon	10	17
chihaya365	18	11
dj_yoshino	104	40
ACs1996	69	64
sweetscreator	41	20
camosuke	145	184
DiegoFuentealba	5	35
hitoo_u	70	56
tanacurve	143	220
trazomperche	84	25
aquaaria	4	4
hee_miranosand	11	5
staring_inferno	8	10
makihase0121	73	93
mich8843	52	73
uhidp	20	18
norochuuun	103	46
miku_edo	50	31
utugi	203	120
miko1018	225	131
megadethsmile	17	11
toketuneko	65	6
unknown910	10	9
dot_tob	51	35
kukuru2005	54	40
AkikoNikaido	37	13
daitenshi_kaz	137	68
fuki_nugui	58	38
hirokkun_dope	21	14
ayarinz	16	11
koetayone	29	47
yasu_pacino	57	16
somuch3	38	48
ssk_4	15	8
michanbay	86	39
ekosaka	33	9
smzskk	132	109
yossyi0904	155	16
shibamuuu	96	90
ichizenman	28	26
LEO_0729	47	25
iizukayutaka19	21	8
SpikeMinami	193	29
00000000vtk0x0a	23	25
supergirl718800	79	41
koh_0416	155	43
shizuku_hiiro	146	100
PIED_PIPER916	66	79
naru10922	130	69
yomoyomo	5	8
hiro2014	4	1
JAMFAMA	134	78
icetomio	15	12
SOUTA911	7	5
tmhs93voice	137	135
pythagoratos	43	8
ENDLadish	85	58
iduki	165	136
chelonus	93	171
eholy	34	17
catalyst_yuki_k	188	126
JaxStateFan	0	5
Leon_chococo	55	7
pochitic	107	113
WhiskyGostozo	96	66
kohankohji	74	37
ganyobo	115	331
mo_omj	130	62
gevanni2525	80	80
winsun14	72	31
pkmy1992	85	22
imaidegozaru	11	6
hacchi1973	38	8
frp_y	34	36
mayora_	132	294
daedsievol	52	34
yukichi0420	36	22
mrk445	68	60
yuyakurihara	121	88
amnetosaka	28	4
ELExKING	72	26
pearl239	50	21
Lobleble	42	205
osawakenta	41	22
Gold_Soundz_	2	5
Boom_yeah	1	2
lovemocounselor	99	27
taka2xshi	69	60
bengchang	126	63
anri2525	49	23
sikkokuka	30	8
ayako_nabe	37	29
bokukouya	15	35
kazyu_nyoro	15	29
kick8539	55	22
AliceEnvyEyes	183	262
ima_chira	17	8
Sow00	85	47
atoichinenda	17	41
rakko001	39	20
DJDIET	105	28
kn_x_phg	66	65
96000z	50	63
jillfillfull	23	49
atsu96	47	27
letmedestroyyou	86	61
modnoodle	23	13
Petitepudding	37	70
RyoKawai	63	46
makumakuma	112	18
neoyama	45	20
JapanPhotos	1	35
maronsugar	31	68
show_show_	58	66
sabusabu0707	7	4
verkennung	109	94
etotatsu	198	451
SnowyWestie	5	68
youngchimin	9	7
24335aaalav	61	50
honeypoohsan193	175	93
tksDo	40	14
emma992	1	109
hmccormack	5	113
Melancholy_Yuu	106	101
nishigero	50	46
yu_korichan	16	24
sh1bachi	2	7
mattrando	0	5
ram3622	183	76
0onamidao0	187	99
taneryu569	74	63
rokux69	209	140
oneeesaaan	38	17
_momolove_	151	276
alltbl	22	5
ruri_morpho	52	30
viswa214	50	60
chie_snoopy	28	6
0c_0c_0	35	19
yukano1104	4	1
gokusaixxx	130	89
rinkkai	105	112
nekome105	32	30
syameimarumomiz	175	193
emigoism	1	0
clan_fukuoka	0	5
kojiko1018	174	246
yanagi_ryuu	64	58
aka_purin	297	131
ABDpromotions	1	10
warararaN	289	193
me_azure	21	9
Akariiiii2121	17	9
cocona_oidee__	5	5
yutaro_i	135	70
soso0621	381	321
soundlikeshit	7	4
Fujiwara01	48	6
cainai38	102	72
kayo_9	57	13
1221k	45	35
ninosuzu	17	1
Kanata_Futaki	54	50
Buapuan	49	353
gonpoco	6	1
Chocolate_55	32	51
route396	148	48
YJulianaS	36	14
takashi7chan	25	16
sion_epinal	135	79
Mana_lalala	143	63
Faye_Chiara	204	155
scott0tiger	18	15
kimagurekobuta	10	45
stevekon2002	50	26
Kan_G	9	6
nico_lovelove	487	304
aaaaaaaaaki	59	11
Dhampir_dan	4	6
t_shizuhara	64	78
ruthygarcia	1	19
asxce2	78	105
twit_takamiz	28	12
moecom69	11	5
rgveta	34	27
ShigetoNakahara	3	2
cancam_ray_jj	114	69
K7monster	10	94
yukiyakonkonkon	21	8
ht_low	187	300
melissa_lynx	16	2
p735k	71	74
Shohei_gunner	45	28
junko_zakky	160	76
BOMIMICKY	19	23
The_M3	28	18
akiraibuki	108	40
maji_opai	17	10
alfons11taka	53	12
antasy2	17	29
karashima	22	6
320_	20	12
kattsuo	16	13
abanidrees	0	9
chikak	55	37
makana77	32	36
shanananoa	49	32
0jat0	17	23
ihsahim_iehuok	11	7
k_bigwheel	93	80
karaimohara	9	19
ya_sat	5	1
hebereke4438	17	25
kohki_178	5	4
yurixxxxxxx	43	51
lsziaufuz	125	41
t0t0t_yuki	13	14
masa_of_death	122	83
patriamea	0	5
culture80s	51	15
tommy39core	22	24
akio_s21	88	91
nuetuki	71	158
Burin_Yutaro	45	35
passage69	106	21
sakumasakurairo	19	12
S_NISHIKAWA	264	162
Kashisuta	179	241
Jessica_Warland	0	28
FK_Rhythm098	11	21
natsu614	266	482
kugetuyouri	104	32
shiichan1010	2	4
ninnjin3	15	9
hhideyo	106	56
snow_mamagon	6	14
mikemartin1984	0	17
yokenwokikouka	8	34
ox08	137	106
oyatu11	61	8
o_ob	302	154
vesti_news	0	11
ThomasDXDX	13	13
bananatyoko	81	38
mtm_m99	116	62
nen_neko	65	105
kaneko_shinko	1	1
j_doe10	89	66
HARLEQUIN_JP	14	10
sakotaro0315	74	71
saka_yaki	264	285
aoiasada	98	75
neco_no	46	36
snapeeeing	39	65
chiakipenguin	34	41
papasweets	14	2
milli_design	47	17
noah1655	251	126
Hitujibane	72	59
igarashi_jun	74	44
kohei_love_pan	115	63
wbyume	4	10
96mi3	37	16
cineeye	209	248
talesofzelda	140	19
ray11074	52	20
basearashi	37	15
babakikaku_s	111	38
asami207	5	4
oyuumee	3	11
Geoff_F	0	2
munegorira	49	32
fujimatakuya	13	6
Guioteca	0	17
N_Exner	9	97
BloodyMary1507	0	95
tommyradcliffe	35	36
kaerunoasako	27	3
tsubura	26	5
titowg7	25	51
yamyumz	107	38
izayoigd3	138	81
nyantonyaku	113	99
demodorifuzyosi	113	38
xxxxxxxxxb	10	6
byouhunji	114	69
inomah	9	10
Satoru_14	8	5
noma_noma8270	83	36
umai_bar	75	70
Miconly	138	76
1kehand7	22	16
yu_hi_Alt	14	1
Shinobu_Kirino	20	4
barrackdo	242	217
xxmasa_yanxx	18	10
ma15girl	41	27
VIOLETat470	123	52
xxkaor1xx	133	57
YASUTAMAN	94	42
masachai	22	23
amamimajin	58	22
marionetto0129	58	31
bakobako3256	12	7
izuIzunokuni	32	5
likebright	18	8
taka__	107	283
hasimotti1	5	4
t01109ji	69	32
AhaaChan	212	171
Apple_News_Bot	47	67
JunichiroKawata	14	8
jackthemouth	76	88
shino_saltlake	146	154
pingping0119	11	5
mamehumi	98	100
sayachan382	56	34
masato_ohya	71	81
masaru_de_paris	27	35
hiyori09	119	120
ibarano0506	24	3
daigenda	22	19
himmmmy_lcage	185	137
cacao_mame0w0	140	356
yhxkn	86	109
arstm1218	10	12
miikv	34	26
napoli_6	58	43
Totem980en	81	58
tamanoka	124	154
ysdtaka	54	11
fukuihotel	1	6
222lv	203	497
okuda_yu	36	13
Dokuro527	165	251
minato_tyaso	75	116
ko_jo	12	8
jyuki169	35	15
toshihiko2003	10	3
yousaidyusei	25	20
mizuki_k2s	86	49
melshi	180	225
miyotora09	12	1
untantan912	45	29
_machika29Q_	184	67
schwarzwald315	179	51
bitte_bier	73	75
yakamoto2019	17	11
winertacco	52	30
No_more_Candy	69	24
R_waka	25	7
kotuem	15	7
hochi___	174	74
00hrtmk	62	31
mitaka_i	57	25
tm_tomo	208	170
kyanagi	7	9
ry0chan_	9	6
liaoisa	124	73
catirie	267	282
kurozakoex	106	104
yamakawakusaki	7	1
Yukky3_3	16	9
mizuirodrop	10	6
YUI_believer	178	448
ha1ru2ka3ze	77	35
kajico0510	41	24
Marichael618	11	2
dennnoukenn	132	90
okiyuki1013	52	73
himajin_orz	46	30
tomatomerde	8	18
SRB_GENk	75	91
auntherb	17	21
grace69uk	80	61
rice0622	115	102
blueloberia	15	1
reinaldorangel	1	17
sirWarndernmr	8	10
nqchun	59	21
iwa_masa_32	64	23
mignon_fille	40	23
asumisua	32	2
marshmallowcd	134	27
kaiku_hokki	138	112
manatsuchan	79	70
yuzujun	61	45
Ecodana	0	1
koji2929	230	290
ksmeep	18	8
WEALTH1979DOG	279	163
michiruchiru	67	34
Chikaaaaan	79	152
torivertravel	35	39
hnwtp	79	22
5121heritage	91	30
korn4317	118	118
km_effort	33	14
nry0423	5	12
mikurock18	23	14
OxfordJNLsJapan	5	3
loveandsick	145	84
focalstore	93	91
PerezHilton	3	20
0meguru0	28	9
valentin_meyer	2	14
cocoroshi	127	71
shuqoo	3	1
nantosuichouken	12	4
newakiba	22	8
xch1x	31	12
yuki0148	9	4
marumerry3	30	15
k2yuna	50	61
JTJMMR_Jacksons	17	51
dkago	38	41
klaxon_m	138	94
yosaiolani	27	13
eddy0468	84	77
nori_1121	59	26
m_ekkusu4	93	40
omegu_panda	29	16
ruiko1134	17	10
mimimi32	11	4
daisukein	25	13
Kuja_bot	2	1
gakudesign	3	1
matheusilustra	0	9
minoru0221	51	20
NnbTky	108	92
hiromioat_e	35	15
Yuri_K_no	49	29
tomsk7	81	153
hungrybug1359	19	23
KAZY2010	43	19
DJ_Hakka_K	173	114
masu_masuko	27	26
O_Ysk	89	117
Hilander_Kaguya	110	119
satosit	16	3
sinatik	25	65
INOMASA	35	8
ioannioann	9	15
M16nokouhai	24	36
putytego	25	33
abnormal33	68	46
k_shimacco	81	47
lune_lac	60	10
miyuuukii	20	6
yamac24	72	37
sssssssaaaki	81	28
hamanaomi	20	21
BECO_8000	41	19
smilyito_e	109	37
suburbia69	48	26
the_daily_news	0	0
yurippe928	53	41
ddtop924	28	11
tyanpon05	104	35
misa_sjz	23	8
mizuma	52	13
setugetufuka	16	11
gaclkatn1204	91	12
hidenoputune	94	33
hamadake02	23	4
DLBinAnger	42	20
MihoKunikata	35	13
rinzu0709	26	16
x_PsychoLove_x	21	320
majorcmajolic	12	16
keramaago	133	74
timtam1982	22	6
ill_sh	150	143
murmur_twins	151	35
miyatakenichi	9	6
Banker19	4	8
Frekvenssi	13	34
yukinkosakuya	97	90
Franny8301	72	22
deco4cats	80	51
YouUc	55	55
kanitamaxx	77	33
n_ariu	34	11
yo88ghurt	18	21
Miyara322	102	213
jekylln	65	33
take2022jp	92	53
rinchang666	91	20
SNZK_Wa	111	81
ryokawagishi	9	3
shi2origami_bot	15	1
makinoko	42	28
axce11	368	303
mkt58	125	35
teardroplight	74	48
minimumstar	107	76
marina_silvia	55	11
amateras_4life	17	9
momiji107	86	92
nyaoou	45	12
kurukurunesan	49	19
shinsainikatho	35	65
marukobayashiko	31	25
yuukisan08	107	184
kazuya_skrmc	85	26
ringonokitasman	51	12
myrtille_chino	21	15
cb153cm	95	47
goreturndance	84	38
yuri13	97	83
tinnyatinnya	3	10
usamensan	2	6
kata2muri05	31	23
tyusanda	2	2
CLUBMEDIA8	14	2
miixx69	136	108
YumikoShimizu	47	19
matsullica	90	35
skycaaaat	65	55
mayucosato	27	6
A_RA_SHI	238	241
chorepi	33	9
MaxBananas	0	9
code_air_edge	315	482
popbum	191	162
jonjanjun222	13	6
Assam_Occam	36	14
TxS_014	4	9
harusame_rwx666	52	60
k710	28	38
hanasmiles	50	39
eshinsouzu	25	1
mitsuki_3_2	13	9
ayatama5	44	7
mako_N	12	0
shuheichronicle	10	11
himawaribataken	51	38
yukitomoshi	59	37
gotch_gogo	28	23
binbouosumesu	94	22
SIS_FT	65	56
mizutanikyoko	167	84
qsamuelp	185	189
tamagana220114	136	55
kenya4989	141	86
kita510	169	78
emoritatsuo	96	12
lv4213	7	3
meronpan3419	114	166
kouyan_chan	77	68
Nekotanoaniki	43	15
otokitsune	69	58
tkzaki	285	188
azazannzu	51	13
ams_zoo	124	86
kasumi_n_t	60	19
songofsaya_	81	61
44da3	182	171
a_sweet_kiss	67	99
shirley7_8	235	138
HISAX	9	0
KENdollwitpenis	0	6
tomo_moko_26	149	43
Hxlana	96	74
piyoxenemy	32	20
Yuki2Pino	18	6
10vejintan	25	5
ZUB_ROWKA	36	5
bahha140	100	68
saco68	29	7
mitz000	11	14
Eire_69	8	10
horiken24	36	23
mayu_mayu_0415	109	19
HarvardResearch	0	3
ccsxw718	58	26
mahironds	25	29
laptrap	28	24
nok1219	90	72
oe_aMMitsu_	48	12
kiririn19	53	25
ema_0911	49	26
dqfu	15	4
hisaka2525	4	8
saeringerhat	123	164
chuxxxn	39	51
myaaaaaao	49	15
hanako_boo	11	1
shinji66bh	15	6
fujipon1973	70	36
sou1hak	24	5
f_wag	67	101
yukoap	6	5
luuuuuuush	52	24
wakhara	62	20
arima0208	47	139
HiroshiNukui	19	7
uogokoroo	204	216
mocazy	118	115
yukinotubame	286	288
106takira	36	15
helixespionage	3	13
Taizo21	50	124
kitsune999	7	5
ayumiv2ne1	27	27
YamitarouOtouto	50	17
yasuniairairo	99	56
iris_flower0505	30	15
_black_pizza_	48	58
katieee_sue	21	8
Forly	112	138
Gingetsu67	74	35
a_717	176	166
morisobasan	26	10
araikanai	187	89
az605	100	73
aya_gos	61	23
lllorz7	155	37
lily9229	15	15
sakko_o	800	640
misaka_15563	45	26
itaxes	16	8
dawasa	59	18
hey8hokuto	34	24
bandovi	84	106
sam75425	33	2
hal1234xx	37	11
anko1014	23	7
GOTS_FRUIT_P	173	230
bhowling60	69	74
shi_take87	43	14
michiko128	59	45
imstan723	28	28
yumenomukouni	279	260
umetox	14	33
monch_1101	56	20
go_go_takagi	30	9
tromboaz	129	62
echooooees	57	11
sasatsuyu	88	34
nigiyaka14	114	73
miyanami429	57	132
hanamarupi	96	89
samueoyaji	120	63
hagibo	167	183
mei_1015	245	229
yunnu	63	52
dasukin36	118	56
Betrays	63	54
goishi514	8	5
nanaannak	5	2
solluvia_tvxq	193	90
Takuro_Suto	37	11
rsmoon	200	55
yuginet	73	47
itakobo	115	56
G167A	12	3
mmx_yokohama	31	2
hattorikun2525	59	49
yuchixx21	5	4
esuenu_S_K	13	22
Rochyta_rox	0	0
sanasakilop	152	166
TokyoLoveIn	71	108
yowabiiiiiiro	211	314
JM_MP	84	209
mokka522	45	15
Matsu_nico	95	72
watanabeAi	71	40
iuui5	9	9
fachin0728	128	151
nyx49	59	29
Lunatic0903	68	41
akicoao	110	34
chakialchemist4	33	47
hibifuon	132	55
ai_kitazawa	23	7
WizardofJustice	83	34
skynyannko	17	20
yoiness	3	238
mimiosyou	27	13
touga0626	75	29
ngnmk1	13	7
DAWA_FLAKE	2	4
Kissing__5	84	40
hiroYUI7	60	17
nmaroie	8	1
eleft88	47	11
dj4am	0	23
ninglegle	95	33
faru1215	163	168
wk_meg	106	52
tomounderworld	34	9
MoLstyQuickly	23	79
jndabc01	76	52
mocobanila	127	36
d_sasa0114	35	15
apix464	21	17
urie123	15	42
nu0121	177	69
miyakumo	129	73
sienn18	93	75
di_lagos	0	4
SuperShooter315	43	12
cgcurry	91	154
5884yt	85	31
SunTFalcon	27	19
aki0814	90	124
sigure_dot	104	137
aycoro	50	134
hemutaibassist	107	155
aiolite	52	14
mossan747	14	11
___anya	75	32
mohichu	615	463
lanang_kadin	28	13
7svntytw	98	131
yuki24	73	37
syatijojo	37	11
1cours	38	19
rjbook2	228	282
Yoshitune	80	48
helloprog	74	59
toh_9	44	47
hatachikako	52	16
west_963	172	70
gumichocopine21	37	52
J_P_Polnareff	240	121
yang_kame	25	24
fukupiii	23	20
a_cha119	86	5
killer3261	18	22
tsukachin999	78	73
nuttywww	110	40
Sorara_Blue	82	52
check__one_TWO	31	18
takahirotanabe	26	8
iihsoy999	19	17
SCHOOL_YANO	112	25
candygirlsremix	90	127
hirorix55	315	259
SankeiShimbun	325	89
Cackey_chan	34	13
hanachiruya	8	29
wakaba99	44	12
ed_ay	16	17
adabanazl	66	15
midori182	2	74
kozapin	9	3
sagw8	370	467
isakiki	19	21
ikasanma	79	74
bautizo_minato	33	2
Iloveyosakoi	119	108
iimoxyome	117	73
ao_ll	45	14
trinityemu	80	29
reil122	13	35
NOITAMALCX	85	94
shota31	6	2
y0hei_ohno	68	32
RyuSawamura	42	16
cherry_m0123	85	35
329_chan	3	10
NAS_Bee	8	14
djshimamura	98	109
ksase	15	33
ro9you	20	17
saradisco	16	13
DontThinkFeeeel	104	97
_kore_	64	10
miduki101	68	100
df_2emily_k	69	15
ggs3594	152	244
aotani_1234	176	116
ritsulikesblue	123	25
natokazu	66	83
nao_GH	10	5
becsuzuki	4	9
BlackBeatT	101	158
K_uozumi	135	23
uko_y	12	17
gahko	116	71
kurakura414	45	25
i_am_teihen	66	59
8811love	36	19
27_san	22	24
ask167	114	86
11110vivid	74	23
akb48_in	152	50
satodai78	122	48
Sutikshna	0	0
gomachin2525	72	42
matatabi_3g	103	262
RjyjRin	47	17
tatsuakima	112	192
yukumon	18	7
senninpoi	51	16
kiryukai	64	42
x0rg1m0q1	326	143
hirokuni_oda	78	13
K_Taba	4	9
sukapaaaaa	5	15
ryutAnnN	97	54
shingori78	81	47
KKRelisa	39	212
Akutou_Filipina	65	36
kokokokokezaki	93	16
kuro091	1	70
utalele	15	14
jowyang	0	6
L0VEM0NK	31	15
totoadad	130	78
saki1203	47	33
kaityo256	5	2
iconsozai	34	26
gyabatya	22	7
keeeeko1989	19	34
herojejun	21	21
yubotaemi	207	121
uwa0maru	166	56
RAI07	71	101
nchiyo	29	16
happiya	21	4
sk8er_trueno	68	27
m3dot_y8a	9	15
JGiovannii	0	37
Kodester	4	13
10achan01	10	14
JDAxxkazuxxGE	53	33
worange	72	34
ooma___maguro	6	6
vinkchdk_0913	40	34
itoota	52	66
Sky__soramadoka	117	29
chia_mint	285	368
jochemfloor	0	63
anna_karina_94	63	26
i_kentter	21	4
chai_tea_latte_	74	25
ikechan_s41	102	50
nemui_no	81	50
katakurii	32	10
01544_ran	175	49
tnytmy	53	25
honoluluday	13	10
shinawaki	199	67
_riccyo_	19	6
chris_rn	10	10
noca52	58	30
chocolate3225	30	20
2catslove	9	6
kensangyunyu	7	13
Sawaya_kani	116	93
sha_ku	111	273
Knjhtk	14	8
PeeetaaaPanda	41	52
dakayodayo	4	4
otonaota	27	6
at_space82	32	12
taca_310pii	30	63
suzuneko_nyan	67	35
Dr_musclechop	73	27
mugi_sp	28	35
novelovesnovel	52	24
basscla7	17	2
m0m0cl0cky	6	31
Scaltinoff	53	59
mizshow	170	298
englishmin	29	13
stopHamaoka	0	10
siren7110	80	134
suesailship	108	112
ToLi_Torey	35	35
yagu_rock	276	172
Blueberryfield	42	15
bulupya	3	0
massa_1984	174	79
oniwanokatasumi	51	22
hshoka	144	361
f_gk12	55	26
GARUBAMU	33	20
ken39arg	56	75
yoheeeeeei	20	15
A_tsukinorico_I	12	5
generalAO	34	31
MioTsushima	16	10
shiemi_bot	43	36
Vmax357	177	287
Italiano610	11	11
onihsoy	52	45
nabosuke	142	121
m18rbt	136	86
xxnorabouxx	43	36
TAKOHANA	16	28
JovenesHechos	0	35
jimrhiz	5	69
nira_tama_	100	95
ten_sin_ran_man	195	311
mikarie114	75	61
Wow_NudeBODY	118	56
yunoneichan	44	14
itsumi53	74	55
sakamoto_t	156	222
e_banuelos15	0	36
enricprades	0	40
tamakuramobhiii	21	12
komatchr	80	37
maki_musicolor	67	20
takamatsu_3170	17	22
kandarson	300	218
TedYokohama	1	25
sayuriasaoka	70	61
CheliFdez	0	125
luchifel	205	276
muki0647	130	36
longsword0113	16	23
chibimabz	13	6
kariage_orenge	31	18
xm1nn1ex	2	3
ZEN_SAMBO	10	5
yamatotakeru422	21	27
sin04043	38	8
ba11_sk2e	80	91
naomi_917	77	21
rihico	16	4
rn31x413v	16	5
kuroinusha	27	12
FuZees	2	12
sandiegoyuyu	4	2
senayu_mi_x	6	15
ProOkubo	28	3
mirakki_mirakki	19	6
jihou2	67	299
shoogo2	25	4
tukiyo315	7	6
ReiChitChat	9	6
VincentColl	8	17
mai_the_rain	179	60
Momochaner	155	90
rucumJ19	67	197
mtdrk	85	19
YukihiroKenno	19	7
wumderbar	297	386
maox_15	314	365
TVXQ_Chani	37	177
asdblade	76	143
saiphoto	87	71
tamyuuu	57	52
Michaelsystem	34	48
aikoBOC	281	209
kannigo	53	11
t_nagatsuka	17	9
John_s16	53	34
hifumikkuma	115	70
Ayatyonn	2	3
djken2	45	19
hashikutsu	78	40
keitoaoi	98	167
sayori0917	31	24
gitetu	21	7
as1day	5	3
inti8p1	11	4
kanako_m	5	15
peony_root	33	10
Takk_fp2	13	5
kurobei45	60	14
kazukest	153	60
33yann	19	3
komeyacht	1	0
kazuat	106	6
hide_eikan	60	16
NULL_MASA	184	89
imopan2	167	168
cheersmile2	7	6
PlushenkoNews	1	6
dacchidacchi	64	40
aroeriinu	57	14
caruos	74	16
nonsense5533	100	20
honmaji	127	65
BokuNojiman	78	43
shounen3	21	10
manamisuzuki	13	12
matsuotakuma	21	9
gesu_the_world	89	77
syurala	18	13
urbandage	19	5
bookmarker0908	140	31
62seabee	0	0
aitokunn	72	136
molohira	453	681
kiyokibakaonna	41	21
yuuuummmmy	59	41
04jyjcy25	46	7
TipicoMexicano	0	7
elricxelric	244	81
comamiu	104	72
spica919	133	55
cnn_news_jp	0	4
mamepapa1	4	15
Ac64hic9ken	89	11
meiya07shiduki	99	29
ryuun	27	9
DTM0313	25	17
rainygirlrdwmps	117	57
poke_moon	77	47
trianglelab	45	13
ran7hime	16	15
feena3317	262	261
OctoberSky_sim	11	17
hicove	43	24
marcia1153	7	106
saakich	36	40
boiled_egg14	131	36
rondotto	64	83
nasushiobarawom	17	3
felmata	221	258
mintosmile	35	13
YAGUYAN	84	80
ogaimplant	34	15
sokonuke_san	57	19
ikeya_ll00l	165	143
takaosugi	33	19
matoinoba	322	120
kamipro_saitou	105	63
tokiwa_a09	266	331
inanosato	71	38
2torin	60	78
ginnrou_yoiyoi	96	114
_HA_	70	338
ichigonji	175	123
naruse_0927	79	96
youTA_sbs	18	15
meru_maki	127	31
keibk	24	11
nayuta_neko0903	10	13
hanayama11	150	30
teriusu_jp	175	61
torajima1001	201	77
nekozanoarute	157	139
Gwen3103	24	4
a_in_k	189	189
yuusultu	672	1602
xypan	8	10
ara_river	19	7
zuma85	0	2
mdown3	86	27
haruutan	1	7
pitucorodrigo	63	27
asahi_pointzero	47	52
matsuyoo	61	94
showtaro3	14	12
amitoko	23	1
yjmnk	53	36
liso2_chii	180	187
orangeharpist43	34	15
comorinco	82	25
harumaffin	34	14
ispeakswag	1	15
s9mayuco4	106	80
ujura_ronpa	34	15
DawnbreakerG	29	15
kakuit	223	195
MADOKA87FORMER	45	8
kyou519	14	9
kururi1116	286	287
kentan_d	189	673
red_seed	27	2
Radish_Tw	124	88
ueno868	55	16
sato_ryo2	97	70
geetha_ds	0	62
mamina_sfigata	67	13
kunkunbe	61	26
Cerberus_N	17	8
MasatakaShimono	38	26
akao_galletto	57	70
mf0805	99	36
DulceMaiFren	0	0
OH_BIT	18	9
reika1518	78	81
ottyajp	103	101
jun_poko777	40	50
hayashimasahide	18	8
pcotaku0180	54	106
anmbktcafe	23	18
manami	54	35
_tsu_ji_	5	4
riot_16	87	61
hisukuro	59	23
tomomitakaboo15	10	4
midoriname	196	157
reco_nm7	173	296
sheeepon	13	38
sebasmartinez86	0	3
hallelujah0413	41	20
mifule_mieria	65	59
xxxSKenxxx	50	43
pap_sniper	28	7
bac1123	11	12
guuyantakehiko	22	9
MiTaNe_violin	267	225
Jurarumin	29	7
mjclaridge	0	4
nohohon_LD0211	34	19
shoppingmii	11	9
punch_line	307	171
niccorogashi	51	40
hiroyuki0221	3	2
hokaninaniga7	8	2
nuko_0w0	22	5
hito0118	281	119
sinonomeaoi	137	12
hatsu_com	5	4
arpk_03	89	167
xxevilivexx	17	16
ayumi0226	31	19
Public_Place	214	866
hananokawa	35	16
yotsubablack	108	62
pyon75	6	0
masaya73	70	34
4jfuture	23	18
hachi_maki	21	8
1313uzaiyo	116	101
sibatama	143	50
morihal	9	6
T0D0KEN	41	21
hare__sola	113	135
AZIA3104	90	50
real_cocoon	11	8
Ay_attt	65	22
hi_same	72	61
zyo_syun	10	13
kiokitok	130	44
youko_at_home	101	36
8kagura8	51	26
syrup1234567890	41	18
heaco15	72	52
hideyuki_miura	58	50
ryudryu	19	3
motordepo	10	0
moyushi410	184	274
schh1013	8	9
sularin	197	35
tatsumijiro	73	17
techi7	29	6
crico3	23	32
tazzyjpgl	133	29
deutschbier	102	63
pxuneko	57	49
airport_bot	4	7
Will_Tweets	2	138
uuukaaaa	97	29
hirame017	99	46
fuwatty_a	79	8
hisa1025	105	82
yasuki24A	117	63
hige666	60	50
epytoerets	77	132
zootro_satoshi	63	27
Sofure_5020	32	24
MESSENGER2011	0	5
mikkaborz	135	124
shizu63	60	39
_layfon_	67	80
morchan844	68	43
mekkorima	26	38
kirakiratsuda	16	5
chinposs	134	118
aag95910	238	148
taskakt	34	16
tetsu_yamashita	26	12
kuzukiri0	107	212
Rerapirka	8	2
usuchakoko	24	19
namaika	108	48
Shion_fuwatto	40	14
phabcommasters	70	33
kemular	66	40
kishino0311	34	23
sumirenoo	97	34
sky_cherry_0909	133	26
igtos	159	57
cstti318	150	55
gen	3	68
kohzi_bot	14	30
megumi_8913	77	15
shiba_csw	69	26
yuuuiONsettee	28	14
rakuihana	15	7
dazny0939	40	26
nanasaki801	18	5
azumaTTT	5	14
Scorpios4Adam	2	42
nanbashura	99	28
CHiMorZ	12	26
tenorin_k	55	192
7269mon	91	61
STARLIGHTRIOT	20	7
Wafflishshop	27	5
kissdongho	159	128
EtsukoT	38	78
tomonorishirase	72	30
tuckfukagawa	95	54
takaxela	42	40
ShiBU1965	154	57
bsrhasunoyuki	51	22
kopites1892	25	40
capuri99	7	10
TagStrives	54	32
69_Girl	217	171
tonim1026	143	204
kihikihikihi	10	3
duo112	66	53
kisato2731	23	4
noirkm	46	28
shimama0504	91	134
dainichitama	50	17
takunatu	35	13
shitake	225	164
tower1209	43	42
omamechaaan	18	6
tsuguminmin	427	384
abehige	96	68
4_aaaaai	93	54
defarifx	1	84
mizugame00	430	355
mami_hug_me	200	109
kikuichisan	316	618
momo_h33	167	71
taikoyaki	161	221
angskidsclothes	0	14
yut318	451	457
x_nanachan_x	19	18
iori_chikage	77	22
xxxreina	132	191
Yusukebe74	56	46
e3eking	313	22
sakuya524	69	35
satoruisgota	43	54
tko_beach	93	34
amechamm	127	177
tsukushi_k	133	177
kapiko823	76	22
myggjertsen	66	63
rira2176	78	22
Arashimata	43	24
jdayou5	92	46
sorahubin87	150	193
__hoppy__	35	25
teruhisakaneko	117	57
daikouzui	192	410
suzey_tp	127	107
806026colo	35	9
17li_toshiaki	58	39
Izukoro	38	14
orange_2460_2nd	79	99
lovehearts_mh	129	56
Politru	13	3
kochuan	20	9
konjikityo	165	182
ishino_keita	58	15
akino74	137	83
sadaaki	2	3
akane8hikaru	17	10
araseki	22	25
mokomama	7	3
kon_t_nm7	38	37
kinbricksnow	16	15
MORIOKA_S	12	8
2nsu_with_tvxq	22	6
cocobat1016	71	36
nyankonosekai	27	23
olivewoodolive	15	8
na2tomy	7	14
BURMACONCERN	3	10
yume_hipo	62	40
doublemoon678	4	4
tranceten	79	65
ume_siva	81	36
zakky726	116	19
lovesealoveriri	25	19
syoujyoK	7	4
Iscream_21	3	0
koudai1	58	9
abewoman	10	13
kinokonoyama228	19	16
wa0ha	95	65
CatholicNotions	1	44
beemilktea	104	27
nnk_mexx	86	33
akatsuti	334	252
ononokomarch	146	111
mhkusa	37	41
aobakaede	69	59
vlsmith	1	15
korerou	33	15
gauphiro	12	13
akebouakebou	25	21
film_3063	126	104
hoshiwobreath	108	74
style_yellow	83	7
soramame_mameko	35	5
kidjunkidjun	14	19
jogging3cm	41	48
tori4696	163	122
umemu814	119	56
halzzang_xox	17	30
_akiyu_	47	58
Senba_Kaientai	55	9
stm0708	72	58
11shivata	63	29
mizunoshuichi	119	44
InazumaJapan_bt	12	15
fla3_net	21	14
menkoinyanko	24	24
shiori_haiji	8	6
pppkClasico	20	23
toru_loves	11	8
studioahare	125	72
project_doll	52	33
uniqlosage	26	20
sombongunite	0	14
MMA_OD_YS_LOVE	34	23
bigban16	183	103
kotani01	130	80
konatsu3	203	87
OTAMA2	76	120
nami_orange	142	56
tatatata13hm	23	28
Seat_at_center	46	26
kppppkoooo	49	49
yasnosuke	29	11
wakame_32	176	92
darakeruZer0	39	65
ClubJamaica1987	94	65
sakura1sakusaku	88	51
lina812	68	58
fyudai0311	15	20
yuri_sparrow	39	37
evaottesmith	0	37
tnjrky	32	8
kroud0	57	84
hasekura_no4	43	23
hirarisu	102	59
hiwan01	107	77
para_ak	62	28
a_pando	0	24
__momo__mo	14	4
nemnem1981	25	10
yo_sky	9	11
wstq27	102	11
Harucororo	9	14
syogyoumujou	80	16
7days_fighter	120	12
junco0206	73	13
RW0101_leeC_913	53	95
har_u	6	4
AmiTweeting	30	7
canaan00	34	19
pono_cuz621	84	69
sachihihi	46	21
ssrtppai	94	116
hotelbl	8	3
itsu_motsu	13	24
palmhouse	6	1
tenm555	8	10
stcorn_bot	38	96
fujitayouchan	47	36
dobnezumi	99	129
nero2a188	18	13
tunnel_futa	10	4
dice0617	7	25
shunTR6	100	94
ririya0428	146	212
buhi_2	205	60
sonshinosokkin	28	40
toshiomuroi	89	12
makoto1822362	17	5
ta9be	229	126
img_flt	38	23
Ketarinn008	4	5
nkjmsg	44	36
naobrai	4	4
maiko_1221	47	71
Eleven_121	228	449
naco0416	35	29
yuina_official	33	12
ichigo15ichigo	79	68
kokema	77	112
3yanson3	53	50
r_kaneko	20	11
ryouta5893	16	15
Rainauzk	8	24
Red_minamekaze	51	11
n700kiku	169	87
yanoken1	128	49
damarenai	83	32
akiamie	39	6
marimok913	8	3
sakura_bell	33	11
yaepeach	32	24
kes_jp	44	11
oknw0713	23	11
baleinebleue	7	13
naruko__chan	77	298
xsuzutanx	8	3
mi_ta_29	215	83
sanoyuusaku	102	123
mariiinaseeee	2	4
takarapyo	63	52
PAKIYSAN	69	17
chihiroM0323	16	7
seolly_t	17	28
ippppppeeeei	35	16
chonikiti	28	16
mop1023	28	27
HokeyPoookey	90	80
justaway0919	71	83
pikachu3miho	121	97
yueko00	126	105
higohayato	10	6
daiki0131	56	43
lox8	120	337
moji2hazukas	155	58
spring1103	123	40
yukkiymusic	224	106
ts578	219	389
HaberSpikeri	0	40
MakeinuQueen	147	70
delta_D_horse	9	8
natu_000	71	73
satudy	11	1
Niche_	56	23
hagarekeiji	27	3
dolce1211	56	21
yaoitayaoita	205	75
haino	73	39
rage02velguard	90	64
500kei_nozomi	11	2
bettymama111	60	44
ayachun5	89	82
relic5336	54	11
tomakatu	61	80
bell_haluna	24	8
xvxnyaxvx	11	9
whirlwinds_oda	13	3
reich1976	79	21
anyosuten	21	6
zone_n	17	20
miyabi_2010	86	67
shionmisa	84	50
nekoneko_cyun	46	62
ishib	51	50
freedomTORA	155	94
kkr173	96	81
Azami_chan	1	6
yukiNoy	7	0
nopeex	19	7
izzzn	41	15
yumiko_inoue	86	44
AREK0RE	107	136
mimic045	37	15
mukumuukura	70	25
seiun123	73	83
KiD_ryotin	27	19
sighama	28	7
tau_221	115	78
shikif	17	13
Marci24h	0	5
QUEADLUUNRAU	63	41
isocchii	174	45
rei_1015	31	16
synchonizer	65	111
sptmbr3rd	24	25
masami1116	29	12
tsubakino_	8	5
Darmstadtiuman	39	14
ASuNa00	1	2
Cubebasic	8	4
sori_ta	20	22
JJ1203My	81	32
sma410	124	32
rimojifu	41	39
enubou	14	14
katomari94	10	8
sayaka_saachan2	29	4
ms_asahina	101	44
elizeyk	123	192
poohsuke3295	210	64
Takao_Maeda	66	89
payayanyaaaaan	50	42
green707phi	115	102
pupupu_pooh	18	29
usagisan511	152	33
ma64tvxq	9	3
ernie_et_vous	119	93
null_00	106	66
nurumayu	263	224
capkobun	7	1
tmyn92	53	30
allblue_jp	20	26
takafuji_in	72	33
enkun019910	153	96
makitanooon	53	40
toizumi	261	596
fe396	100	59
yudu62	348	623
NotasJonas	0	8
natsuyasai7777	117	251
TEELEETEE	89	25
shigeTyogo	13	21
koie	120	81
Shizu_G	97	23
momoyakkon	46	11
achamix	88	67
KNakanohito	19	52
mamypocopants25	22	4
mittan_ku	94	19
ILL_ZOME	81	51
_a1j_	79	91
meggg99	7	6
Precious_tnks	75	41
panda8800	241	230
mayunoji1119	15	9
yuki_murata	16	3
taguken1025	13	5
CVsurgeonKomeda	46	7
karutan2larc7hy	31	2
_ikko	109	59
xAssassinSnakex	61	80
ferrisalbion	30	7
KentaTokyoDrive	18	4
mm_21	100	64
atorii	79	55
kagami_bot	134	7
_no_control_	118	58
greenwitch28	21	10
murasanrock	21	25
tabasaaaaan	116	66
buttah7	37	23
kabanemiu	15	3
tigersmurton	25	6
saoria822	32	20
Disaster_Center	0	19
kechanpanda	123	80
moyapii	95	69
whitepotion	71	74
chiya_777	65	29
la_france_727	7	4
amezaza	73	52
chitose511	76	29
shirokumamft	39	12
1st_hitter	79	34
michi_2311	71	49
magna0715	14	5
pikayuneko	63	36
ericokko	132	54
takeshi_hdz	132	66
kzutsuki	65	17
ikumitter	77	65
tuushii1982	47	30
gkbr3	162	168
ALPACA_574	141	37
trueno_86apex	23	31
_sgmsk_	10	5
agenaki	25	34
Strayjp	67	31
jun_2_	110	66
XLAUS	39	132
ginza_konomi	10	3
herbsugar	8	10
sakura_smnk	100	114
yakouseinoikimo	38	36
KacHKucH	34	31
tao_linus	109	76
tacy06	2	5
saosaosao1121	184	200
ako_panda	120	49
bossykyk	59	39
srklock	15	2
point_3939	9	12
yumeji_torinoko	87	173
surfxsoccer	4	1
ayana_0402	91	88
hihihidedede	86	66
chata888	40	29
NewsOfMideast	0	15
Kiki_kero	48	30
haku_no_hito	81	53
morinokaze2010	21	15
mazikarin	477	978
datto_man	11	2
shiomani	12	9
meraruba	7	7
san0606	156	84
gyon0005	16	3
neko_masa	161	119
KOME_SHOGUN	33	25
haya_bu	66	33
motti0410	6	5
ke1sh1	56	48
cornpanna	229	101
blue_laurus	53	16
Yaeba1909	10	2
moshamoshamm	140	93
Boyagiga	33	32
kokorohara	107	123
cotetsu568	46	40
homura_ra	115	75
henshokuqueen	42	16
DeptofDefense	2	9
onewish_hide	25	8
TsukiMasa	160	138
11_maria	126	63
ajipon1109	38	13
anissina000	116	79
HansjoergN	0	11
wishcrown	125	63
kurase618	57	33
55nakag	63	50
yuikanazawa	126	170
7676laugh	13	1
yukabon_cs	53	37
_dd19	13	11
acswimmer	138	179
isyu13	7	3
jorgeramosnews	1	7
ayanooo3_3oo	28	14
naotomie	17	7
Hegiy012	84	89
set_n	241	398
toko250er4	335	520
gdm0210	84	134
wawakkaka	27	10
puico	81	56
_mayonaka_	72	67
214marie	128	99
simei89ss_	0	0
shogoes	60	109
snowspr	78	28
chii_rainleaf	121	46
sakuden0	27	8
hidebowie	11	30
yuta_seimiya	25	13
taken46	16	19
angelite_moon	62	146
JillDwaine	1	8
tosaken_taro	41	10
Ba_beL_19	75	50
Dakaisuke	98	171
BRECE2006	91	29
SylviadeBoer	2	29
takebontakebon	43	24
sa_tan6123	165	101
yksrj1972	5	9
huihuihuihuihui	57	31
quietb2	93	45
tjsk54	230	274
pfno_okco	35	38
tirorumoti	50	28
kana_m12	55	20
dmc292929	15	7
t_arum	13	13
ayaayattottotto	106	25
ruya28	185	191
kubobobu	31	10
Seriri1010	277	87
inuthikushou	89	28
tamtam913	108	85
hayamayuu	85	53
rinaitoito	21	6
ohyoitan	126	74
zenchi3	15	10
ukeago801	95	184
yukihoneybee	44	33
kotodama_bot_	7	9
shinya_mizuki	144	144
organicmama55	3	5
Gourpedia	7	5
sudatchi703	68	46
chika_bot	340	865
maitan24	44	40
STtunstall	49	23
rey3okushima110	39	198
wataru00002	40	9
TANPO2	35	27
NOZOMItelescope	9	9
_chimatter_	116	93
hakurakeer	25	7
lenachinco	35	39
Kuroneko_Tome	13	14
sijo_han	122	124
kumitake0531	23	19
akeo02	27	10
YooShioo	83	57
miyaco_aoki	66	31
kaollin	39	24
HarbGarden	73	14
okonomiyake	11	9
eren1116	32	4
hideki_fuj	127	22
yoko2050	13	9
blacksheep922	38	18
xmugix	125	116
miki_m_112	13	3
tetsuo_sakura	81	62
uetti_ue	43	32
ramo_DT	124	80
sasurainpc	78	118
nmurakta	39	6
aooooichan	87	59
crystalheart_m	28	3
itigotaso01	54	69
hikari_ytgrs	167	70
kiraryu700112	47	11
kiwpon	33	57
hisara0037	115	71
daisu_k	91	20
little_king0522	97	47
ettyuuoyatentyo	9	6
mahalo77	15	9
Hideki_Kawamoto	107	65
umitorii	5	24
peroyui	144	85
rikuensei	94	42
Yazue	34	29
autoroguard	109	104
tochigista	14	11
kahachirou8	92	43
ken_ken_n	29	68
Ys19841023	16	8
sugintyu	89	39
camelliasAH	87	197
namenamo	0	37
jmaaayua	90	95
v_maine_v	160	21
keisukeoosato	98	50
kossy_koshichan	53	18
uyo_y	10	5
ojs_kinari	11	65
YOBALONCESTO	0	46
hikage_K	122	91
menti	80	66
10moroko4	10	2
MotoSpoMecha	18	33
blackgrasp	13	11
kaz_mr	117	361
coban_media	135	89
carolovaticaa	0	0
negitoro24	143	201
ayaphi	141	68
urarav	6	5
mikitan	20	10
zhunzi_original	24	5
Kyon3914	47	15
yayoi10	26	5
kawa9uchi	121	42
daiatsumaruko	56	13
ochanu	11	10
shima_shun	33	30
tob_kdy	283	314
tomococo	34	36
shotea	42	40
hoshamuun	42	47
en_0170	139	119
RianneAmarabi	25	41
MisaelGarciaM	0	100
kasimiya	193	212
gekka98	35	20
rksz0710	30	46
remioLOVE	65	38
k1mch1k1n	48	24
higevision	171	141
pm_roku_bot	24	29
kenbou187031	93	71
giaaants	39	24
einefarbe	166	104
nicolarohrseitz	2	26
Rihoworld	102	55
future_0929	43	23
shuya_seo	16	24
nidankaiusetsu	17	9
pandamas0	83	67
happy_mayo	97	80
torontogay69	4	14
_pochio	161	265
gon_be22	107	26
2020pjlee	35	143
TribalSpirits3	13	6
sakaimi	147	115
enbanjin	119	48
maamiiy	73	36
circle_page	114	64
dreamjunkie666	66	18
mutsumi78	83	29
KEIKO_MGR	60	11
dwmoto	90	66
moondub	10	22
uchi232323	29	13
kuronekomix	31	3
teikokuama	26	121
kurogane17	56	57
leychandes	157	72
shio8okui	52	19
kaisouisomaru	47	41
NatkChi_	240	248
testacoda	42	8
Tohkomizuno	76	18
tomoinco	9	6
AngelaV095	0	0
seina10	2	5
mikamin44	164	176
mayu25whale	49	35
edynow	50	42
chokyeol	9	7
tajimacho	36	28
sayandsao	59	11
E52HSQAB	80	56
sacco412	31	38
macaroniR	7	3
ikejikeji	109	70
norimbow	46	24
kyu7_jp	39	26
kzm19	69	75
sal_monkey	125	440
k_keiko	58	12
sachi_cp9	103	24
RYO_KLAXON	92	28
ganesyajp	9	20
shichan20	29	26
tumaMo	99	62
inagangan	26	19
metaco_rhythm	6	0
suzuka_now	6	10
uedabeya	27	12
FantasistaC	17	15
haarukin	52	22
miyazakitenmon	92	31
kaedetter	10	15
hiro_poohsakura	11	10
roppongihills	14	1
vvataru	108	166
HMS_Cumberland	0	6
funkastic_ysk	42	79
apusstar	143	89
hiragana710	97	75
nothing_joker	294	222
ashitamogennki	7	0
Ren_Yusura	60	88
rotten_grandpa1	273	314
kenkennara	44	27
keiko_ueno	68	15
sutefanfanbaren	200	116
taigasinji	28	15
tiki_hero	200	317
happypromeneuse	13	8
lemon1931	152	44
p_jp_s	20	13
kingdiew507	2	3
ketorice	26	3
pakoarisa	62	20
saryuta	26	12
666umi	42	33
akamaru9	17	14
appyom	59	16
crossunit_mk	10	12
firstlovesinger	67	36
operaview	44	25
Gkner	83	49
y_july4	88	60
start2nd	10	4
m_jodhy	98	59
URATAKAO	269	474
mai_109	14	12
tyomokama	7	1
pig1221	52	74
ma_yu555	7	1
motocavate	71	22
ysk69_	26	34
xxxhero	73	31
gambarus	299	545
mametonao	30	18
good_flat	133	37
kelvin_keren	3	49
harna_867	4	2
shigure1205	147	115
410673	49	34
Ryuta_666	22	14
riyin911	176	198
JyonDO	34	51
08psychedelico	33	23
tkhs21	256	555
security0313	13	8
deektaso	9	13
rumpus_Yocchin	53	38
ago2911	2	36
mgcn_amuls	40	33
_S_23	0	13
Kazoo0	118	48
rara2rara2rara2	22	7
o_hiropon147	37	15
tobiokaseitai	2	3
YOSHITASO213	10	7
kakimanshi0323	67	27
UTAUo_oU	17	4
Norihisa1966	345	111
yun_channn	35	30
GreenFreedom1	0	119
zeta_bot	21	22
SisterSunnShine	8	46
Lisa51321	25	16
kasanmulyono	0	13
sally7779	139	28
su_gina	51	21
Mario_Japan	24	3
7GDigger	20	29
yuumi_tvxq	22	28
bunbun05	21	19
ch303	109	81
hagurepuma	83	79
MARIEwaOTONA	22	27
chobi16you11jun	34	15
nekoouzyo	155	51
kananan17	42	28
damijawprincess	63	43
stalemateA	92	47
love4seibu	93	59
caoli_may3d	16	3
ai53koco	270	136
maxnao70	17	35
zappaphp	71	88
yoshi_or_nori	12	6
ckin2u_ohagi	19	13
askkcwaii	22	8
natsu_uts	61	42
pink_mu	105	63
_ha_ro_	55	22
vegetable_yeah	20	43
nadesikokisaki	106	71
leoxity	1	21
yabaco_	133	149
kaori2012	86	15
rede_sign	115	103
harigai_ANSWR	127	50
Ituki_ouji	19	15
Blackmamba_reo	68	55
eritsumineka	111	34
yusugiyama	60	29
eriVwOhs	208	245
kami_rock	46	8
ayami_bon	184	182
ChroExpress007	42	21
my326ko	15	10
ryujuok	8	3
meg510	113	58
ashcat1212	72	57
YujiFumaZZR250	4	6
aliceshyu	8	9
keitamiyazaki	82	138
bunny696	16	5
kumi421	6	0
honey_beeeee	63	48
eg_labo	22	25
obo0090	5	12
originalslope	35	26
cool800126	0	0
madflash	204	228
latemilk	95	72
BBCWorld	45	225
nanguick	275	205
Ushimoton	40	42
73gon	70	75
ooollooo	46	22
shimokawaji	80	21
aloha_luko	83	95
tera_com60	91	29
aojirusan	57	37
ryunzou	60	25
tomokomam	39	18
kengansi	23	11
magiamagi	69	74
mitsurou16	123	30
riuko10	44	46
okapi628	17	14
gyunyusekken	113	51
agatsuma_azusa	167	69
koaji009	72	25
KATZE72Himanyan	140	193
sari_tia	73	34
710_umi	15	15
Chame_Hiroshi	24	26
mpc908	99	129
tmky1012	18	32
megumu_orz	182	104
funamu4	54	49
ooyucaoo	225	90
powatti	90	69
toraroku	101	46
shimpiero14	32	28
kmtmattkic	121	42
TAKASHO777	10	44
xfilehide	12	5
momonyanln_nl	100	38
kyokuhoku55	13	27
ban_t_nm	369	307
shira_t22	82	36
machi_milk	103	91
yu_ukiiii	98	49
politblogger	0	9
aomushi_net	44	17
yosun1029	39	26
chocochipmen	141	126
4risa9	46	43
livingmasa	44	21
natashabieberrr	1	60
Pasihiko	11	8
meina_9632	33	12
tototototofumi	169	143
MaddyWyman	0	1
kyaruta	90	61
mt_108	59	75
cef_tweet	8	17
forever22htm	40	14
debora1969	2	52
kimotomasayuki	26	18
sktmkzm	5	10
mochiko_195	166	113
tw_17	79	43
InoueHidenori	58	54
slowclock	6	6
mrtamada	17	9
kuro_mado_tuki	182	163
EXELLEN4	52	61
malucafe	48	12
okawamoto	27	10
satoshi__saito	1	2
shunicirou	65	18
mipsap	15	3
Biflatie	3	23
yu_pf	112	50
masyudx	112	26
halcaxoxo	20	22
selmakm	34	17
absolute_siege	63	69
tomokiiiin	70	27
hatatomo	0	0
jgirl1812maho	4	18
noel102	220	179
c_hrn	35	22
usagee_jp	24	7
jolielinden	76	39
Magicgirl0124	118	39
Lvdraw	7	11
Gamgre	82	110
takatakakatuka	66	25
love_la_al_gos	114	72
SHINGOMA	43	57
news_matome2	926	1200
LuisMundus	0	2
5_OCM	57	19
ayu1063	218	259
andreakasi	43	15
masha0404	352	244
twinkle_tears	364	278
nikotyami	64	22
fukuyamamashako	7	4
okusama27	10	8
sya_ku_si	124	361
akito_sia	147	66
kao_ringring	10	4
tasumida	66	10
geo_diplo	30	23
umazawa38	262	417
pinkmonster322	42	34
YoshidaKazuhiko	35	7
izumiwataru	13	5
bob__86	31	11
maru1993	56	22
MikkabiGenjinYo	13	17
m_akido	27	17
eriaru927	117	157
xiah_eko	117	36
janvier_14	7	4
bonzana	124	175
aiku0427	153	270
rikoratta	152	112
mkagatani	109	55
DJSAIMURA	87	28
takejune	34	38
aoi_akasha	98	55
kakky0312	25	10
snowflakeJapan	23	160
KoreanEmb_japan	4	41
777un	148	229
lunalupofiore	166	80
_yu_ich	148	86
yuzu_na	65	24
nyoronjo	47	19
_mimachan	31	9
no3chi3	49	33
gobou_sei	36	10
_y_n_g_	230	290
mari_amnos	88	59
ikutamutamu	1	0
MTV_VJ_Boo	14	6
toukogama	115	27
wornout1	11	12
baconeriko	3	8
nitsuchiiii	24	4
hana_su	49	47
yuccccccky	214	174
szk910	156	49
taeaya	20	18
Sat_ampm59	33	16
Mincess	0	0
_asagimadara_	260	163
du9k8qg5	252	213
KIRO7Seattle	2	1
buranawhite	28	11
hirotakagi	21	22
voiceactorwota	257	173
kizuka7631	20	34
fuutar	54	6
koume_nouka	8	7
yamadainochi88	42	4
natsuki31	64	18
seiryu_09	52	24
hrk_9ct	97	82
ti_ya_1989	11	5
ymmt3	99	53
tomiken123	42	42
kazamidori	182	211
maoki_etr	29	15
marisai313	33	14
373penguin	81	27
TomasdeSabina	1	49
kikutea13	33	9
yoko_spd	16	29
imoanko	38	4
kobushiwonigire	450	620
NerwinG	18	258
momocchi_2010	138	239
gosaltoshi	82	71
hanohano	25	27
saku_073	140	43
norionakamura	11	5
nanasiki00	53	78
tonbi_no_kokoro	192	424
knm1112	59	63
sws69aa	0	2
hati_ko	3	6
xx__NON__xx	41	23
tktktk25	25	10
conbiniannL	81	76
Karasi_Japan	14	8
bellune358	36	33
oterasennmonn	13	9
miyaken55	16	18
IT_Newsportal	0	12
asachandayo	54	13
kahorina1116	33	11
wh0nuts	134	50
dogindexmiki	41	19
aruri_n	57	124
SLAVE_CREA_TA	100	26
aika__f	16	18
kozues2	85	111
9jo3	11	3
azuki330	196	249
CaoimheLoves1D	7	36
Runarurunaru	10	2
hillockfactory	17	15
sono_92	15	8
t_ymzk	109	84
nakaokat	29	7
bluetvxq	10	13
peisuns1kyosuk	24	13
Asashan	40	14
asakosano	37	5
aaaotan	232	337
yuka032	10	1
ryota078	71	90
mochizukikei	132	22
roma35k	8	12
neconyann	215	99
mof2mof	42	33
espresso_blux	21	53
karin_811	54	56
_saaxayu_EX	142	92
ouo_uvu	5	4
don0u0	53	93
kitanokomati	120	173
masashojoh	16	3
americanyellow	16	9
miueva	28	5
GoKpop	0	5
lovexiahaya	30	21
rinririiin	15	3
ryokucya5	60	33
LoveCBSdocument	19	50
kusafugu	55	35
junnatsu1975	94	23
uno64546	13	0
bepmiyu	20	13
monster_kazu	42	8
mao214	54	18
jungris	47	30
gerbera212	4	1
yakisobanokuni	42	53
TOxMOxNIx67	14	1
rain2255	253	142
sammy330sammy	9	10
saki_i_am	46	37
Sharisraven	1	13
mmm_meigen	178	32
matsudo_city	69	16
Erichan_AAA	73	363
footmats	50	28
natumikaaaan	18	14
SakuyaUduki	28	8
_Chizuru	240	292
Leica74	98	79
shoiwatsu	50	20
_himono	27	41
TeKiTsuMaX	56	36
ladycat31	9	3
housetea	66	45
godenirokyopapa	14	14
megu_megu52	81	46
yonsamanekosama	20	8
asa411	7	10
umimogurer	14	5
k_onlove_love	39	34
tomofruit	52	19
ReiraRosa	17	14
mitugu_227	23	22
chiiiiiisa	1	3
tarazonando	0	117
g4g6_em	85	106
kry999	58	23
ayn_2525_	54	26
LoversDennis	100	84
yoriko626	21	1
kurerun	91	108
huzisirotakumi	26	18
kaiery	45	28
mori_no_ki	144	127
yokoyamatakeshi	20	15
rabit777	101	36
oimokunn	9	7
chiho_ayu	128	91
Furu_Asa	93	67
akanek_zr250b7	22	7
rikkame	188	118
JUN_WARP	11	5
kawauchiii	26	16
minba_tan	31	30
YUKIpo_	123	79
sabadabadaaaaah	37	53
saxtnxx	279	627
yz_ghouse	76	22
yuuuyasaaan	119	82
areatravelers	10	13
asanebou_	94	111
akirawww	32	22
MtFujiRocks	4	66
Jules0033	19	9
tts524	131	64
alex_shinya	8	2
tanikei_tenga	124	74
norashishi	10	7
kale_sco	123	121
borozoukinn2525	174	281
yasyas0213	8	4
aw0n0_ik22	72	64
rosalie_pink	53	16
nahominami	6	4
shla_nippon	55	13
s_a_t_o_n	2	7
woo8nohe	18	2
lion_jiku	38	4
juuuuun0909	22	5
Tooo4	20	19
chiisyama	21	27
koronnmm	4	3
pororonukule	39	125
mitsubatimayaya	20	13
miyu_kirakira	186	57
ikafu0106	27	10
dansaw2010	83	20
oto_ant	24	9
hak_env	175	236
hosomi03	22	12
motarooooo	48	21
soushihan_ksk	14	7
akilla_leon	67	54
eiko_v	68	37
zKKKz	9	9
ksw_z	311	505
lukauemura	4	4
kazukismily	28	19
neisu	24	16
nabenanoka	12	20
arisa_biz	44	20
39kakey	183	173
hetalover	52	37
disociadosinTx	0	23
pompom55	59	88
jallinco	12	4
hitotsubu2009	167	93
OLIE_74	234	66
nako0814	55	20
UozaSayu0301	3	1
aque_meg	67	15
wakomaruko	23	24
chays_tw	66	30
xamusic	7	14
miae	193	120
Yoikohyakka	111	162
black_umineko	91	37
neesun7	24	6
lilysh1025	11	11
yamasakiyuko	95	27
takako8685	7	4
miechi_photo	123	81
sawano4012	7	7
tibitibita	93	50
motoki_rei	183	145
nin_ss	136	42
cAndy_go12	5	4
mogumoguchan	8	1
Chigi318	57	61
nhide	55	12
KYK1024	3	4
shiiorry	23	5
Rwf_9A	44	81
piyo_420	83	56
Dec30goin	184	120
numataP	169	237
Song_of_Earth	132	105
thabasa2001	1	4
suidou_bot	5	7
y_masaya	121	25
subaru104	32	27
hiroj_0225p	35	46
lottaicecream	56	3
06kaorin	11	9
ugetuKei	109	52
dai1dai2dai3akg	70	33
sohyon64	98	23
non_kujira	236	225
kyle9901	173	199
ebichir1	120	86
k0ta	15	8
Alomalom	94	69
m_y_cool	25	14
alcoholanony	70	107
jrnoby	7	9
ebisenshop	85	133
garimpeironsen	26	17
risocotto	45	49
MastaSimon	20	13
adchi21	11	10
reomama123	50	5
shokoume	89	17
akaimayu	119	157
KeeJn	19	5
jasaming	65	33
xxx1000key	41	44
akymaya3	64	7
miphfagtbj	4	23
mikage_sakura	30	83
8toooooongue	76	102
abyssorz	129	76
masaki_haru	34	16
ygutsubasa	75	86
maedon74	192	169
louisau2006	100	37
KenichiMiyanaga	111	34
potijp	90	67
xomoon_	6	1
hatobii	23	47
osakahimitusoko	100	65
Luchsan	48	20
Shoto_I	24	16
kota0618	51	59
chalpee	86	58
rcktro314edward	6	9
suketomosuke	20	22
Hiroki_Kikuta	31	7
teruteru50000	120	18
tsutakichi	244	106
johnny0525	31	12
ichirokaneko	16	9
miryongjp	6	13
nobu1008	136	118
yunhan_wu	58	30
matubelleko	126	39
yum0108	51	53
tomoart	89	25
mo2	85	29
si_aqua	62	34
uzu_tyu	217	310
chiezow	16	9
jayhutch	2	13
renkonhole	11	2
pauljarnaud	0	26
bestiacoccinea	61	15
Care_J	54	35
RonaldoCGL	0	39
OOTAI	73	19
meihaku55546	26	51
FY19SessionD	23	17
mykinoko	30	16
Complete_Leon	7	2
takitosu	68	25
kkimmchi	8	8
RL66__jp	67	30
summertriangle	24	8
coco_k_s	33	24
TAEMIN21	48	30
cofiamilk	40	14
bleu_neige	107	138
flumoko	9	7
gamsic	5	3
tunacorn666	19	13
Downy1961	10	3
kantaroimo	25	49
Una_Kaito	38	17
jenny_haruka	18	4
BasaBeri	40	11
naographica	17	17
sora173	25	34
nownanana	99	25
Sindou329	102	57
_kage_tora	88	61
abchi392	59	75
lis3cat	15	5
nunokoubou	24	3
salt_and_pepper	48	47
groundminus273	12	10
zenrin33	138	191
kanzaki_aiha	144	54
kono_chiha	488	282
1988_SOCCERman	53	76
wasakon777	6	13
madamekitty_kao	233	105
calendore	38	12
everyresonance	81	41
vonchambers	0	8
jintyouge1	106	61
pom_de_lion	8	8
vichentelo	0	46
wochika	43	45
team_h_hiroshi	125	93
HAL_J	224	145
chibi_natsu	50	22
yumaflickan	106	120
SeikaAoyama	6	5
woltar77	18	17
ttb116	114	65
hadoson1127	60	63
kuriokikka	57	57
6_6yumi_kyawa3_	163	62
yokosan0622	7	4
shim02u18top	36	17
fu9ma	47	24
HotR	387	449
nikahika	45	15
HAYA_HITO	69	45
ISAMU1981	78	18
atkn1026	88	54
miuraui2	255	197
88miyuki88	7	3
satchan_now	36	11
dorriiii	91	17
Tomoya220	61	60
amanotsubomi021	9	10
kumagaya_gaya	75	40
chanchi1221	44	22
anima_ieni	19	7
sadygaga	50	28
HACHAIKE	6	3
Saito_Yuta	95	56
planetshining	63	41
___zzz	53	95
rena931015	144	283
tweeting_drtaka	108	47
nanohano	104	75
asi1024	92	89
Ninotchka1983	88	78
syk_clover	10	2
tom8802	53	30
mana_bumplas	19	9
mr_yankeeface	71	34
lalaeko	29	7
kotoriina	7	1
granola_haru	9	0
nananaomi10	57	27
suugakutamashii	89	20
ANimer	1	106
Royalynx	46	14
DJ_WAVA	62	34
youiti_yozakura	27	12
hy_yakko6	429	488
brunabonacin	0	14
Mulder_Cat	2	48
sunoyan	76	126
jjhitomin	126	74
littleyumi	17	13
masakitter	6	9
PauleyP	3	12
smart37k	14	7
eyesmemorize	171	194
NarumiSakura	224	175
kaname_scorp	148	70
minamireki	147	79
KeikoKawamura	90	51
hachimitsu38	8	13
muhhy_hyynw	38	25
annojyou	96	20
zeitkazz	124	63
c1e4e8	134	76
w0lf_s0ul	59	43
positivetaisa	14	12
tarossa923	21	8
cyon_chieka	6	3
loraism	41	37
TOARUsakodaNO	5	8
PDXrealty	1	15
ratuni	201	257
r_tose	103	106
Nami_bwn	77	51
goyamart	269	202
amoonblossom302	3	3
sasaking63	31	32
AKIA0401	232	109
naka_bash	131	236
yokoishiguro999	19	4
miona1122	21	15
bambie39	15	6
mocostyle	33	11
naaatsu320	42	25
usa0926	91	105
145short	25	28
puchimh	5	9
d0kintvxqjj	135	52
D_Kuma3	72	25
halsys	54	32
f1210	13	10
momolabojp	97	37
momoshika	80	69
m_somas	136	33
hayato_hirosaki	73	72
kusukusu88	57	27
ifalru_saga	65	30
sakicocoa	121	40
mikinbo	98	89
ksk0991	26	24
_AAANEWS_	371	164
fujicco2	106	64
s_misato	93	23
maetacarp	92	40
ThailandMethod	76	60
uimura	10	6
tsunji3	15	21
drinkACT3	47	24
DaikiKatoh	20	10
hiimfumi	12	11
ayaka_127	136	29
soci_t	48	12
Iamjamie14	13	256
reiri_tdr	105	47
auaukaka	26	17
anacub	1	22
sugata_non	1	0
0207hammar	8	11
hiroki_game	84	29
danielslyash	0	4
tsuna333	25	37
ikucat	21	29
rosegerbera	24	19
niconicosora	5	4
solasmile	30	16
kanaria_fidelio	129	39
tosuky6mix7key9	23	13
azurin0821	28	7
yestermorrow927	14	12
momokanazawa	2	0
syuuki3427	113	28
hinowa3000	25	7
CRCDL_MAKKI	19	14
mangosteena39	43	13
deso_imo	107	80
daa_oo	21	11
toksato	94	115
ae96	19	17
theologiacrucis	29	43
Ortho1984	14	10
kayamakia	50	44
goro_BOW	35	30
kumiko55	56	23
kuronecoaki	5	5
TakagawaU16	262	187
udagoro	135	78
Onjicchi	6	8
sodriveway	0	0
haryuu_Zizz59	82	117
nanako1717	42	40
nakatsuc	22	17
haruhi_hi	31	8
Maicology	19	5
nomo2	21	28
b1ack89ray	62	82
marl_jade	43	39
MICMOTO	21	24
ahoyoko	14	3
HYU	16	12
oaks0026	153	370
Shinchan49	77	42
yuxyu58	11	9
santa25seityan	10	4
jan_chad	5	2
karbo73	124	48
furucogarasu	6	7
nenmatujamboy	12	11
sekkie12	79	62
ribbonxpenguin	62	24
yui1107	56	50
chiha0529	83	38
in_utero_	17	14
yuyuyuyushg	21	20
hiroshingerz	9	10
KamabokoTaro	10	14
rosijapan	91	78
nickadams7	16	6
bonmedia	4	2
chuchan_message	18	15
okinawa_navi	78	61
kuwanize	101	92
star_fruit_	8	9
yocchi_	28	22
sasamiya	29	24
na_ko07action	46	17
terrygard	0	10
twkmr	94	56
amimin15	50	47
saomiumiu	121	14
sumi104	12	6
yurimu64	104	52
ichikagesana	27	19
Uechiline	311	198
kinako3369	12	9
seanbonner	0	17
sei957	168	252
corucoo	18	17
amai_zeitaku	77	89
forzareds22	7	4
maichu0320	26	12
milk15milk	45	159
h_d_megumi	35	17
tsubasanchi	16	4
tipicchio2331	24	13
kwbtcrew	40	9
hiq800	31	21
taisaska	19	7
am0549	11	9
oginosuke2010	15	42
katsuragawa	20	36
shiroanko	59	121
mUkkU_02	13	12
moruhero108	124	37
aohima	54	18
mitchell0928	56	16
ak_mickey	75	48
wacmagnum	30	7
suss0405	15	5
namikichie	33	32
asamin1002	89	50
sun_plum	54	14
anzusumomoGH	50	14
sora_nicotool	54	73
ponyohime16	50	24
yoshizawa443	113	72
ino1130	96	65
okajin_07	92	30
h4i7	45	21
izumi_k	164	52
Steve_Bateman	1	20
qaroro	193	52
pribari	13	11
DOUBLE_CROSS666	6	3
parapecori	82	22
n0z18	48	70
las0401	60	106
shikanosuke21	10	4
saito_kgd	32	26
Piston_Horita	27	31
yasufumic	248	133
hyulily18	46	21
ASAKEN39	87	45
memoed123456789	89	59
obakichi	14	4
wartanX	22	14
RyosukeShibuya	13	10
vipanother	248	366
yamiramira	124	91
tanpopo34	45	95
nikojj	14	9
shintaka21	106	22
vivagoto	46	16
hazama_chloe	161	78
no_nashi	83	28
hibirisan	77	113
CHINJYUNYA	25	28
234589	102	47
rinotokyo	37	9
yama_da31	98	30
Rinaaaa	23	12
maria__marino	0	23
haihole_kikyo	78	56
gacchan__	15	3
exrinto774	55	18
nsm_ast	47	86
omitooo	106	98
chotyo	68	101
Enrique_Aquino	4	9
mika1016	27	15
CalliopeCo	0	0
ituki25	28	22
texasea	221	207
kentikuman	61	20
yuu_komachi	149	211
t_koshi	26	5
tsuyuzac	14	7
Ray0013	48	6
hanahana0629	193	101
HiroVicious666	14	10
chisa154	50	31
naoyamt	38	15
cosmopolyphonic	6	16
u_gou	78	110
yomichii	31	52
jubeated	412	1155
mctdfumiming	51	33
takedax	95	47
chilny	162	168
mayahiyo	97	52
gudaguda0829	42	37
myu2_323	157	149
fumi_choo	660	893
panstousyu	14	8
pablocr79	0	9
kyococoa	155	78
kgmyshin	34	19
tvfxq0225	160	83
pipipi18	147	9
sgs510	30	26
baby_nap_zz	14	20
alice322a	34	22
kogemonice	103	76
AndresFGuevaraB	0	0
emi_mail	95	27
madoka36481	35	17
draperha	0	38
acchansanboku	34	16
bomcat	68	32
oco_vouov	22	23
mecopo	32	17
shocotam	48	21
aichuuuun85	97	28
skpkani	11	4
miyuki_tyan	119	342
tomynak	69	44
tekizen	19	20
strangeand	13	7
ffkkyy	48	34
ogumiy	54	50
revba	108	254
tyler_yn	24	9
ludwig404	0	82
AKUXIRA	78	67
ogawakentarou	55	41
SH2003	15	4
WebCreatorToki	29	10
yuuka74	57	19
pochama34	14	12
raijuta_04	99	100
colles_fr	84	84
mayo3856	28	7
misano_fav	23	85
19interetni08	144	148
saaaatomun	154	106
HueyNAKAMU	48	18
Zannanas	2	65
amazedkoumei	181	113
suzusuzu2009	9	12
xxxaiuewoxxx	175	215
aftercider	4	13
humihumii	57	29
Bakkuenkeeeen	165	139
DEEPCHALK	32	9
seven_w	51	46
ikoanwa	116	125
1129tumedume	36	1
scarlet2019	112	115
hotwheels	17	33
HongKong5061	12	10
koba_oita_aero	76	48
CHAN_NORI_54321	40	22
syudanhitori	8	11
mushi646439	57	27
ysmrkw0812	27	22
aibatei	182	178
watersabu	11	8
kurotomurasaki	195	117
FPhantom	491	340
sugaky	56	34
aktk456	144	204
miyumiyu13m	35	19
cherbob72	85	68
L_eLL83	105	109
rurri4	158	87
hironii728	125	89
g_pusy	17	8
kiyo____1	28	17
h_quest	12	8
mio0709	64	166
haowyoshimi	69	12
tomekmusic	0	21
yuhi2000	157	66
pepperco	231	154
vankobe	38	15
grigrosha	21	4
Gato_Aca	0	0
nagara_hiragana	42	20
musican_lym	42	17
KAMADAMAIKO	27	37
Ssattic	25	1
9Nnya	75	102
RioMick	230	216
dodomayo	43	55
luckychihiro	25	17
Pantunoato	78	66
W0704W	50	38
alisakura	328	214
kazunari_honoki	60	22
laicalaica_SS	175	77
Film_addict_	0	34
ChiakiIshtar	131	129
mishagaike	106	78
Mori_sAchio	43	56
moucou	3	8
MJ23_bot	0	1
HazukiSuzuki	15	4
hitomilotuslife	50	34
akaringo1029	6	10
asnskmt	215	327
kanro30	33	13
hiyodori22	290	351
LooseLeafffffff	50	19
3sa10tou3	121	276
nonbey_jr	100	42
laughgiiirl	114	84
yuppie119	59	23
robbieprise	22	6
IizukaKiyotaka	76	10
UNCHAINofficial	5	8
masayuki0812	33	9
hirocky1218	19	10
hikobechofu0729	1	2
fieldproducer	9	49
mmmmmiu	55	16
Noda_D	59	51
tanakanbou	9	16
kai_on	41	75
freezeartery	45	36
azminix	94	33
yuki_cig	125	72
MIMIHaleiwa	56	57
myarusu	144	84
mayumi__don	22	11
ay2n06	46	26
heartmanhot	18	20
MyObsessionJB	0	0
peshiro	59	28
sougetusuy	143	153
amic_4	37	27
leo_stacks	79	49
4646olo	122	36
Take_ba	55	25
aff_Twi	26	8
hirofumitajiri	20	14
goleemon	4	4
usasaecocoro	11	23
kuonharu	23	13
playlogjp	174	276
atsushiTAKAO	16	21
papinnie	49	35
Daniel_Nakano	73	38
m_otto_n	9	4
van_kaz	6	5
mashiro1020	23	67
kuropantherchan	58	64
charomen	33	11
muminnn	20	4
fumihaha	35	15
makomot	74	25
CBnews_now	25	40
yu3shabadaba	31	68
kanayuh03	254	128
rojiojisan	168	179
unico312	103	59
meeko_mero	87	38
haru6kitty	17	7
yasagurenhagii	50	15
kuroko69	85	106
oremooremo	39	38
JonaticLovesBTR	0	17
nekokahou	19	5
xxxmanaxxx	99	71
sinxsui	24	22
M_inotti	10	8
10011010_b	11	5
suzumana0529	29	41
yayuyokonanoda	51	40
Verus	22	10
peco_mana6	16	7
MASA_FReeStyle	44	36
homare1018	35	27
taro0604	24	20
hitomi0331eye	10	3
Yamachan5	30	12
SYBAriku	3	3
lumine_o	48	4
ROM_Kobayashi	353	557
maco___	15	3
OBBLIGATO_NAOYA	97	86
mk2mk2	78	31
chun___chun	2	2
mimahopepe	95	50
mamashoshi	13	8
patagene	37	21
yuki_usagi301	55	21
chikatarako	2	1
yagi_desu	99	59
nanaho22	10	3
nagisa_tabris	112	127
aki_d2b	66	36
neu1899	4	15
loco2kit	196	496
snoozelight	71	48
ManuWTF	3	94
shihochan37	32	17
oskb03	181	81
Olympic_Ossan	123	245
natsuko_716	14	30
Ichiroku16	35	24
takabrand	139	102
mix_3993	35	21
sbr5t	86	99
yuzurazaka	58	17
smi1edream	41	29
miru05	143	141
rz014river	121	135
Tatsuya3746	34	16
ryo69	199	121
redrubypink	31	13
90_mh	41	26
Qoo_co	25	7
miwaini	13	9
shisashi	205	170
Makuw13	72	29
cojicoji_gray	28	18
chibitatu	57	17
jk0517	52	51
azumiriku72	125	60
chariot118	104	56
unchamuuuu	80	68
hijiki_umauma	5	7
ayahayahayaha	116	39
tettan1104	16	6
sea_xi	17	8
a_lukuku	145	62
chocont_23	6	3
omone	0	20
Mdanshaku	101	32
quovadisand	28	17
bigpinetree	69	51
kira_kirarin	44	17
ayufansouri	92	44
spmjtrr	14	2
bikkotanko	39	16
i_s_p_	95	34
soozm	2	37
jyoR1	28	11
nth6shirochu	31	18
u_sa_ko	83	42
S_soryu_S	207	218
nobmatsuo	27	8
yuuga_deno18	90	94
TKGbikaholic	94	101
bootboss	3	210
ame10101	156	112
curtisandrews	0	13
FumieKitawaki	29	22
telep94	20	32
dingan_dingan	23	3
ayano0221	43	25
supu_ful	56	24
dancemoon	3	6
uramikuzuha	19	6
notwa	182	481
yoshigyuu	25	8
tatsuya730	32	18
JunShiraishi	172	81
guppyrika	8	4
chanko85nocchi	29	11
murae9e	39	7
_sm21	107	65
xNobleRx	406	360
HairMakeAPICAL	2	5
Em8em	113	28
kabos_zo	160	249
fliiman	2	3
5hih0_mac	37	14
seekingking	203	227
YUSAKU_dia	15	4
kawakinsky	41	6
rhythmdebris	17	12
mochi_gsr	107	91
kats0000	63	12
yuka_2525	14	5
mokumoku2277	54	15
kuutohedel	184	78
wata_t	148	141
m84_	213	109
tomoyoon0616	29	4
meme_style	16	12
tomixrider	37	25
P_Kedama	148	144
butabutabuddha	29	17
pippo0813	33	18
yatsuteshi	129	62
yooooo23	122	116
bobzb	250	204
ichimuan_shu	120	66
nokonoko1209	6	22
35seki32	110	57
sleepyspooky	66	24
TSUTAYA84	74	140
Highball0813	22	15
havana_woody	83	43
Iqbq	10	6
niigata_poli	48	15
sogaaaah	54	48
CoyoteView	49	17
hina1496	147	82
flow705	4	2
p0cketm0nkey	3	9
yukikinokochan	91	55
maihimeH	31	17
minakohaaaan	32	77
Bz_Hadou	98	56
Kotarooo12	20	3
yukinari3	8	1
yuichihayashi	5	1
bakamanju	3	7
fudukoto502	55	6
glittermetal	74	52
koukaooon22ock	163	62
KousukeBS	4	3
famiko440	23	31
Jios100	97	69
punpukudo	19	9
iloveshuge_	18	5
2maq	148	116
hamburg_dake	99	78
zaki0529	78	33
osamucom	102	23
utauman	27	1
withfor_seed	244	700
petitwarumadam	45	9
shary20	3	80
Necoyuuki	56	12
emily12500	2	22
batan2924xxx	74	11
kazuhidet	56	20
hikaru_029	37	41
mkimu04	28	12
milky6stars	151	154
guam6	17	10
natuwomikan	4	7
beicun	44	31
clessquall	19	8
mknfish	237	80
kawasak73z750rs	12	3
AtsushiKoike	13	2
moutaku	56	19
hn393	128	70
taracoms	28	21
waffle_xx	91	60
VagabondJourney	1	23
akiheartless	55	50
marimarisai	69	56
risapippipi	66	32
hirrrrrr	79	32
citybluesky	48	18
fuyunoson	60	33
acocoro	65	22
keyakiayu	184	91
onsenman10	50	54
amelie_345	21	5
ohhhhmari	11	6
mona_1224	33	17
lef	85	63
katsuki0802	16	2
jeek_tothesky	25	8
Kanzamashi	25	11
night_28	28	30
yai75	42	17
whiteangel5656	48	23
ucakoo	29	13
maaachan77	43	35
MaYu_MaYa	46	43
namasuo	1	3
sugizuru	31	26
oyaji65	24	33
Autumn_aki	80	75
pethotel_at_b	38	21
sweeeeet_ichigo	6	1
guinzaglio	93	55
yujitagawa	76	37
_KUUUUUM_	72	29
1nt0x1cate	106	35
kanaipon	3	7
Tomoaqua87	13	29
mstotkya2613ddd	109	47
Daaina_Akito	27	22
h_know	156	121
mito_ardy038	29	18
kanataajt	13	9
blues1974	99	31
xoxoemirin	27	21
googlenews_busi	428	542
n_o_z	57	37
0106samo	19	17
iRio_glow	22	53
hinako_hina	8	4
acecar	119	15
sho_wn	120	47
TE_MIKU	5	4
minadukiyuusui	69	63
ellreo	96	59
hi__sama	7	6
Yuzu_Suzumi	166	79
chirorinmaru	48	44
koyomi_matsuba	47	43
fiore455	11	91
wakapooh	39	9
yukarinbird	14	12
takayuki3232	166	535
a_ymzk0214	112	39
kezia_karin	4	65
ni_sijima	89	132
haru_ty	32	44
yanaru	55	6
mmooxoomm	96	76
Nachimame	149	146
kaoriental	18	12
kaaata32	50	20
tsukasaww	3	19
masaka_s	36	12
sakinaopapa	27	9
karu909	164	53
chicken_bean	42	51
mico_t	121	93
appleface51	20	24
ange_basil	193	153
eripon_08	8	6
wabby_millplat	11	5
Aoiro_Blue	42	27
An_ock	39	20
ajalassie	10	2
eternalsisters	69	40
sobako777	74	35
tubasalove	51	21
akihonakano	59	16
Tamanoumi2	86	0
masa_21	169	60
natsumi53	6	4
Natutei	16	12
tsukiki_	20	76
pencil	92	41
plumerianwhite	8	9
NtYrAvrgDmbBlnd	1	32
Ophthalmology7	37	39
co_izumi	76	55
xxKAGE69xx	17	23
yumi0807	21	19
udontoinari	94	56
yamazakikana_19	24	22
kakennobisuta	38	9
03yagi	79	38
praetorian_8	0	0
you1010	44	34
3104tomo	24	4
kisanta_bot	148	80
theatermaria	16	6
MzShankANigga	0	5
ha_segawa_d	25	31
mickunz	27	11
clover1st	199	69
nezumicky	24	17
Mitsunori__F	1	14
doriken3	60	47
aykt3	84	41
liegman	53	68
rock_h	36	36
saekamoto	157	79
supershingo	9	11
emirimnr	74	17
machaco0622	152	153
_Pa_co_	51	17
mayuko820	44	12
yumoto0219	14	3
bright_blog	39	13
s_katayama	142	65
1970parker1970	28	19
9289schmaisen	139	166
kyousuke_bot_	79	123
breaker_touma19	324	355
yk_mickey	112	66
ki1rokoba	37	17
munounko___	48	93
h1201	11	9
kyo8513	123	114
jai_dolphin	57	31
suntarou1014	56	150
yoshitabebe	64	19
002t	87	80
celtic_ta1	27	14
hirotsugukun	151	60
juri0206	30	18
emu_85	10	5
tsuyo510	22	5
saya_716kjj	120	116
char0927	19	9
nonty_7	76	34
convallamarin_	28	32
3MYU8	5	2
zreiven	5	9
iceYUMIKO	20	7
nishin1030	81	56
mzsm_j	311	151
ohparchin	199	110
katycat	38	31
tiemama	134	46
603T	80	33
zan_sun	168	142
amuymg	47	26
leico630	55	18
furawa	69	38
thskxmhmu	244	101
y_takayuki	84	62
v0u0vx	74	95
tono_d27	112	34
kamozo	106	63
mabuchina	24	7
mikawaya_san	188	156
MrJohnD	1	28
deri67	72	25
pokopoco123	48	33
Tsk7016	12	5
dcs32k	9	7
REINA_guitarist	25	4
nyanbashi	111	65
Mikan3rdG	114	159
tanasan0106	78	201
MAXkuroCHAMIbot	26	14
garyuu0128	27	10
berrychoco5	123	65
ArikenMatsutaro	16	11
8IXCHEL8	36	52
Rosetta0826	93	38
miharu_980	64	82
ryoney	37	26
tentama_mus	137	132
yamagoroZ	50	19
chiyotaku_akb48	35	23
shirashan	53	18
ride_zero_3104	276	113
naga0915	263	32
chipiyo_m	84	52
aixkm	25	19
minase47	55	12
Emptiness77	15	1
hiroakicker	18	12
nnp_ekiden	11	2
bluck115	30	23
ayamama5819	78	55
Cifero_	11	15
MegaAndyMan	0	10
hinaccci	79	64
asapyon_1007	10	2
05goro	21	30
kuma28	87	128
sho992	6	8
yoshidachikashi	16	5
Shuken_B_Goode	23	32
kaoru_hibiki	118	273
lyuda83	57	38
eiiiya	64	44
ura_mina	117	155
yukim1221	68	31
yukaipoo	38	28
Waratas	143	135
kangoulya	2	7
yuitch110	46	19
silkymaki	1	7
thomasmaier_	0	19
the16moon	149	148
hanaMizu2525	173	270
tk_nakagawa	55	20
CANNON_P	156	260
yaco_k	18	14
roco_coro	48	13
astawaRyu	0	120
marblemammy	27	6
nissy29n	33	29
iMaki3	91	44
CopperInvestor	0	4
pan_daruma	114	69
MW_mic	74	15
dyomumogu	340	446
maimai1101	38	5
MoeAOYAMA	7	2
miki1009	24	21
iwashibori	14	18
sararajitou	28	1
Reychelu	27	9
mizhooo	39	21
sazinko0e0m0k	153	172
YUhideoKI	134	50
Mizuki_begth	104	90
_U_ly_	90	84
cerisemoon39	89	29
AK04526	43	67
dnobori	48	53
u1_nabe	24	9
sasagemochi	4	2
clausoras	19	10
chiko531b4	22	16
blood_edg	68	86
EEjyanaika20123	24	8
doraX3121	14	23
YuTCa	29	25
iphone_rss	11	5
cielo6	42	10
createmari0901	4	5
airi_n4	66	55
_nakamura__	96	176
kimikoixxx2451	103	93
JeffMiller	0	3
kitchenmage	0	69
maricatale	91	48
fairy5girl	57	33
zock_msm_10	141	297
zchan	9	5
kosaji042	18	11
kamiyadaisuke	39	16
ty200TB	150	72
rukia_nico25	415	671
buvez_moi	11	19
152akat	169	66
sato103	29	6
sakuraelisa	88	27
conny_jp	29	31
frash03	125	111
mofuya	148	180
ka0116	11	15
hiroshi0309	54	17
maaayu0321	15	28
yutakamika	113	51
tokyo_sora6	98	21
WO_LF	26	6
okeyuhi	51	19
oshimakeita	12	2
o3oxx	26	12
SELLYGOMEZL0VER	0	69
potatochicken77	36	23
R18a23	41	8
nishizyou	17	12
adidas3da0	46	48
kimkim2323	71	38
nana875	30	16
rai0c0_Chikuwa	89	85
aigineo	15	4
yacchi419	68	40
takkyyfc	141	49
riokaho	75	23
doiwoodwork	8	22
usereMEi	168	101
tegaisao	122	161
micuromia	68	47
xiaoxiong_jp	48	20
LalibTubb	0	19
tattu_me	23	28
purittan_dskpkt	19	6
hr_bunny	102	89
7mi_s	21	31
HIDESPO	14	18
FlyToHighergame	45	58
ariaspancho	0	23
biccamera_com	4	5
umeiru	180	101
kobasnoopy	170	112
rie_kattin	110	109
hooojicha	19	9
tamatamatomato	104	41
iroha77	80	58
koya_ccmay	47	15
premari14	18	9
nobuo_kimura	64	27
stellardrops	154	55
yam8yam	85	98
TigergodSon	31	11
eemeeminiemoe	101	58
akagami10	100	76
aira0902	97	27
ExamineRec	1	16
oh_noji	39	22
juliakichchi	45	21
S4NDROSE	4	12
SugitaKei	34	32
navetan	290	86
kada999	248	134
raoponchi	18	12
sht5424_rd	404	462
Ulic_N	157	456
otamajyaa	7	12
yuu251	106	116
kyoka_kyoflower	53	7
lavecone	18	17
siyonxxx	71	23
mnmszk	123	92
edogawanne	93	91
Asa1992ch	176	83
tokuo	32	34
yunagin	179	356
oncechance214	28	71
jumboebig	84	38
atarsenal	36	60
_ooze	225	75
Carrillochenko	1	15
2525akopo	19	15
msk_cheeeee	58	63
amaama550	40	22
donkomasya	76	83
hyde666vamps666	122	71
hiromi_BF	20	15
NIJIIRO_2PM	65	13
09_lock	18	13
iyashiguma	124	180
rico220	210	243
momohachitakumi	14	7
ajyajya	14	6
pske	71	39
shineejpkk	261	177
j_youkjam	25	16
Yudeptan	66	13
mihotal	69	139
andanuma	170	94
cafe16162	39	27
venivenivenias	30	20
kumata2525	10	35
tomo_419	35	10
shukimaeta	105	31
osteriaperno	117	124
SAOnaiP	23	12
torii_bot	0	1
buruinparus	102	46
bardack777	21	39
tonvo8	209	263
taka_shu0419	462	896
TM5123	3	4
sangorou450	78	61
sawa_zen	31	22
knight24_k	140	186
Deku_Kugutsusi	39	11
misoozu	296	342
ushisen	39	15
kazoku_wakaba	22	8
nankouhuraku	8	9
misumamisu2000	7	7
natsun0722	59	61
H_gyokusen	58	28
priyadarshy	0	8
artlm12	119	64
crazytiger178	100	85
kekekeichan2498	20	8
Hir0Suda	46	16
calpha41	105	77
tkmkmgsflsktssk	44	16
labyrinth17	68	112
dekopon_mania	8	6
imanoyuu	10	3
teddygirl000922	9	8
ta_mayou	46	10
yukari77377	206	166
makkoand	170	199
apaman_ohmori	50	5
A2M_8BALL	99	132
u6878314	113	66
magachapin	63	46
I_Londerstand	13	10
masa11ap25	59	58
kaorinkitamoto	29	26
es1nd4t2s	33	16
smilealwaysxoxo	167	45
krk_luv	63	55
Zoosan110	128	56
hajikko_note	96	58
norujoa	288	385
droproch	43	16
scy0222	19	7
871_	15	5
chaotsukushi	189	78
Subciety_gen	72	54
kiriku_kage	60	40
yosio918	7	15
9rurin_d	115	15
iakiyama	50	31
fuku_fukuko	29	14
BANKO_	175	434
GITANCIEL0505	83	47
yknao	45	41
GroovyGrapevine	1	55
toyoline	34	26
fantasista0822	11	2
hiropes	73	22
maaaaaaaasasi	18	7
UK1a	110	38
miso_1002	66	65
ahiruxyz	52	17
Riku69	33	10
alanatpaterra	10	85
yawarakaiunco	117	41
nazusai1	66	11
PKmawonichika	9	13
Like_SOL_YUI	43	38
kikitorizurao	5	3
jerwintencaat	1	13
peach_favour	78	30
yumi_kimidori	60	102
l_B_michel	108	44
cano0109	17	9
ocapontas	16	11
kouta_raw	39	29
asatokouya	108	108
akk_yua	153	80
muffin_dacs	41	37
naaa_ko	133	53
ys0608	147	68
823trust	183	51
tami0928	78	24
hyouha	73	59
AHOKO	30	97
miie0426	117	36
seika1984824	18	10
NANAno9	219	106
hrmtrui	129	524
moriyaK	5	1
Masaika	46	36
ua8894274	169	62
kazharuaki	8	19
takewtnb	70	38
yuko4001	216	177
ym5_sion	209	212
porcorosso_shop	2	1
Oto_neko_	99	44
meganeinu00	25	32
bb_gd_1211	60	33
TuannnD__	0	2
kazuparea88	143	129
negi_hei	155	79
nagomi_yutori	55	53
Jakubdr	0	21
kawaguchi_ME	10	1
Nagiko_KUBO	17	6
yuckyuca	87	35
ayakateamaqua	67	30
shinkaopei	72	42
hucklevery	48	15
ruhutu	57	57
w_azumax	177	286
Taakm	174	254
dendopuep	53	55
makotokana	153	80
GhsalesmanNaaao	92	111
Xstrology	0	7
manoasu	35	16
oitomohiro	29	16
miy_ako	159	63
tenguchan	51	18
yuzukosyou_0743	253	126
toshi_gen	21	14
Befrem	12	32
twikelderke	3	3
tomoro_rbb	71	19
zunko83	28	3
skhyaodn	118	110
naota344	275	690
kay0629	26	10
NC_nishizawa	29	19
031kuma	30	12
lydiabigley	0	0
sakanoue	36	32
uruma06	12	6
sunekajitter	103	124
ayaxabeam	78	17
wind_sao	29	23
miho371	12	9
KSUTO	154	95
azuuu27	66	35
erinco_rinco	33	9
nekotama_tamama	42	9
hokuochi	14	12
doodad000	173	73
snjfrn	105	62
kanacchiclcl	98	26
asu10ar14	19	24
nkt1122	109	110
Jobsbody	6	52
mina_a_sakura	296	328
chi3mam_gntk	295	214
cibipiyo	16	9
mocha_wrs	13	10
52erkr	32	12
norichin32	26	19
nogi_scarlet	118	311
knzdp	49	41
Larks_HideAudio	16	19
ERN_0426	94	36
himeringoringo	63	15
ecofarmasano	77	137
aina3110	55	39
ikkava	10	3
duffy_milu_veli	9	10
soy_source_bird	64	27
malibusinobu	35	13
min117	254	91
Charisma0118	20	12
r1i2k3a4a5a6a7a	3	8
thinlucky	62	225
side6ro	52	18
elbadildotnet	0	3
gbeatrizdas	32	365
toshizostarfort	110	48
chinese_pastan	144	41
rayray1269	38	21
akn1209	27	1
mz_hyououko0131	48	56
yoneyama23	18	21
sinku00	345	354
Kaihaku_ZYMA	50	23
Merci_yummy	38	41
nodahayato	188	119
3mamumamu4	22	15
T_finallife	24	44
kamechigi	97	64
tuka_sa_	62	48
gatherroses	6	18
square_73	185	154
akina311	9	13
hasu1024	8	1
DripDry007	35	17
TORATOSHI	79	37
an56disco	35	6
M_GeRm_loveUwbn	106	72
y_ymay	248	69
yu_19980408ayu	76	21
clockyism	101	21
fumiyazato	49	30
satokeno	67	45
ahhaaru	116	34
unagi_bone	69	38
shapoooo	51	17
yumie315	15	36
5px	38	14
rens_t	120	66
kiku1213	21	35
reeemi56	121	102
shiroruko	83	19
satsukikou	52	49
nakazonoyuki	34	19
kaira_gnbs	111	57
eriiiko222	103	48
aruha_news	7	1
shutaro1220	41	146
shin25nama	226	306
randoukira	64	52
take_gahara	84	46
jirouco	220	137
yasushoukai	122	31
www_ksk_net	26	20
trader_hiro	463	556
SamothRelgi	0	60
inchikihonmaya	12	39
kotkot_m	106	39
nk0199	38	12
weatherain	51	47
chronica_ay	37	25
mew_0826	246	274
saru_j	44	18
serial0708	43	25
kingyo117	40	19
aki777sa	117	65
s_ryuuki	101	69
sengoku5	53	50
annekris_	4	30
vavoyossy	54	24
mgts13	61	72
nostar	94	35
keguitar	69	117
tofu_gyoza	28	8
hek067p	25	12
KomatsuKoki	12	14
daichitter	25	13
aluchoppu	12	14
24garasu51	74	66
3ayn9	19	17
yumingmyu1103	102	15
narisen_han	17	14
yukky0891	30	15
tomomi30	133	39
sanzobara	48	17
SHUSAKUNN	60	44
aisingu	44	27
asakanta84	19	8
kiria_0129	55	33
Hana_mick	40	40
insomnia_23	94	58
takamuu	143	102
pon_m	16	14
meteor_line	15	11
kouheisuetani	37	15
kiyoukotarou	131	88
mu_gicha	38	63
0XX00	137	188
yyuukq	61	42
DAIGO825	242	162
spa_tsuchiyu	7	1
takutame	107	23
kuromarukota	19	8
kimumo	43	88
cozy7	19	8
endomotoki	15	34
akisweetlove	21	6
rikarika_21	120	33
THOUSAND_PORT	142	20
harunojin	65	44
macchibou	6	3
ky_525	5	7
Sakoop	147	81
alpen3003	18	5
sumikoron	26	5
eriklyn	122	47
kommy123	79	44
haruka626	142	102
Nigimitama	19	6
aask0616	13	14
nozomiwoidaku	83	53
iruya611	63	81
kan810	17	10
tg_musing	123	43
temiiiiko	30	18
mamo_y	43	28
piiiico	63	12
kkkkkry	121	111
by_chloe	1	36
nanami777	80	23
gsppc	33	12
minnie_joecool	5	2
mandel_fish	161	119
anana112	52	4
zero0to0zero	8	5
gogonarunaru	64	62
Marypieta	83	12
greenery43	30	6
tanken_Pon	42	17
shin_no_doubt	53	40
aran0917	41	29
jointstereotype	0	12
xxxx10	148	167
shelbyfero	0	0
saigono_hi	139	43
fc_nb	91	163
NAHO_music	39	19
dis_1topi	10	6
romihi77	15	12
PS3Rumors	0	10
cassis0130	47	93
purewrite18	95	127
zudacha	50	22
iBuzz_	0	14
room6933	128	35
hinataso1	22	36
MCtek_	56	83
2gatunotuki	7	6
pnya62	183	122
hitu03	102	86
tsuchinoko7	176	189
kimi_iwasaki	97	178
satowatake	59	76
arks1969	18	9
maguhekikai	124	161
ot_p	13	8
Hi_KICK_dot	49	63
takanori0301	142	211
tdegu	15	5
save_our_rock	25	6
hartree_fock	13	7
aki_rs	16	14
jack_13_rock	105	44
official_haku	24	18
hiziri001	45	11
a2c0511	17	2
kagehumidou	44	101
tachibana_yui	99	52
youchildren	51	40
riiiiiis	71	114
snuffkin13	105	73
aya8lily	85	66
heigazen	71	23
galil1993	90	86
laocius	39	16
dsk3937	71	29
nora_pierrot	54	32
oosakatakashi	321	627
sunmotu	233	327
rierietty	70	32
Kazumi_Imai	15	9
rusaki2010	5	7
nao3091	118	19
willializm	17	4
2000604	63	40
kuchannoakkun	50	79
FactsMiley	0	2
ultramarine0000	52	9
indigospring	39	15
straygh	225	270
ponta1990	19	14
exerock_X	307	579
zatto_	186	132
msms144	61	42
sweetdream777	102	30
yuuki_284	52	11
Katsuhiko_6530	22	15
keiguda	18	26
turitarou114	12	11
ozazax	29	13
hazukyo	36	20
U_YU1015	72	61
hota511	68	37
tama1175	15	15
yasu0236	99	87
kou_3838	101	56
luviceman	0	10
handstandhippo	156	124
Little_ake	40	8
kujiranijino757	107	39
teranish	82	44
Yasu227	17	14
maipiii	55	48
OhanaUdon	2	8
moimoi34	42	26
1031ebi	8	41
picoyuu	4	6
jamigri_ai	61	39
eka5622	166	158
chamiaki0901	18	19
taichi0703	21	14
yurie1002	28	8
raiti_esthetic	13	12
yuto425	35	65
otsachi	46	21
khashka_	119	33
archang	35	25
kazutakanbe	116	34
maru_uver	207	115
yarau4	30	25
rody816	82	5
anony403	61	13
neokissinger	119	35
LUCK_yuyusama	69	49
tusabiasque	0	86
whufcmonamour	59	71
hgc824	63	4
faktors_	37	69
k0110	416	534
nakadoori	10	3
B2stAya	71	106
marudoko	147	59
uta0624	31	2
taaakun_megane	36	73
Djoshluis	10	72
sorato0801	315	244
maumi_makuross	4	0
graziacecilia	132	77
madridista1111	146	244
hczsminato	96	83
sablebrush	0	1
iwamin	32	39
SUNTOWN_KOZO	59	35
sui0128	141	100
parkchanjong	0	6
JP8K	24	7
himeeeee	65	31
hamotoko	52	19
lightDR3	49	88
hymytns	4	25
ayumigak	71	43
kkaaaazz	5	5
HIRARU_TONOGI	172	160
oo35	87	26
maki138	195	238
vpisv	110	116
yuttan_nico	140	70
Lava__	374	511
yukatan_hantou	71	36
NaNa0117	231	197
reggert	1	3
manacco14	12	9
harucoh	273	146
kotona122001	197	133
Lacoooon	160	85
wapo_wapo	13	19
rockinoota	0	0
hinashiki	55	20
ryu_gotengo	157	176
naokin1223	18	12
kumanopono	9	5
Puuri	0	6
tarogen	10	4
12gwon06	12	12
jy630	69	52
kotatohitotoki	31	14
_1319	176	68
ohanaxx	110	57
kinosei23	39	36
ritatsukagoshi	11	10
Macchan77	34	14
yukop	29	34
xxanzzy	8	14
sherasan	69	30
sselost	16	7
kagita1031	102	109
maresia339	9	5
yamanotakasi	60	29
ruka0517	89	103
yu0u0zuka	30	8
siryuma	175	315
haruki777RSS	62	45
41paradise53	171	62
Missinglayou	137	306
haru_has_come	70	41
mii__mi	62	32
lktreygfs	160	48
botkot	0	13
Saeishi	78	24
d_ameda	86	713
mayawel99	35	33
YSB4	86	58
k_tora	235	358
uperlupernoie	20	20
china_nami	47	12
294_ma	17	7
poppo1028	111	135
tetosanta	211	123
kitunemaru	25	9
wlo7	110	349
kama_tea	124	54
blanccasse_s	68	28
mahxx22	269	203
eitatatan	103	95
akoxtime_0829me	12	20
yamatakeporon	30	12
eagle_head	54	57
psyconigiri	31	7
itoi5g	121	251
kanoe2	46	28
_Manvar_	25	20
yoshimura_akemi	366	343
itoyasuha	38	8
oui_yuchan	27	10
yuzu08	42	9
nyoipa	20	2
hk_teiun	50	8
kayopooh1209miu	6	3
fuiming15	320	108
minico_	44	9
hino_non_	8	0
sa0224ku	38	7
BridgetCase	1	35
kaduyo	101	118
runanananana	92	103
tomotaka130	100	35
yy_yurara	50	35
takahashimas	83	45
huuma2	66	91
haruna7bee	79	71
masironoyuki	46	14
erimarun	65	73
mitsn1023	19	4
same_yumeshibai	250	133
cyborgfmy	31	44
shigesanz	31	21
marron705	16	9
ren05m	107	39
iri2010	15	13
raspberrygalaxy	0	6
yuzying	27	6
namisen	44	33
cmd_hk	134	50
ykhuao	54	47
fsonvrwjf	70	19
sts6246g	149	35
benitateems	2	12
yukke0829	26	6
xrinasunx	141	99
rilayaka	40	49
iwhurtafly	27	12
iamsoatuiyh	28	9
sakusaku51	135	64
kojirowo	176	227
yohske	159	80
susakisan	103	297
gotsu53	32	14
mint1641	38	5
kana513	24	6
flyingwktk	45	20
mchicchi	7	11
achina2	10	40
so_k	30	20
e_mrsk	190	152
4356Colony	85	43
bird_ys	220	325
shiotam1026	97	68
siuichi	14	23
AmamiyaUshio	77	27
suwakoishi	348	384
MusicVideoman	116	56
XaroCydeykn	73	85
jb_1000	0	6
Rogugugu	19	16
satopo	91	98
kacchang1990	2	5
shinodakazuyuki	73	33
Lichappy	148	45
newwavech	3	1
monomono13	66	32
wajuntei	62	39
KOUTAROPONYO	114	118
ming_mei	11	10
zionjazz0125	60	8
gingintofu	56	31
haraheri_neko	4	1
serolin	20	12
pirorikin8	88	72
akashinomiya	164	45
alt01	134	164
aaab22c	37	45
narekomu	116	197
antoronz	83	102
MonsieurMegane	107	49
phierre_	0	15
kuroshige96	25	10
daruma123	81	88
mikoteni	104	97
T_Hiruma	110	48
wanijimawaniji	75	78
TheDesertFox	0	4
QueensBridge128	116	116
o0marie0o	90	43
uchiyamagic	52	62
kome_gpm	14	17
monochro	51	32
cor9vo	12	2
tAm0k0	11	2
covygomez	0	98
midnightshakuri	38	6
sapporopiano	11	9
___Mally	66	127
melody64line	5	0
monekich1	414	506
qoopo8745	45	13
yukipoayukipoa	36	11
meatkun2gou	40	44
nabe420	14	33
tag0113	221	106
megutan0418	55	17
komu_1977	16	10
sistermoons	16	14
fmk0803	82	43
kbp_bokin_twitt	6	7
mi_karasuki	161	152
kyoseiyoshida	24	30
Naotacar	33	76
biscuits43	24	20
yninomiya	28	11
kennnyu	74	60
pekopokos	60	80
jibiAOR	30	182
kuracchi32	141	145
umycos_bkk	15	9
topaz1106	5	3
swinging28	37	17
brokeneyepro1	5	24
tsu215	59	41
Kimupisi	20	7
dom_330	83	80
kunihouse	59	37
happygirlppo	18	7
StarryTristan	46	28
sakitaka18	17	19
LISP20100730	11	2
rrto	407	499
13gou	173	135
retesla	41	43
lalykatherine	12	60
repo1110	155	183
nonnonnn	68	23
taitukuro	0	1
Kiyoodle8107	229	315
guri_co	42	30
kinogon_05	27	10
kamikuranagi	103	71
taxy0530	72	34
macrowdon	153	42
liliniett	109	122
eievui_14	140	106
agunistar	147	58
shu_suke_bloud	89	89
pai_nomi_umai	148	197
sakurakanko	15	6
kondou0809	85	73
sanadaaira	12	5
joshjerez	0	32
Chiroyo	95	56
Yuuki_Mk2	61	32
koiryu	56	109
jinbeikatagiri	27	20
emerukun	18	16
shoko_1212	14	21
bbouto	61	124
quasarjapan	67	23
morogimi	129	115
p_tyan	12	8
aimaindigo	96	46
HOSHIGAMIYUTO	89	64
ranohi2010	34	13
skasumin	40	29
kenjimori	21	39
ayuterrier	19	10
0wave1173	11	7
choir_tempest	377	282
piyokopuyoko	26	53
noziken	157	371
ibukisotatsu	105	63
yellowrody719	8	10
suisuidit	54	6
mlamydia	11	4
ryo_valencia	66	77
chaco0220	51	34
soulacid	47	32
timako_macomaco	8	5
hollatuang	12	164
mistapetkr	89	61
akiko_512	177	148
tarundo_runrun	24	15
tack_xao	120	35
Rapt3333	113	53
aiai114	1	0
kei_long	49	14
orz0x0	183	128
zerohito	222	239
morimk	29	13
monikapin	4	23
PinarEris	1	15
aya_rice123	286	253
mack005	1	59
syonotan	187	141
junk_spider	89	28
cootankumiko	27	9
Cocoweet	23	28
miT_Tki	277	186
genpi215	93	69
takoshi139	16	24
cr5gg	112	28
kamata_3di	31	19
kariyan420	71	110
inishienagaya	43	9
K_Gsnhg	120	55
dovenews	0	18
funnykeiii	13	11
GR_h2so4	122	40
ycharu	15	19
tammerz83	0	2
speedoarenazzzz	4	2
nekochandaisuki	21	4
mamaeno1006	11	4
noritama1226	159	152
yoppi1104	8	12
eli_mxa	57	72
Y_Shihoppu44	50	24
Ryogasai	22	33
hisetu08	61	21
Lezyend	29	10
hamuyan0423	269	224
kintamaohzi	60	54
mariko_mps	71	8
knpkpm	72	19
TraceyMom	3	72
ryu0029	97	100
pongoriansan	91	68
komaharu3	37	33
s2USAVICHs2	128	108
s1031junko	7	6
muramoto3	1	2
AWMG2828	133	38
fusa_28	66	90
ma_na0316	48	12
kyuru_run	175	174
LAZYTHM	7	9
Billy_H_BOT3	4	7
kashima133	108	15
ert_jyo	34	22
cvmat	69	52
jp_twi	32	24
slapper1107	17	31
pee31101	53	42
mamitoyo	28	9
marineve0712	53	80
twshouta	282	270
harukainana	107	45
25maru25	212	110
ono1105	30	19
enohpdaeh	25	18
micchaaaaaaan53	31	57
reizann_unosuke	32	26
IBMLAHAMAD	0	0
hoz_mix	137	55
soranolist	63	59
TengoMagnetitis	0	59
a52i	8	11
andydora	22	22
Crisis_Tomo	82	76
kinngyotyann	116	101
sai3r1h	265	78
foo_730	19	14
mikanbooooya	60	55
drumspide	86	22
te_hen3	122	120
aoyamateruma	2	4
bubububunbun	122	76
chkysh	85	80
