﻿user,8340 on,8340 off,5580 on,5580 off,12690 on,12690 off,3750 on,3750 off,5310 on,5310 off,33090 on,33090 off,11220 on,11220 off,14280 on,14280 off,18570 on,18570 off,6900 on,6900 off,7830 on,7830 off,9810 on,9810 off,10800 on,10800 off,5040 on,5040 off,total on,total off
Mayu360,0,0,2,2,4,1,0,0,4,1,0,0,0,0,5,7,0,0,2,3,1,1,0,0,0,0,0,0,18,15
toonaoom,0,0,0,0,0,0,0,0,0,0,1,1,0,0,0,0,11,26,2,3,0,0,0,0,0,0,0,0,14,30
bealtuck,3,2,0,0,5,2,0,0,0,0,17,5,1,2,11,13,0,3,0,0,0,0,1,0,0,0,0,0,38,27
minechanz,0,0,0,0,0,0,0,0,1,0,0,0,4,13,6,3,11,7,0,0,0,0,0,0,18,22,0,0,40,45
kazu0880,3,3,0,0,0,2,0,0,0,0,0,0,0,1,0,0,10,8,0,3,0,6,0,1,0,0,0,0,13,24
nonomax,0,0,0,0,2,4,0,0,0,0,0,0,0,0,4,2,10,4,0,0,0,0,0,0,3,1,0,0,19,11
kwsm44,1,0,2,7,2,0,0,0,0,0,0,0,0,0,0,0,3,4,1,2,2,3,3,1,0,0,0,0,14,17
htn3911,2,6,0,0,0,0,0,0,0,0,0,0,0,0,0,0,11,9,0,0,0,0,0,0,0,0,0,0,13,15
mikihug,0,0,0,0,1,0,0,0,0,0,0,0,0,0,0,0,0,0,30,2,0,0,0,0,0,0,0,0,31,2
on1529,0,0,0,0,0,0,2,1,0,0,10,4,0,4,9,1,0,0,0,0,0,0,0,0,0,0,0,0,21,10
gakesita_rui,0,0,0,0,10,26,0,0,0,0,0,0,4,24,0,0,0,0,2,6,0,0,1,0,0,0,1,2,18,58
ironyfox,0,6,0,1,1,0,2,8,0,0,1,8,0,0,0,0,0,0,0,0,0,0,1,2,0,0,0,5,5,30
peace373say,0,0,0,0,6,4,0,0,0,0,0,1,4,2,9,3,9,19,0,0,0,0,0,0,0,0,0,0,28,29
kudoooh,0,0,0,0,1,0,0,0,0,0,0,4,0,0,0,1,1,4,4,1,0,1,6,2,0,1,0,0,12,14
rrgullyrrgully,0,1,0,1,1,0,0,0,0,0,0,0,8,8,2,0,6,2,0,0,0,2,0,0,4,3,4,6,25,23
kanae38,0,0,0,0,0,0,0,0,0,0,0,0,0,1,10,9,0,0,11,1,0,0,0,0,0,0,0,0,21,11
sekainomuraatsu,3,2,2,0,9,3,0,0,2,0,0,0,1,0,0,0,1,0,0,0,0,1,0,1,0,1,0,0,18,8
jun134,0,0,0,1,0,0,0,1,0,0,0,0,5,2,1,0,1,1,4,0,0,0,13,2,0,0,0,0,24,7
Sgt_Syl,1,1,0,0,2,1,0,0,0,0,2,3,1,1,0,1,5,1,0,0,2,2,0,0,3,3,0,0,16,13
ayuno7_m3,0,0,0,0,0,1,0,0,0,0,0,0,0,0,4,2,7,7,0,0,0,0,5,3,1,0,0,0,17,13
333_blueice,2,5,1,3,0,0,0,2,0,0,5,0,0,0,14,5,8,2,0,1,0,0,0,0,1,0,0,0,31,18
misato_ty,2,5,0,0,0,1,0,0,0,0,2,1,0,2,1,0,0,1,0,5,0,3,1,2,0,1,2,0,8,21
GaemGao,0,0,0,0,1,7,0,0,0,0,4,2,8,12,8,15,3,0,0,0,0,0,4,2,4,11,0,0,32,49
ari1129,3,2,0,0,3,3,0,0,0,0,0,0,1,0,6,2,1,1,0,0,0,1,0,2,1,1,0,0,15,12
hoshimi_ran,0,0,0,0,3,0,0,0,0,0,3,20,0,3,0,0,0,0,0,0,0,0,0,0,0,0,0,0,6,23
lovelovejuly,9,5,0,0,0,0,0,0,0,0,1,1,7,2,0,0,0,0,0,0,0,0,1,1,0,0,0,0,18,9
glyuriay,0,0,1,0,0,0,1,0,2,1,0,0,0,0,0,0,3,36,0,0,0,0,0,0,0,0,0,0,7,37
kooo_ki,0,0,1,5,0,0,0,0,0,3,0,1,0,0,4,7,2,3,2,8,0,0,2,1,0,1,0,0,11,29
rokro_poid,0,0,0,3,0,0,0,0,1,0,1,1,0,0,2,18,3,4,0,0,0,0,6,13,1,0,0,0,14,39
misakimmy,0,0,0,0,1,2,6,6,3,3,0,0,3,0,0,0,2,4,0,0,0,0,0,0,4,4,0,0,19,19
2PM_626lgm,0,0,0,0,1,6,0,0,0,0,2,2,2,1,8,10,1,0,0,0,0,0,0,0,0,0,0,0,14,19
nage0727,2,1,0,0,10,4,0,0,0,0,0,1,0,0,0,0,2,1,3,1,0,0,1,2,0,0,0,0,18,10
RINGxRING,2,10,0,4,4,12,2,1,0,0,4,4,0,1,0,0,0,0,2,3,0,0,0,2,0,0,0,0,14,37
okamokkori_0614,5,0,0,0,0,2,0,0,0,0,0,0,0,0,1,2,4,6,0,0,0,0,3,2,3,4,0,0,16,16
Linfiel,0,0,0,0,4,19,0,0,0,0,10,6,14,12,3,16,4,9,0,0,0,0,4,6,1,3,0,0,40,71
mutevox,2,0,10,0,12,0,2,4,1,1,0,0,5,4,0,0,0,1,0,0,7,0,0,0,2,1,22,3,63,14
chessneko713,4,2,1,0,0,0,0,0,9,1,0,0,3,2,0,1,1,0,0,0,0,0,1,0,0,1,0,0,19,7
Erusie,4,2,0,0,0,0,0,0,0,0,0,0,0,0,0,0,0,0,0,0,4,10,0,0,0,0,2,5,10,17
suzu_pixiv,0,0,0,0,0,0,3,6,2,0,0,0,1,5,0,0,0,0,0,0,0,0,1,2,1,9,2,2,10,24
itnow_jp,6,0,1,9,2,4,0,2,0,0,1,5,6,1,0,2,0,0,0,0,0,0,1,2,1,0,1,1,19,26
garapago,13,5,0,0,0,0,0,0,0,0,1,2,0,0,0,0,0,0,0,0,0,0,5,2,0,0,0,0,19,9
yRim9,0,0,0,0,3,2,0,0,0,0,0,0,2,0,4,5,1,2,0,0,0,0,5,2,1,0,0,0,16,11
sayujj,1,0,0,0,0,1,0,0,0,0,3,1,3,1,1,0,0,0,1,1,3,2,2,1,4,3,0,0,18,10
shinno_,0,2,1,0,1,0,0,0,2,2,1,1,3,3,0,3,1,0,0,0,0,4,1,1,0,0,1,0,11,16
sugara88,1,1,0,0,0,0,0,0,0,0,0,1,0,0,2,3,3,1,0,0,8,6,2,0,0,0,0,0,16,12
akira1099n,0,0,0,0,0,0,0,0,0,0,11,7,4,2,0,0,5,2,0,0,0,0,0,0,0,0,0,0,20,11
nile_yok,3,3,0,0,0,0,6,3,0,0,0,0,2,0,6,2,0,0,0,2,1,1,0,0,1,0,0,0,19,11
RufusYamamoto,0,1,2,0,0,1,3,2,2,2,0,0,0,0,3,4,1,7,7,1,0,0,0,2,0,0,0,0,18,20
AdaMonAmour,0,0,0,0,0,0,0,0,0,0,2,3,1,3,6,9,0,0,0,0,0,0,13,5,4,5,0,0,26,25
tanacurve,0,0,1,0,0,0,0,0,0,0,3,5,0,0,0,0,4,10,0,0,0,0,0,0,6,0,0,0,14,15
utugi,1,0,6,1,0,0,9,2,4,2,0,0,0,0,0,0,0,0,2,2,0,0,1,0,0,0,0,0,23,7
miko1018,1,2,0,2,7,2,0,0,0,0,1,0,4,0,0,0,0,1,5,1,2,1,1,0,0,0,0,0,21,9
shizuku_hiiro,5,1,0,0,0,0,11,6,0,1,1,2,0,1,0,0,0,0,0,0,0,0,0,0,1,0,0,0,18,11
iduki,0,0,0,0,0,0,0,0,0,0,6,3,0,0,7,4,9,3,0,0,0,0,0,0,0,0,0,0,22,10
pochitic,0,0,0,0,0,0,0,0,0,0,3,2,0,0,2,0,0,0,0,0,0,0,0,0,8,10,0,1,13,13
ganyobo,0,3,0,1,4,0,1,3,0,0,0,1,2,4,0,4,0,5,0,0,0,0,3,2,0,2,0,3,10,28
mayora_,0,0,0,0,0,0,7,11,0,0,0,0,6,9,0,2,0,0,0,0,0,9,0,0,0,5,0,0,13,36
etotatsu,0,1,0,3,4,6,0,3,0,3,3,2,4,10,12,11,1,15,0,0,0,0,0,0,0,0,4,3,28,57
_momolove_,4,2,0,0,1,3,1,1,0,0,0,1,0,0,0,0,0,0,2,6,0,0,8,6,0,0,1,2,17,21
syameimarumomiz,0,0,0,0,1,0,0,0,0,0,0,1,0,0,8,7,8,2,0,0,0,0,0,0,0,0,0,0,17,10
kojiko1018,2,1,0,0,1,0,0,0,0,0,7,11,0,0,0,1,0,0,0,0,0,0,1,5,0,1,0,0,11,19
warararaN,0,0,0,3,0,0,2,0,0,0,2,0,0,0,1,2,5,9,0,1,0,0,3,0,0,0,0,0,13,15
soso0621,0,0,0,0,2,1,0,0,0,0,14,11,1,2,5,3,3,3,0,0,0,0,0,1,0,0,0,0,25,21
Buapuan,0,1,0,0,0,0,0,0,1,0,0,2,0,3,0,0,0,4,0,2,0,0,5,5,0,2,0,1,6,20
Faye_Chiara,0,0,1,0,0,0,5,2,3,0,0,1,0,0,1,0,2,5,0,0,0,0,0,0,1,1,3,2,16,11
nico_lovelove,0,0,0,0,0,0,0,0,0,0,13,3,8,8,5,1,6,4,0,0,0,0,12,5,0,0,0,0,44,21
natsu614,0,0,0,2,0,0,5,9,0,6,0,0,0,0,15,3,0,0,0,0,0,5,4,6,0,0,0,1,24,32
taka__,0,2,0,1,3,2,1,0,2,3,0,0,0,0,0,0,0,3,0,2,0,2,1,5,0,3,0,2,7,25
AhaaChan,0,0,0,0,0,0,0,0,0,0,0,0,0,0,8,2,10,2,0,0,0,0,0,1,1,3,0,0,19,8
hiyori09,0,4,5,4,0,0,3,3,0,1,1,0,0,0,0,0,5,4,0,0,0,0,0,0,0,0,0,0,14,16
himmmmy_lcage,0,0,0,0,3,26,0,0,0,0,0,0,0,0,0,0,0,0,0,0,0,0,0,1,0,2,0,0,3,29
cacao_mame0w0,0,0,0,0,6,18,0,0,0,0,0,0,4,2,0,0,0,0,0,0,0,0,0,1,0,0,0,0,10,21
222lv,0,0,2,7,0,0,0,0,0,0,0,0,0,0,2,0,0,0,0,24,0,0,0,2,0,0,0,0,4,33
Dokuro527,2,2,0,0,0,1,7,2,1,6,0,2,0,0,0,0,0,1,0,1,0,0,0,1,0,1,0,0,10,17
melshi,0,0,0,0,2,2,5,7,0,0,0,0,1,4,8,7,0,0,0,0,0,1,3,2,0,0,0,0,19,23
YUI_believer,0,2,0,5,0,0,3,5,0,0,1,0,0,0,0,0,0,1,1,8,0,0,0,0,0,0,0,0,5,21
koji2929,0,0,4,4,0,0,3,1,1,0,1,2,0,0,2,3,0,4,1,5,0,3,0,0,0,0,1,0,13,22
WEALTH1979DOG,3,1,2,1,5,7,0,5,0,1,0,0,1,1,0,0,0,0,0,0,0,0,1,0,2,0,5,0,19,16
DJ_Hakka_K,0,0,0,0,2,0,2,1,8,1,0,0,0,3,3,1,0,0,1,1,1,0,3,1,1,1,0,0,21,9
axce11,0,0,0,0,0,0,0,0,0,0,0,0,6,6,0,0,4,4,0,0,0,0,8,11,0,0,0,0,18,21
A_RA_SHI,4,1,0,0,0,0,0,0,0,0,4,1,0,2,0,0,4,9,0,0,5,2,0,0,3,0,0,0,20,15
code_air_edge,0,1,0,0,0,0,0,0,2,11,0,0,1,8,1,1,0,0,1,1,1,6,0,0,0,2,0,3,6,33
tkzaki,3,1,6,5,1,2,0,0,0,0,0,0,0,0,0,0,0,1,0,1,0,0,0,0,3,3,0,0,13,13
shirley7_8,8,0,0,0,6,1,3,1,0,0,0,0,0,0,2,0,0,0,0,0,0,0,2,1,3,0,0,0,24,3
yukinotubame,0,1,7,1,2,9,0,0,0,0,0,1,2,0,4,5,0,1,0,1,0,0,1,5,3,4,1,0,20,28
a_717,0,0,0,0,1,4,0,0,0,0,4,2,1,0,8,2,4,6,0,0,0,0,2,0,5,2,0,0,25,16
sakko_o,0,1,0,0,0,0,0,0,2,2,11,8,0,0,0,0,0,0,0,0,0,0,0,0,0,0,2,0,15,11
GOTS_FRUIT_P,0,0,2,8,0,0,0,0,0,0,0,0,0,0,7,7,0,0,2,1,0,0,0,0,0,0,0,0,11,16
yumenomukouni,0,1,1,0,0,0,0,0,0,0,0,0,4,10,0,0,0,1,0,0,2,4,0,0,0,0,9,1,16,17
hagibo,0,3,0,0,0,0,4,0,0,0,0,2,4,5,1,2,0,0,0,0,0,0,0,2,1,2,0,3,10,19
mei_1015,0,0,0,0,0,0,0,0,0,0,0,0,3,3,0,0,0,0,4,2,2,8,0,0,10,4,0,0,19,17
solluvia_tvxq,0,0,2,1,0,0,0,0,1,1,0,0,3,3,0,0,4,1,0,0,0,0,2,10,0,0,0,0,12,16
sanasakilop,4,2,0,0,0,3,0,0,0,1,0,0,1,0,3,5,1,2,0,1,0,3,2,0,0,1,0,1,11,19
JM_MP,0,2,0,1,2,2,0,0,0,0,1,1,0,4,1,0,0,2,1,4,0,4,3,0,1,1,2,2,11,23
sigure_dot,0,0,0,0,1,0,0,0,0,0,1,3,3,1,0,0,9,11,0,0,0,0,0,0,1,1,0,0,15,16
mohichu,9,7,0,0,3,10,0,0,0,0,1,3,4,4,7,1,0,0,0,0,0,0,11,3,3,12,0,0,38,40
rjbook2,0,0,0,0,0,0,5,11,1,2,1,1,1,5,0,0,0,0,0,0,0,0,8,5,3,3,0,1,19,28
J_P_Polnareff,0,0,2,0,6,0,0,3,0,2,7,0,3,0,3,0,0,0,0,1,0,1,0,0,1,1,0,0,22,8
hirorix55,2,0,0,0,4,5,0,0,0,0,8,2,7,1,4,3,9,12,0,0,0,0,2,1,0,1,0,0,36,25
SankeiShimbun,3,0,1,0,3,1,0,0,1,0,0,0,5,0,3,2,2,1,1,0,2,2,5,0,5,0,1,1,32,7
sagw8,0,0,2,2,0,0,0,0,0,0,6,6,0,0,0,0,5,11,0,6,0,0,0,0,0,12,0,0,13,37
Iloveyosakoi,0,0,1,1,0,0,0,0,0,0,14,17,0,0,0,0,0,0,1,1,0,0,0,0,0,0,1,2,17,21
BlackBeatT,0,0,0,0,9,3,0,0,0,0,3,2,0,0,0,17,0,2,0,0,0,0,0,0,0,0,0,0,12,24
tatsuakima,1,1,0,0,2,1,0,0,0,0,1,2,0,0,0,0,1,10,0,0,0,0,0,0,3,3,0,2,8,19
x0rg1m0q1,0,0,0,0,12,9,0,0,0,0,0,0,4,0,0,0,0,1,2,6,0,2,5,0,0,0,0,0,23,18
chia_mint,3,0,0,0,4,0,0,0,0,0,0,0,0,0,2,0,5,0,0,0,1,6,3,4,0,3,0,0,18,13
yagu_rock,0,2,0,0,3,0,0,0,1,0,0,0,1,1,2,0,1,0,2,0,4,4,1,0,2,2,0,0,17,9
hshoka,1,14,5,7,2,2,0,0,0,0,0,0,0,3,0,0,0,0,1,4,0,0,1,1,0,0,0,0,10,31
Vmax357,1,2,0,0,9,3,2,0,0,0,0,0,0,0,0,2,1,2,0,1,0,2,6,5,1,1,0,1,20,19
ten_sin_ran_man,3,3,0,0,2,9,0,0,0,0,1,1,2,7,0,0,0,1,0,0,0,0,0,0,0,0,0,0,8,21
sayuriasaoka,0,0,0,0,0,0,0,0,0,0,0,0,0,0,0,0,0,0,0,0,0,0,0,0,22,4,0,0,22,4
luchifel,2,5,0,0,1,6,0,0,3,3,0,1,2,12,0,0,0,0,0,0,0,1,6,3,0,0,0,2,14,33
wumderbar,6,3,0,0,2,1,0,1,0,0,0,0,0,2,14,7,0,0,3,2,0,0,5,5,0,0,0,0,30,21
asdblade,0,0,1,4,0,0,4,2,0,0,7,6,0,0,0,0,1,4,2,3,0,0,0,0,0,0,0,0,15,19
aikoBOC,0,0,0,1,5,2,0,0,7,1,0,0,0,0,4,3,5,1,1,2,0,0,1,1,0,2,0,0,23,13
molohira,3,12,0,0,5,16,0,0,0,0,7,3,0,1,10,22,6,5,0,0,0,0,0,0,0,7,0,0,31,66
feena3317,0,0,0,0,7,8,0,0,0,0,10,8,0,0,0,0,1,0,0,0,0,0,0,1,0,0,0,0,18,17
felmata,5,5,0,0,2,5,0,0,0,0,0,0,1,2,1,0,2,1,0,1,1,9,3,1,0,0,0,0,15,24
tokiwa_a09,7,2,0,0,8,5,0,0,0,0,0,0,7,11,5,1,0,0,0,2,0,0,9,9,1,6,0,0,37,36
_HA_,0,0,0,0,7,4,0,0,0,0,0,0,3,7,3,6,2,8,0,0,0,1,0,1,0,0,0,0,15,27
a_in_k,0,2,4,2,2,2,0,0,0,0,0,0,1,8,1,1,14,5,0,0,0,0,3,0,0,0,0,0,25,20
yuusultu,0,4,3,2,0,0,6,5,0,0,9,6,0,0,2,2,0,0,0,6,0,0,0,4,3,21,0,0,23,50
kakuit,2,2,0,1,2,1,0,0,0,0,0,1,5,2,0,0,0,0,0,0,5,1,5,2,0,0,0,1,19,11
kururi1116,0,0,0,0,0,0,0,0,0,0,0,0,0,0,0,0,4,12,0,0,0,0,11,4,0,0,0,0,15,16
kentan_d,0,0,0,0,0,0,0,0,0,0,3,6,0,0,10,31,1,21,0,0,0,7,2,7,0,2,0,0,16,74
reco_nm7,0,0,0,0,2,10,5,3,0,0,5,6,0,0,0,8,0,5,0,0,0,0,0,0,0,0,0,0,12,32
Public_Place,0,0,4,12,0,0,9,16,0,7,0,2,0,1,0,0,1,3,0,0,0,0,0,3,4,10,0,0,18,54
epytoerets,3,9,3,2,1,1,0,0,0,2,0,0,0,0,0,0,1,4,0,0,0,0,1,0,0,0,0,0,9,18
shitake,0,0,6,1,0,0,0,0,0,0,0,0,0,0,0,0,0,0,0,0,10,5,1,2,3,3,0,0,20,11
tsuguminmin,6,7,3,0,0,0,3,2,1,0,0,0,2,2,2,1,0,2,0,0,0,0,0,2,3,5,0,0,20,21
mami_hug_me,3,0,0,0,10,0,0,0,2,1,3,0,0,0,0,0,0,0,0,0,1,1,0,0,4,6,0,1,23,9
kikuichisan,0,2,0,0,3,4,0,0,0,0,2,19,0,1,8,7,3,9,0,0,0,0,1,2,0,0,0,0,17,44
taikoyaki,0,0,0,0,2,1,0,0,0,0,6,6,0,0,0,0,2,12,0,0,0,0,0,0,0,0,0,0,10,19
yut318,1,4,6,4,0,0,1,0,0,0,3,7,5,8,2,2,2,3,0,0,2,14,2,6,5,6,0,0,29,54
daikouzui,0,0,7,3,0,0,3,3,1,0,0,0,0,0,3,16,1,0,0,3,0,0,0,0,0,0,1,1,16,26
konjikityo,0,0,0,0,1,0,0,0,0,0,3,4,0,0,0,0,6,17,0,0,0,0,0,0,0,0,0,0,10,21
akatsuti,0,0,0,0,8,9,0,0,0,0,0,0,0,0,5,3,0,1,0,0,3,11,0,0,0,0,0,0,16,24
konatsu3,0,0,0,0,7,2,0,0,0,0,0,0,3,0,0,0,5,2,0,0,0,0,0,0,0,11,0,0,15,15
ririya0428,0,0,0,0,4,2,0,0,0,0,0,13,5,0,9,4,2,2,0,0,0,0,0,0,6,3,0,0,26,24
ta9be,1,1,2,0,1,1,0,0,0,0,0,0,0,0,3,1,0,0,2,2,0,0,1,0,0,0,16,0,26,5
Eleven_121,4,13,0,0,1,2,0,0,0,0,0,0,3,3,1,1,0,0,0,6,0,0,0,0,0,0,0,0,9,25
n700kiku,0,0,0,0,1,0,0,0,1,0,0,2,1,0,0,0,20,2,0,0,0,0,0,0,0,1,0,0,23,5
naruko__chan,1,2,0,0,6,18,0,0,0,2,0,0,1,13,0,0,0,1,0,0,0,0,0,0,0,0,0,0,8,36
mi_ta_29,0,0,0,0,0,0,0,0,0,0,5,5,0,0,0,1,3,1,0,0,0,0,7,2,10,0,0,0,25,9
HokeyPoookey,0,0,0,0,0,0,7,5,1,4,2,2,2,3,0,0,0,0,0,0,0,0,0,0,0,0,0,0,12,14
ts578,0,0,4,3,0,0,0,0,0,0,2,3,4,3,1,0,0,0,0,0,0,0,0,0,3,5,0,0,14,14
MakeinuQueen,0,0,0,0,0,0,0,0,0,0,0,0,0,0,0,0,9,26,0,0,0,0,0,0,8,2,0,0,17,28
ms_asahina,2,1,2,1,9,0,0,0,4,0,0,0,1,0,0,2,0,0,6,0,0,0,1,0,0,0,0,0,25,4
nurumayu,4,3,1,7,0,0,3,5,1,2,0,0,2,2,0,0,0,0,0,2,0,0,1,2,0,0,0,0,12,23
toizumi,1,3,0,0,0,0,2,3,0,0,0,1,1,7,0,0,0,0,0,0,2,2,2,7,3,5,0,0,11,28
yudu62,3,11,3,9,12,8,0,0,0,0,0,0,0,3,18,6,0,0,0,0,0,0,0,0,0,4,12,4,48,45
panda8800,0,0,0,0,1,0,0,0,1,0,0,0,3,5,0,1,2,4,5,1,0,0,0,0,3,1,0,0,15,12
gkbr3,0,0,0,0,14,6,0,0,0,0,5,2,0,0,3,2,5,3,0,0,0,0,0,0,0,0,0,0,27,13
saosaosao1121,4,4,0,0,0,0,0,0,0,0,0,0,0,3,1,0,3,2,0,9,0,0,2,1,0,0,0,0,10,19
mazikarin,0,0,1,0,1,0,0,0,0,0,15,13,3,18,0,0,1,0,1,0,0,21,0,1,2,11,0,0,24,64
acswimmer,9,6,0,0,3,9,0,0,0,0,0,0,0,1,6,6,1,0,0,0,0,0,2,2,0,0,1,0,22,24
toko250er4,0,2,0,0,6,6,0,0,3,9,13,7,0,0,0,0,3,2,0,1,0,2,2,2,0,1,10,2,37,34
ruya28,2,2,0,0,8,1,0,0,0,0,0,1,3,1,0,0,1,0,0,0,0,0,0,0,2,14,0,0,16,19
chika_bot,0,1,0,0,0,0,2,20,0,0,5,10,0,2,3,2,8,27,0,0,0,3,0,0,0,2,0,0,18,67
sijo_han,2,1,0,0,0,0,0,0,0,0,0,0,1,0,0,0,0,0,0,0,5,1,7,7,1,1,0,0,16,10
peroyui,3,1,1,0,0,0,0,0,0,0,0,0,1,1,8,5,0,0,0,0,0,0,9,0,0,0,0,0,22,7
kaz_mr,0,0,0,0,0,5,0,0,0,0,0,0,1,8,0,0,2,15,0,0,0,0,0,1,0,0,0,0,3,29
higevision,0,0,0,0,7,2,0,0,0,0,2,6,0,0,1,2,1,1,0,0,3,2,0,0,0,0,0,0,14,13
einefarbe,4,0,0,0,4,5,0,0,0,0,0,0,1,2,3,0,0,0,0,0,0,0,4,4,0,0,0,0,16,11
dwmoto,0,2,0,0,5,1,0,0,0,0,0,1,5,2,0,0,2,3,0,0,0,0,5,3,0,0,0,0,17,12
NatkChi_,0,1,1,6,1,4,0,0,0,0,8,3,0,0,5,1,0,0,0,0,0,0,0,0,0,0,0,0,15,15
nothing_joker,0,0,3,2,0,0,1,1,6,6,13,3,0,0,0,1,0,0,3,2,0,0,0,2,2,2,0,0,28,19
tiki_hero,0,2,0,2,0,0,0,0,0,0,9,8,0,2,0,1,0,0,0,0,0,0,1,1,0,7,1,1,11,24
URATAKAO,4,8,0,0,3,3,0,0,0,0,9,4,0,3,0,0,0,0,0,0,0,0,0,1,6,13,0,0,22,32
gambarus,0,0,0,0,7,21,0,0,0,0,2,13,1,13,6,9,15,13,0,0,0,0,0,0,0,0,0,0,31,69
tkhs21,7,12,0,0,0,0,0,0,0,0,0,0,1,1,4,2,25,17,0,0,0,0,12,31,0,2,0,0,49,65
Norihisa1966,0,0,0,0,0,0,0,0,0,0,0,0,0,0,0,0,28,6,0,0,0,1,2,0,0,0,0,0,30,7
ai53koco,0,0,0,0,0,0,0,0,0,0,1,0,3,3,5,3,4,3,0,0,0,0,0,0,16,2,0,0,29,11
eriVwOhs,0,0,0,0,0,0,0,0,0,0,9,7,0,0,2,1,14,5,0,0,0,0,0,0,0,0,0,0,25,13
ayami_bon,0,0,2,1,3,5,1,0,0,0,4,1,0,2,2,3,0,1,0,0,0,0,1,2,0,0,0,0,13,15
nanguick,0,0,0,0,4,2,0,0,0,0,14,6,0,6,11,3,2,2,0,0,3,2,1,0,0,0,1,0,36,21
KATZE72Himanyan,0,0,0,0,0,0,0,0,0,0,0,0,1,1,3,8,2,12,0,0,0,0,0,0,3,2,0,0,9,23
ban_t_nm,0,2,1,2,2,0,1,0,0,0,2,1,2,2,7,0,4,2,0,0,0,0,2,2,1,2,2,2,24,15
news_matome2,14,2,2,5,3,3,0,1,6,2,0,9,9,5,3,10,0,0,5,3,8,14,7,4,8,9,12,4,77,71
ayu1063,2,3,0,0,0,0,0,0,0,0,9,1,0,0,1,1,16,4,0,0,1,0,3,0,0,0,0,0,32,9
twinkle_tears,8,0,3,0,0,0,0,0,1,0,0,0,0,0,12,3,9,6,0,3,0,1,3,5,1,1,0,0,37,19
sya_ku_si,0,0,0,0,0,0,0,0,0,0,0,2,3,2,6,7,0,0,0,20,0,0,1,0,0,0,0,0,10,31
umazawa38,0,1,4,6,0,1,0,0,0,0,0,0,1,9,0,0,7,14,0,0,0,0,4,6,0,0,0,0,16,37
aiku0427,0,0,0,0,0,0,0,0,0,0,0,0,0,0,5,9,2,6,0,0,0,0,0,0,0,0,7,2,14,17
_y_n_g_,0,0,0,0,3,1,0,0,0,0,3,5,1,0,5,1,1,4,0,0,0,0,7,6,0,0,0,0,20,17
_asagimadara_,0,0,0,0,1,1,0,0,0,0,3,1,7,5,1,0,1,2,1,0,3,3,0,0,1,0,0,0,18,12
du9k8qg5,1,0,3,1,0,3,0,0,0,0,0,0,4,1,0,0,2,2,1,1,0,0,4,0,1,2,0,3,16,13
voiceactorwota,0,0,0,0,0,0,0,0,0,0,0,0,0,0,17,8,3,2,0,0,0,0,4,1,0,0,0,0,24,11
kazamidori,0,1,2,0,0,1,4,8,0,0,0,1,0,4,0,0,0,2,0,0,1,3,0,0,0,0,0,0,7,20
kobushiwonigire,0,0,0,0,0,0,0,0,0,0,16,10,0,0,18,8,3,16,0,0,0,0,10,8,10,7,0,0,57,49
tonbi_no_kokoro,1,3,0,0,3,6,0,1,5,5,1,3,0,0,2,2,0,0,1,0,0,0,7,3,1,2,3,0,24,25
neconyann,8,0,0,0,2,1,0,0,0,0,0,0,11,1,0,0,0,0,2,0,0,0,2,4,0,0,0,0,25,6
rain2255,0,0,3,0,1,5,0,0,3,1,0,0,0,0,3,3,0,0,1,0,0,2,0,0,10,2,4,3,25,16
Erichan_AAA,0,1,0,0,1,5,2,2,0,1,0,0,0,0,0,4,0,1,0,2,0,0,0,0,0,2,1,4,4,22
rikkame,0,1,1,0,5,3,0,0,4,1,4,4,0,0,5,3,0,0,0,0,0,0,0,0,0,0,0,0,19,12
saxtnxx,0,0,4,15,0,0,0,0,0,0,0,0,0,0,0,0,0,0,0,0,0,0,0,0,0,0,1,11,5,26
yuuuyasaaan,0,0,5,2,4,2,0,0,0,0,2,2,0,0,0,0,0,0,1,5,0,0,6,2,2,1,0,0,20,14
borozoukinn2525,1,3,0,0,0,0,0,0,0,0,0,0,2,3,0,0,0,0,0,0,1,8,2,9,0,0,0,0,6,23
hak_env,5,1,1,0,0,0,5,2,0,0,0,0,4,3,0,0,0,0,0,1,0,0,0,0,1,1,0,3,16,11
ksw_z,0,0,0,4,1,0,7,13,0,1,1,6,0,3,0,1,2,4,1,3,1,3,0,0,0,0,0,0,13,38
39kakey,0,0,0,0,4,6,0,0,0,0,3,0,1,2,1,2,0,0,0,0,0,1,4,2,2,0,0,0,15,13
numataP,0,0,0,0,0,0,0,0,2,2,1,4,0,1,0,0,2,2,1,2,0,0,4,1,2,2,0,0,12,14
non_kujira,0,0,3,6,0,0,0,0,0,0,0,0,6,5,18,13,1,0,0,0,0,0,0,0,0,0,0,0,28,24
kyle9901,0,0,2,2,0,0,3,2,0,0,9,3,0,0,0,1,1,1,0,0,1,6,0,0,0,0,0,0,16,15
uzu_tyu,0,1,0,3,3,2,9,10,1,4,2,2,2,2,1,0,0,0,0,2,0,0,2,0,0,1,2,5,22,32
kono_chiha,9,1,11,3,0,0,1,0,0,0,4,4,3,0,0,0,0,0,0,0,0,1,0,0,2,0,0,0,30,9
HotR,0,4,2,4,0,0,2,1,6,6,0,0,0,4,0,1,0,1,0,0,0,1,0,1,0,0,3,0,13,23
miuraui2,1,1,0,0,0,1,5,0,0,3,2,7,0,0,0,0,1,0,2,3,0,0,0,0,0,0,0,0,11,15
rena931015,0,0,2,0,0,0,0,0,1,0,3,8,0,0,0,5,0,3,0,0,0,0,2,4,1,0,2,0,11,20
hy_yakko6,0,0,3,5,2,2,2,2,0,2,1,0,3,2,3,0,2,1,0,2,0,4,0,2,2,1,6,3,24,26
NarumiSakura,0,0,0,0,0,3,0,0,0,0,9,4,0,0,3,3,9,3,0,0,0,0,0,0,0,0,0,0,21,13
ratuni,4,1,0,0,9,9,0,0,0,0,0,0,0,0,6,3,0,0,0,0,2,2,0,0,1,0,0,0,22,15
AKIA0401,0,0,0,0,0,0,0,0,0,0,0,0,0,0,4,7,7,2,0,0,0,0,11,1,2,6,0,0,24,16
naka_bash,0,0,0,0,4,4,1,1,0,0,0,0,0,0,2,7,2,8,2,0,0,0,0,1,1,1,1,2,13,24
mikinbo,0,0,0,0,2,1,0,0,0,0,0,2,0,0,0,4,2,0,0,0,5,11,0,0,0,0,0,0,9,18
_AAANEWS_,0,0,1,1,0,0,0,1,3,0,2,1,0,0,0,0,2,2,14,7,4,1,3,4,2,0,1,0,32,17
oaks0026,2,4,3,6,0,0,0,0,1,1,0,0,8,6,5,4,0,0,5,13,0,0,0,0,0,0,0,0,24,34
Uechiline,3,0,2,0,4,1,0,1,0,0,0,1,1,3,13,4,0,3,1,1,0,1,0,0,1,2,2,0,27,17
sei957,0,3,0,0,5,3,5,0,0,1,0,0,6,10,0,0,0,0,0,0,1,2,0,0,1,4,0,1,18,24
yasufumic,0,0,0,0,0,0,6,0,0,0,0,0,0,0,0,0,3,2,0,0,0,1,15,2,1,0,1,3,26,8
vipanother,5,5,2,2,3,0,5,2,0,0,2,0,1,0,4,9,4,6,0,0,0,0,0,0,0,1,1,1,27,26
texasea,0,0,0,0,1,2,4,0,2,0,2,2,1,0,0,0,0,0,2,3,0,1,3,1,4,0,1,0,20,9
jubeated,4,17,4,11,1,2,0,1,2,11,0,0,4,21,0,0,6,1,0,0,0,17,5,7,0,0,1,6,27,94
fumi_choo,2,6,6,7,4,11,0,0,3,1,11,14,4,7,1,1,9,12,0,12,0,0,8,7,0,4,0,0,48,82
kyococoa,3,2,0,4,1,1,0,0,0,1,0,0,0,0,6,2,1,2,0,0,0,0,0,0,0,1,0,2,11,15
amazedkoumei,0,3,0,0,0,1,6,1,0,0,1,1,0,0,10,0,1,2,1,2,0,0,0,0,0,0,0,0,19,10
xxxaiuewoxxx,0,0,0,0,10,8,0,0,0,0,6,3,0,2,6,4,0,0,0,0,0,0,0,0,0,0,0,0,22,17
Bakkuenkeeeen,0,0,0,0,2,2,0,0,0,0,0,0,2,1,0,0,5,8,0,0,0,0,1,3,1,3,0,0,11,17
aktk456,3,4,0,0,0,2,0,0,4,2,1,0,1,0,0,0,0,1,0,1,0,3,1,4,0,0,0,0,10,17
mio0709,1,2,0,0,2,5,0,0,0,0,0,0,1,0,0,0,2,1,1,7,0,0,5,6,0,0,0,0,12,21
RioMick,1,0,1,0,0,0,0,0,0,5,9,8,1,0,1,0,0,0,0,0,0,0,2,4,0,0,0,0,15,17
alisakura,0,0,0,0,0,0,0,0,0,0,11,7,1,3,0,0,1,1,0,0,0,0,8,2,2,3,1,0,24,16
laicalaica_SS,0,1,1,0,6,2,0,0,0,0,0,0,1,0,4,2,5,3,1,0,0,0,3,4,0,0,0,0,21,12
asnskmt,0,0,0,0,0,0,0,0,0,0,0,0,2,4,4,7,5,15,0,0,0,0,0,0,5,13,0,0,16,39
ROM_Kobayashi,2,4,4,9,0,0,0,0,0,5,4,11,0,0,0,1,5,7,0,2,3,4,2,5,0,0,2,1,22,49
loco2kit,0,6,1,4,0,1,1,0,0,0,0,0,1,1,6,9,1,7,0,0,0,1,3,8,1,4,0,1,14,42
miru05,0,0,0,0,3,5,0,0,0,0,1,1,1,1,0,5,2,8,0,0,0,0,1,2,0,0,0,0,8,22
rz014river,0,0,0,0,8,3,0,0,0,0,6,5,0,0,0,0,0,0,0,0,0,0,0,2,2,0,0,0,16,10
shisashi,4,1,3,2,1,0,0,0,0,0,4,1,2,3,2,1,2,3,2,0,1,1,0,0,0,1,0,0,21,13
S_soryu_S,2,7,2,2,1,1,0,0,0,2,5,0,0,2,0,0,3,2,1,0,0,0,2,4,0,0,0,0,16,20
yuuga_deno18,0,0,0,0,0,2,0,0,3,10,0,0,4,2,0,0,0,0,0,1,0,0,0,0,0,0,10,1,17,16
xNobleRx,10,6,0,0,6,7,0,0,0,0,0,0,0,0,2,2,4,5,0,5,5,3,0,0,0,0,0,0,27,28
seekingking,3,2,2,1,0,1,7,0,0,0,1,0,0,0,1,0,0,0,0,0,0,0,0,0,1,6,9,2,24,12
wata_t,0,0,0,0,0,0,1,0,0,0,4,5,0,0,7,2,5,3,0,0,0,0,0,1,0,0,2,0,19,11
bobzb,1,0,2,0,2,0,0,0,2,0,0,0,1,2,2,1,2,2,0,0,1,1,4,3,1,1,0,0,18,10
withfor_seed,1,4,8,3,0,0,0,0,3,5,0,1,1,0,0,0,0,0,1,11,0,0,0,4,0,0,1,5,15,33
googlenews_busi,7,2,1,0,0,0,0,6,0,1,0,8,3,4,1,5,2,8,4,2,5,4,4,4,2,4,4,3,33,51
takayuki3232,0,0,0,0,0,0,0,0,0,0,0,0,3,15,0,0,0,0,0,0,0,0,2,2,5,4,0,0,10,21
ange_basil,0,0,2,0,1,1,3,2,0,0,1,1,0,1,1,2,5,2,0,0,0,0,4,4,0,0,0,0,17,13
breaker_touma19,0,0,0,0,6,9,0,0,0,0,0,2,0,0,0,0,1,12,0,0,0,0,12,8,0,0,0,0,19,31
saya_716kjj,5,0,0,0,2,3,0,0,0,0,0,0,1,0,2,2,4,5,10,0,0,0,1,3,1,0,0,0,26,13
mzsm_j,5,1,0,0,5,1,1,1,6,3,0,4,0,0,0,0,0,0,5,0,4,1,0,0,1,0,2,0,29,11
zan_sun,0,0,0,0,1,2,0,0,0,0,0,2,3,1,5,6,5,7,0,0,0,0,0,0,0,0,0,0,14,18
hanaMizu2525,0,0,0,2,1,0,0,0,0,0,2,0,1,3,3,2,5,3,0,2,1,1,0,1,0,0,0,6,13,20
CANNON_P,0,0,0,0,0,0,1,4,0,0,5,1,0,0,0,0,7,7,0,0,0,0,1,0,0,0,2,8,16,20
pan_daruma,0,1,4,2,0,0,9,0,0,0,0,0,1,2,0,0,0,0,2,2,0,0,4,1,0,0,0,0,20,8
dyomumogu,12,13,0,0,10,6,0,0,0,0,0,0,1,2,2,5,5,10,1,1,0,0,8,12,0,0,0,0,39,49
rukia_nico25,0,0,0,0,1,3,0,0,0,0,11,8,7,16,2,3,4,10,0,0,0,0,2,6,0,0,0,0,27,46
152akat,0,0,4,1,0,0,0,0,0,0,0,2,0,0,3,6,0,0,0,0,1,0,6,3,0,0,0,0,14,12
usereMEi,0,0,0,0,0,0,1,0,8,1,2,0,0,0,3,2,0,0,0,0,0,0,9,2,0,0,0,0,23,5
tegaisao,0,1,0,0,4,5,0,0,0,0,0,2,1,1,0,0,0,0,3,4,0,7,1,1,0,0,0,0,9,21
kobasnoopy,0,0,0,0,4,0,2,2,0,0,2,2,4,7,1,0,3,1,0,0,0,0,0,0,0,0,0,0,16,12
kada999,0,0,0,0,7,1,0,0,0,0,0,1,3,7,6,6,0,0,0,0,0,0,0,0,0,0,0,0,16,15
sht5424_rd,2,0,2,1,2,0,0,0,4,3,6,9,0,0,0,0,6,8,0,5,0,0,0,0,0,0,0,0,22,26
Ulic_N,5,13,2,18,2,2,3,7,0,0,0,1,0,0,0,0,0,0,1,3,0,0,0,0,0,0,0,0,13,44
yunagin,0,2,0,0,0,0,0,0,0,0,0,0,6,9,0,0,0,0,0,0,0,19,2,8,0,8,0,0,8,46
_ooze,0,0,0,0,0,0,0,0,0,0,2,4,5,0,0,0,0,0,0,0,9,0,8,1,0,0,0,0,24,5
andanuma,0,0,0,0,7,3,0,0,0,0,13,8,2,5,0,0,6,3,0,0,0,0,0,0,0,0,0,0,28,19
taka_shu0419,0,0,0,0,2,10,0,0,0,0,31,20,0,0,0,0,18,31,0,0,0,0,1,9,0,0,0,0,52,70
artlm12,2,1,0,0,2,0,0,0,0,0,0,0,1,1,9,3,0,0,0,0,0,0,3,3,1,0,0,0,18,8
makkoand,0,0,0,0,1,0,0,0,0,0,0,0,3,4,6,4,5,6,0,0,0,0,0,0,0,0,0,0,15,14
BANKO_,0,0,0,0,0,0,0,0,0,0,4,0,0,2,8,5,4,7,0,0,0,0,0,6,0,0,0,0,16,20
peach_favour,3,0,1,1,4,1,0,0,9,0,0,0,1,0,1,0,0,0,0,0,0,0,0,1,1,0,6,0,26,3
hrmtrui,1,4,0,0,1,2,0,0,0,6,1,3,0,0,1,3,1,5,0,2,1,6,0,0,0,6,0,9,6,46
w_azumax,0,0,0,0,0,0,0,0,0,0,5,4,0,0,1,5,9,15,0,0,0,0,1,0,0,0,0,0,16,24
naota344,4,6,0,0,0,1,0,0,2,0,2,15,1,3,1,2,0,0,0,0,0,0,0,0,0,0,1,2,11,29
KSUTO,0,1,2,0,0,2,0,0,0,0,0,0,0,0,0,0,0,3,9,3,0,0,8,0,0,0,0,0,19,9
mina_a_sakura,0,0,0,0,6,8,0,0,0,0,0,0,2,4,2,3,1,1,0,0,0,0,0,0,0,0,0,0,11,16
chi3mam_gntk,0,0,0,0,0,0,0,0,0,0,0,0,0,0,8,7,6,4,0,0,0,0,0,0,7,3,0,0,21,14
nogi_scarlet,1,1,0,0,0,5,2,0,0,1,0,0,2,7,0,0,0,0,0,0,0,0,1,4,0,0,3,1,9,19
sinku00,2,2,0,0,2,6,0,0,0,0,0,1,1,0,0,0,6,2,0,0,0,10,0,0,1,0,0,0,12,21
shin25nama,2,2,0,0,0,3,0,0,0,0,1,1,2,0,1,1,7,15,0,1,1,0,2,1,1,0,0,0,17,24
trader_hiro,0,0,5,5,0,0,2,1,0,0,6,2,4,4,1,3,7,6,0,0,2,6,3,1,0,0,4,1,34,29
kotkot_m,12,1,0,0,0,0,0,0,0,0,6,3,0,0,0,0,3,2,2,0,2,0,0,0,0,0,0,0,25,6
haruka626,0,0,0,0,0,0,0,0,0,0,7,1,0,0,5,5,0,1,0,0,0,0,1,0,5,5,0,0,18,12
takanori0301,0,0,6,8,0,0,0,1,4,7,0,0,0,0,1,1,0,0,0,0,0,0,0,0,1,0,0,0,12,17
oosakatakashi,0,0,0,0,0,0,0,0,2,0,0,0,0,2,0,0,2,5,1,14,0,0,0,3,0,0,0,0,5,24
sunmotu,0,3,0,0,2,0,0,0,0,0,1,2,3,4,4,8,0,0,0,0,0,0,1,4,0,1,0,0,11,22
straygh,1,0,0,0,13,32,0,0,0,0,8,3,0,0,0,0,7,7,0,0,0,0,0,0,6,9,0,0,35,51
exerock_X,0,1,0,3,0,0,3,9,0,1,3,10,1,16,2,9,2,11,0,0,0,1,1,10,1,5,0,0,13,76
zatto_,1,0,1,1,1,1,1,1,0,2,1,1,5,0,0,1,0,1,0,1,0,2,1,1,2,0,2,0,15,12
faktors_,0,0,0,0,1,1,0,0,0,0,1,0,0,2,0,0,0,0,0,0,0,0,0,0,28,0,0,0,30,3
k0110,0,0,1,0,0,2,0,0,0,0,0,0,0,2,15,16,1,2,0,0,0,2,1,1,4,10,0,0,22,35
sorato0801,0,3,8,1,0,1,0,0,4,0,0,0,0,1,0,0,0,0,6,1,0,0,0,1,0,0,2,0,20,8
madridista1111,0,0,0,3,1,1,0,0,0,0,0,0,1,1,2,2,2,4,0,1,0,0,0,1,1,9,2,0,9,22
HIRARU_TONOGI,0,1,0,0,3,1,0,0,0,0,3,3,0,0,1,5,4,2,1,4,0,0,0,0,0,0,0,0,12,16
Lava__,0,0,2,2,0,0,0,0,1,1,1,7,2,3,0,0,12,4,1,1,1,3,1,0,0,0,3,3,24,24
NaNa0117,0,0,0,0,0,0,0,0,0,0,4,0,0,0,10,6,6,1,0,0,0,0,0,0,1,0,0,0,21,7
harucoh,7,2,0,0,1,1,0,0,0,0,7,3,5,8,0,2,2,1,3,0,0,0,7,3,0,0,0,0,32,20
siryuma,4,15,0,0,0,0,0,0,0,0,0,0,0,0,0,0,0,0,0,0,0,0,14,17,0,0,0,0,18,32
Missinglayou,0,0,1,6,0,0,0,0,4,5,0,1,0,0,0,0,0,0,0,3,1,4,0,0,1,6,0,0,7,25
lktreygfs,0,0,17,0,4,0,0,0,0,0,0,0,4,1,0,0,0,0,0,0,0,0,0,0,0,0,0,0,25,1
d_ameda,2,4,0,1,1,7,0,0,0,5,0,11,0,7,0,0,0,6,0,0,0,0,0,2,0,0,0,0,3,43
k_tora,0,0,2,9,0,0,0,2,1,1,0,0,0,0,2,11,0,0,0,0,0,0,7,1,0,0,2,9,14,33
wlo7,0,0,0,0,0,0,0,0,1,2,0,11,0,0,1,0,0,0,1,1,0,0,0,0,0,0,1,9,4,23
mahxx22,4,1,0,0,14,5,0,0,0,0,0,0,4,5,8,4,11,9,0,1,0,0,1,1,1,4,0,0,43,30
yoshimura_akemi,1,0,7,2,2,3,3,4,1,0,3,3,0,3,14,8,3,0,0,0,0,0,0,0,0,0,0,0,34,23
fuiming15,0,0,2,0,4,2,0,0,2,1,0,1,2,3,4,1,4,1,0,0,0,0,0,1,0,0,3,0,21,10
haruna7bee,0,0,0,0,1,0,0,0,7,10,0,3,0,0,3,0,1,2,0,0,0,0,0,0,0,0,0,0,12,15
susakisan,1,3,1,2,0,0,0,0,0,0,1,2,0,3,0,1,1,6,0,2,0,7,0,0,0,5,0,0,4,31
e_mrsk,0,0,0,0,3,1,0,0,0,0,1,0,0,0,12,7,0,0,6,3,0,0,0,0,0,0,0,0,22,11
suwakoishi,0,0,0,0,4,2,0,0,0,0,0,1,7,7,8,8,1,5,0,0,0,0,0,1,0,1,0,0,20,25
daruma123,1,0,3,6,0,0,0,0,0,0,2,3,1,1,0,0,0,0,0,0,5,4,0,0,0,0,0,0,12,14
mi_karasuki,0,0,0,0,0,0,4,1,0,0,3,4,2,2,1,3,4,2,1,0,0,0,2,4,0,0,0,2,17,18
rrto,3,2,0,0,0,0,0,0,0,0,6,4,0,0,0,0,0,0,0,0,10,11,0,0,3,3,0,0,22,20
choir_tempest,3,2,2,2,0,0,5,6,0,1,0,0,0,0,2,3,0,0,1,7,0,0,0,0,0,0,1,1,14,22
noziken,0,2,2,2,5,1,0,0,0,1,3,5,1,10,3,1,0,1,1,11,0,0,1,0,1,4,0,0,17,38
orz0x0,5,1,0,0,2,1,0,0,0,0,0,0,4,2,0,0,1,2,0,0,2,3,4,1,3,4,0,0,21,14
aya_rice123,0,0,1,1,3,1,12,11,1,1,0,0,0,0,7,1,0,0,0,1,2,2,0,0,1,4,1,0,28,22
genpi215,0,0,0,0,3,0,0,0,0,0,0,1,4,3,7,3,0,0,0,0,0,0,6,0,6,1,0,0,26,8
noritama1226,0,0,2,1,0,2,2,1,3,1,0,0,0,3,1,2,2,8,1,2,0,0,3,0,0,0,0,0,14,20
hamuyan0423,0,0,1,0,0,1,1,0,0,0,6,13,3,2,0,3,0,0,0,0,1,1,0,0,0,0,3,1,15,21
sai3r1h,11,2,0,0,6,1,0,0,0,0,0,0,10,2,0,0,0,0,0,0,0,0,0,0,0,0,0,0,27,5
te_hen3,5,1,0,0,6,4,1,4,0,0,0,0,1,4,0,0,0,0,0,0,1,0,0,0,0,0,0,0,14,13
