﻿day,00:00:00,01:00:00,02:00:00,03:00:00,04:00:00,05:00:00,06:00:00,07:00:00,08:00:00,09:00:00,10:00:00,11:00:00,12:00:00,13:00:00,14:00:00,15:00:00,16:00:00,17:00:00,18:00:00,19:00:00,20:00:00,21:00:00,22:00:00,23:00:00
20110309,,,,,,,,,,,,,,,,,,,,,,,,
20110310,,,,,,,,,,,,,,,,,,,,,1,1,1,
20110311,,,,,,1,2,3,,,,1,,1,,24,63,92,71,208,145,98,65,45
20110312,73,124,173,229,90,32,1059,621,157,190,102,147,338,200,2695,2658,889,4738,6013,1618,646,285,100,104
20110313,109,2383,1305,680,276,742,632,337,343,301,901,507,307,170,110,262,77,686,85,138,165,137,51,805
20110314,312,96,190,106,40,48,52,31,32,145,78,5340,1085,482,613,1217,856,510,229,179,1868,898,638,346
20110315,209,101,59,56,30,48,44,67,2674,1613,539,585,314,174,130,364,1477,398,314,237,356,237,202,898
20110316,1516,676,605,746,478,402,384,524,756,620,561,1180,1830,618,661,398,285,344,427,373,275,597,650,660
20110317,436,226,339,94,57,64,136,145,171,418,714,382,458,318,205,218,102,56,135,467,1361,1147,381,404
20110318,263,125,75,52,28,46,57,95,163,468,865,297,161,125,60,104,119,137,1169,896,341,479,280,397
20110319,227,326,99,75,58,53,110,177,147,203,387,1002,328,320,369,263,167,357,631,454,161,279,413,696
20110320,1550,485,186,93,79,98,125,214,231,190,200,209,650,783,491,342,239,245,164,405,438,243,167,133
20110321,296,108,295,752,264,116,198,228,257,241,229,245,567,536,383,326,287,901,631,704,295,394,409,429
20110322,253,156,117,96,69,42,79,112,123,171,348,307,143,90,80,315,197,241,182,184,164,345,329,200
20110323,153,69,119,177,90,49,80,91,144,110,472,266,184,124,156,224,208,488,225,142,124,220,347,193
20110324,158,100,56,44,33,32,64,81,132,142,244,202,125,88,101,501,350,213,207,254,281,489,385,484
20110325,324,222,179,179,59,71,89,197,197,303,357,598,929,507,487,527,397,215,257,339,221,329,394,300
20110326,212,152,121,81,31,59,71,87,132,111,413,384,268,262,231,372,231,243,223,249,249,284,405,293
20110327,247,185,127,81,62,52,118,194,253,213,277,655,2186,1226,758,462,342,298,242,562,398,317,292,275
20110328,211,177,183,52,34,63,107,223,359,303,460,489,373,252,208,226,237,165,542,314,224,238,322,340
20110329,405,559,358,155,85,86,193,311,401,294,507,361,317,251,160,175,136,223,258,217,139,181,320,197
20110330,137,90,54,46,30,47,58,117,167,158,182,403,244,206,235,148,206,323,306,344,289,408,367,537
20110331,480,207,94,49,22,56,129,124,157,214,206,640,378,260,192,132,152,205,166,568,362,322,450,282
20110401,236,109,50,42,35,41,70,171,152,152,228,367,323,286,245,159,91,87,211,297,172,123,113,80
20110402,45,57,45,14,36,27,60,73,70,67,65,108,73,75,78,173,90,143,69,77,89,56,44,86
