﻿day,00:00:00,01:00:00,02:00:00,03:00:00,04:00:00,05:00:00,06:00:00,07:00:00,08:00:00,09:00:00,10:00:00,11:00:00,12:00:00,13:00:00,14:00:00,15:00:00,16:00:00,17:00:00,18:00:00,19:00:00,20:00:00,21:00:00,22:00:00,23:00:00
20110309,4,1,1,,,,,2,5,1,5,1,3,3,,1,1,6,2,3,3,4,7,6
20110310,7,1,2,1,5,1,7,8,12,13,12,17,17,14,10,14,18,14,21,29,24,39,46,77
20110311,181,119,71,42,48,40,78,86,125,156,161,170,192,134,121,575,1453,1122,2933,1556,998,1249,2251,2789
20110312,4080,1848,689,915,518,638,592,921,1583,2105,2592,2356,2176,3077,2893,2203,1377,2591,4901,3835,4991,5090,3853,4378
20110313,3220,1831,914,654,448,453,544,1013,1561,2145,2635,2838,2438,2057,1706,2183,1833,2697,1641,3039,4735,3147,3023,3887
20110314,4063,2376,1583,1107,546,633,1177,1544,2014,2572,3639,4471,4384,2649,2186,1724,1962,2313,2455,2538,3505,5314,4730,4144
20110315,3000,1842,1222,692,446,1150,1256,1754,2448,3280,3174,3495,3657,2979,2957,2661,2509,2470,2195,3752,5561,4155,3200,5613
20110316,3783,4429,1897,1094,925,918,1255,2081,3171,3326,3441,3227,4189,3599,2993,4849,3372,3576,5382,4228,4095,4795,4709,5040
20110317,4504,2478,1735,1283,846,892,1173,2509,3348,4400,4211,4261,4488,4858,3529,3587,4369,3330,2699,3869,3409,3376,3710,3140
20110318,1821,1446,986,614,458,541,772,1946,3113,3308,2982,3443,4442,2847,2846,2469,2466,2587,2515,2211,2525,2509,2854,2133
20110319,2146,1306,999,589,506,541,834,1485,2097,2139,2321,2637,2522,1993,2083,1886,2121,2291,1845,1795,2496,2895,2387,2183
20110320,1764,1151,819,483,340,531,617,747,1152,1630,1682,2346,1901,1741,1540,1627,1472,1381,1445,1526,2085,2267,2047,1368
20110321,1282,785,577,407,302,276,591,687,1228,1417,1487,1529,1708,2461,2179,1697,1839,1834,3290,2529,2113,2120,2454,3353
20110322,2382,1144,798,505,450,426,725,1177,1360,1389,1674,1359,1480,1568,1645,1681,1207,1157,1406,1444,1566,1745,1969,1707
20110323,1133,682,752,430,371,357,533,846,1171,1189,1205,1117,1351,1236,1114,1241,1479,2028,2606,1902,1784,2119,1878,1813
20110324,1444,894,593,505,316,353,663,843,1128,1172,1003,1246,1406,985,803,857,847,912,1199,1172,1496,1439,1289,1140
20110325,796,552,356,246,174,223,448,609,800,1023,894,996,1280,1200,1332,1235,1152,1607,1326,1458,1686,1387,1446,1759
20110326,1299,814,910,536,242,285,405,546,947,1062,1275,1147,1004,1712,1035,825,845,864,789,768,939,1133,1198,1125
20110327,1130,879,503,278,230,242,327,550,894,952,1394,1484,1738,2596,1529,1475,1153,1043,1867,1634,2040,2085,2358,2161
20110328,1545,1332,654,432,267,350,774,1198,1414,1722,1123,1248,1311,1094,1307,1440,1164,1492,1388,1286,1787,1900,1865,2211
20110329,2498,1677,924,611,370,413,803,1161,1623,1774,1719,1644,1821,1449,1482,1497,1114,1187,1162,1667,1291,1566,1872,1878
20110330,1667,1023,614,400,292,316,522,1128,1535,1390,1300,1361,1975,1388,969,942,983,1302,1226,1166,1390,1451,1217,1332
20110331,1178,841,515,269,118,254,440,733,1332,1466,1363,1823,1783,1575,1440,1109,1222,1193,1038,985,1028,1453,1638,1591
20110401,1499,674,432,436,331,278,452,758,1094,1439,1324,1017,1300,996,727,716,745,993,1306,885,732,743,656,998
20110402,661,524,350,192,160,204,241,381,457,556,673,633,544,439,639,434,443,487,422,449,793,556,528,473
