﻿day,00:00:00,01:00:00,02:00:00,03:00:00,04:00:00,05:00:00,06:00:00,07:00:00,08:00:00,09:00:00,10:00:00,11:00:00,12:00:00,13:00:00,14:00:00,15:00:00,16:00:00,17:00:00,18:00:00,19:00:00,20:00:00,21:00:00,22:00:00,23:00:00
20110309,,,,,,,,,,1,,,,2,,1,1,1,1,,2,,1,
20110310,,2,1,,,,,2,3,1,2,,1,2,,1,2,3,3,4,1,11,8,10
20110311,35,27,17,9,8,26,19,21,22,33,36,22,54,38,128,14086,11796,7252,4678,2560,2426,2925,3320,3513
20110312,4037,3247,2419,1368,1148,1147,1170,2045,2275,2336,1933,2439,3712,3376,2069,2800,5520,5620,2319,2568,2155,1541,1383,1089
20110313,1481,815,387,200,152,142,234,437,521,676,652,1155,1013,889,1029,726,826,1114,757,999,1080,616,1447,919
20110314,1017,645,342,161,87,145,197,284,820,589,617,2662,1163,646,686,628,737,620,853,841,1149,1805,2081,1604
20110315,1207,610,328,140,109,200,187,442,490,399,562,665,1141,855,959,1644,1540,1356,1495,1317,1428,1603,1049,2815
20110316,2055,1238,304,165,131,102,273,578,819,449,966,1300,1216,999,930,970,849,816,726,1074,917,1532,1112,1442
20110317,1139,475,282,137,79,100,125,279,515,529,883,696,1061,787,649,739,594,551,519,2210,2638,3122,1929,1273
20110318,903,794,508,428,197,339,562,837,875,1214,1734,1481,1261,1107,975,666,578,656,854,898,772,717,624,798
20110319,1483,1248,371,189,199,130,233,241,385,680,716,673,846,808,1429,792,699,739,692,1000,1287,1937,2438,5118
20110320,8080,3710,1434,595,426,577,706,1852,2100,2028,2158,2378,2495,1474,1136,790,727,1141,838,772,766,1054,1103,873
20110321,689,332,251,149,133,172,159,314,572,665,559,646,702,608,770,673,818,1081,2387,2488,2740,3014,2897,1981
20110322,1130,582,399,289,179,176,326,380,647,541,702,701,736,704,496,671,1394,870,1164,616,706,633,687,727
20110323,366,189,98,79,72,70,80,224,218,224,259,257,300,248,280,270,237,423,391,338,306,355,398,366
20110324,283,162,84,59,42,43,95,123,143,223,232,251,502,367,225,241,215,286,323,249,402,487,509,291
20110325,278,152,88,73,39,40,68,101,173,163,200,125,187,196,277,332,308,266,197,218,281,195,261,217
20110326,184,87,88,43,19,20,45,93,63,127,116,146,348,322,191,176,165,131,151,139,189,413,256,159
20110327,141,95,68,44,29,27,57,71,82,111,158,190,144,151,138,105,199,244,448,301,255,554,279,249
20110328,191,148,66,61,27,19,48,100,121,130,118,171,153,98,76,106,70,116,112,117,145,244,255,468
20110329,253,111,67,29,25,29,66,78,66,118,88,121,223,180,207,367,717,456,532,473,441,500,524,400
20110330,259,113,69,43,30,43,56,84,200,311,259,213,281,283,191,178,151,196,175,544,209,253,280,238
20110331,219,118,52,39,14,31,41,95,91,126,92,84,297,158,133,374,394,295,305,295,293,208,243,213
20110401,141,84,75,34,33,64,57,89,114,124,141,111,126,121,212,133,80,176,134,169,143,249,260,221
20110402,182,93,57,47,15,26,35,25,49,58,105,137,112,176,114,101,98,99,121,89,101,105,70,137
