﻿day,00:00:00,01:00:00,02:00:00,03:00:00,04:00:00,05:00:00,06:00:00,07:00:00,08:00:00,09:00:00,10:00:00,11:00:00,12:00:00,13:00:00,14:00:00,15:00:00,16:00:00,17:00:00,18:00:00,19:00:00,20:00:00,21:00:00,22:00:00,23:00:00
20110309,,1,,,,,,1,2,1,,,,2,3,2,,1,1,3,1,2,3,5
20110310,1,2,2,,,,1,3,,,3,2,6,6,2,1,3,6,9,5,9,7,9,28
20110311,56,38,25,9,10,8,15,20,25,32,39,33,33,40,51,212,675,342,240,172,169,171,159,135
20110312,180,89,58,48,100,88,100,135,153,103,98,161,86,79,169,281,133,157,144,236,568,298,267,586
20110313,251,97,123,69,73,56,71,94,80,143,257,302,178,133,142,181,375,152,324,243,549,496,288,264
20110314,87,63,51,17,47,27,32,42,57,43,457,441,424,567,504,408,576,969,1212,573,464,391,393,450
20110315,312,159,81,34,30,53,71,118,109,121,96,94,167,140,98,131,188,171,287,221,195,217,800,1116
20110316,341,162,69,42,26,19,32,39,65,58,162,81,137,97,152,123,191,117,109,200,123,119,120,158
20110317,100,74,23,28,11,22,33,55,74,106,147,112,140,89,82,96,80,69,98,150,102,275,127,113
20110318,97,80,37,19,19,16,40,54,66,71,167,170,328,241,799,437,246,206,260,269,290,470,257,190
20110319,173,148,101,58,37,27,44,107,113,147,176,174,156,111,132,113,115,95,79,124,90,100,96,131
20110320,110,79,77,66,28,16,25,43,102,99,84,135,103,147,149,132,139,150,114,107,108,171,168,97
20110321,113,71,44,21,20,16,27,43,85,91,102,190,133,121,123,134,199,248,232,170,150,147,103,119
20110322,105,92,32,41,26,19,33,33,46,50,97,110,160,135,99,66,84,122,125,108,173,129,143,130
20110323,96,61,62,43,9,21,26,49,62,71,84,76,93,65,71,75,78,82,93,103,136,89,74,96
20110324,138,76,34,14,20,33,24,39,53,49,56,68,111,77,57,83,81,68,71,72,101,96,119,158
20110325,103,72,44,24,19,15,20,34,66,70,75,75,183,105,90,86,65,99,126,113,100,137,125,106
20110326,170,71,27,21,13,20,29,43,46,58,86,106,71,85,84,77,86,74,63,114,70,89,87,84
20110327,97,62,20,21,15,9,32,34,100,60,47,82,319,295,214,197,210,272,580,661,540,397,271,211
20110328,182,98,76,82,34,64,51,81,102,99,98,148,179,132,155,150,131,98,98,152,99,128,258,117
20110329,132,88,38,26,10,21,16,35,49,68,73,69,103,68,73,72,61,88,248,399,161,137,166,136
20110330,131,78,41,32,24,16,81,103,127,92,212,164,1630,1317,863,909,601,748,520,423,646,938,552,458
20110331,363,442,241,120,40,92,272,430,422,455,501,527,578,428,388,409,279,395,216,277,403,379,337,289
20110401,213,130,241,100,40,58,57,122,255,209,218,165,207,189,128,106,94,125,188,195,161,168,254,183
20110402,153,96,96,59,36,24,28,52,48,72,81,107,251,228,124,69,60,50,79,57,63,89,101,75
