day,00:00:00,01:00:00,02:00:00,03:00:00,04:00:00,05:00:00,06:00:00,07:00:00,08:00:00,09:00:00,10:00:00,11:00:00,12:00:00,13:00:00,14:00:00,15:00:00,16:00:00,17:00:00,18:00:00,19:00:00,20:00:00,21:00:00,22:00:00,23:00:00
20110309,,,,,,,,,,,,,,,,,,,,,,,,
20110310,,,,,,,,,,,,,,,,,,,1,,,,,2
20110311,,2,,,,,,1,1,1,,2,,,9,150,587,340,4779,2835,4854,5972,3997,1989
20110312,995,741,1681,553,534,435,707,2151,3894,4268,6991,6964,6299,8114,7148,5575,9333,15326,6519,4814,4814,6869,3833,5766
20110313,4054,3224,3135,1101,515,599,882,1599,1508,1576,2141,1819,1950,2040,1745,2320,1905,2280,1539,2379,12054,18706,25465,15635
20110314,10556,6467,3194,2010,1599,1831,6886,5730,4264,6471,4466,4029,5641,4830,3286,8272,6197,9393,4838,5461,10086,10242,8103,6076
20110315,8351,2888,1396,831,775,1154,1994,1887,5361,5728,3803,3588,5669,5727,3371,3586,3111,2375,2698,3752,2958,3147,6605,4849
20110316,3220,2161,821,443,368,413,1157,1471,1953,1760,2565,1956,2623,1872,1749,2602,2580,2679,2114,1962,1983,2221,1980,1203
20110317,1454,1278,810,314,194,242,343,808,1206,1882,1770,1317,1814,2349,1648,2090,5229,3060,1848,1864,8897,6133,8281,5590
20110318,3615,1587,705,343,307,385,810,1123,1228,1434,1644,1242,1938,1985,1483,1379,1566,1477,2620,2400,1993,1294,1940,1430
20110319,1002,883,496,242,278,258,339,431,619,793,807,834,846,721,544,546,636,659,1513,1652,917,966,814,825
20110320,1332,479,363,252,149,145,291,419,514,741,703,849,846,478,514,780,935,1126,1382,1446,1056,817,1394,902
20110321,1200,711,399,228,156,131,180,405,481,779,826,1532,1399,883,612,734,970,1550,1627,1914,1287,1402,1315,887
20110322,692,562,729,469,154,387,673,1044,1320,1657,1979,2154,2304,1792,1062,1442,1340,1252,1043,2521,2481,1852,1362,2427
20110323,1517,831,420,232,216,227,478,631,631,676,908,856,1136,927,771,689,1132,957,1175,921,834,783,887,1222
20110324,827,673,554,204,188,174,286,392,464,754,708,1012,1036,917,733,717,946,891,1215,959,800,1080,1092,780
20110325,583,410,290,245,316,181,319,548,914,962,837,1057,1747,1366,1188,1112,899,949,1386,1336,875,882,1254,820
20110326,757,421,350,411,106,229,273,547,683,858,919,1051,766,832,792,858,1118,1163,1054,828,840,757,696,606
20110327,478,486,247,171,117,120,275,452,499,548,787,665,1628,1895,916,659,593,1092,1156,1026,951,982,826,911
20110328,958,584,322,201,127,135,395,701,795,794,554,727,982,594,447,543,546,884,1182,1014,904,891,855,1399
20110329,3540,931,506,342,272,241,351,497,646,741,699,705,792,982,595,626,600,614,772,529,537,509,625,985
20110330,981,610,188,209,122,131,315,435,596,463,674,713,1963,1411,937,1769,1432,1314,1037,1356,1124,1096,893,1145
20110331,861,743,399,180,97,184,292,507,565,710,923,1178,1442,837,538,538,493,583,1013,805,730,977,806,752
20110401,1480,680,381,309,178,171,244,409,732,618,563,985,807,625,560,407,458,424,539,520,374,293,410,316
20110402,367,204,77,84,69,48,53,114,111,109,138,170,170,195,147,506,257,260,308,351,323,226,252,298
