day,00:00:00,01:00:00,02:00:00,03:00:00,04:00:00,05:00:00,06:00:00,07:00:00,08:00:00,09:00:00,10:00:00,11:00:00,12:00:00,13:00:00,14:00:00,15:00:00,16:00:00,17:00:00,18:00:00,19:00:00,20:00:00,21:00:00,22:00:00,23:00:00
20110309,,,,,,,,,,,,,,,,,,,,,,,,1
20110310,1,,,,,,,,,,,,,,,,2,1,,,,,,
20110311,1,,,,,,,,,,,1,2,1,2,91,106,84,431,154,504,964,955,382
20110312,163,187,335,367,256,145,100,487,803,2248,3056,3232,3554,2926,2908,3857,3203,3046,2409,1601,2282,4706,2397,1181
20110313,636,737,434,239,133,165,175,382,552,549,737,745,1031,1371,796,772,707,882,916,791,4645,11449,16375,11783
20110314,7771,5113,2592,1483,979,995,2457,3809,3821,6106,7054,4394,8316,5652,4847,8908,8219,10170,8380,10313,14821,17086,17748,17534
20110315,16502,7033,3131,1733,1946,3089,3752,4732,13037,13957,10445,9897,10644,7268,7093,7250,5659,5063,8494,7165,7810,9097,6330,5442
20110316,5371,4043,1661,1198,978,1132,2107,3655,4407,4238,6313,5578,6276,3849,5259,6180,5926,6486,5027,4574,6453,6237,5117,4619
20110317,4326,2585,2170,918,491,537,781,1668,2152,2599,2746,2803,2911,2148,1628,2912,2678,2391,2203,3069,5753,5245,4549,4165
20110318,3866,1979,1423,1146,721,780,1769,2233,2539,2693,3120,2388,2915,2657,2043,2591,3024,2380,2366,2883,2781,2984,3195,2949
20110319,2301,1675,836,595,489,675,739,1034,1207,1552,2136,2235,2012,1601,1263,1321,1713,1549,1581,2040,1405,1489,1662,1892
20110320,2499,1443,886,405,314,386,532,830,1012,1533,1444,1933,1764,1471,1283,1329,1525,2139,1963,2279,2082,2495,2092,1833
20110321,1553,987,662,431,268,260,484,668,936,1013,1225,1567,1591,1883,1689,1291,1940,1839,2704,2728,2869,2220,2273,2142
20110322,1399,1027,1354,1030,588,620,1083,1262,1559,1712,2119,2451,2180,2246,1879,1996,1959,1992,1540,1954,2923,2664,2923,2432
20110323,1580,1013,698,531,488,375,523,796,1498,1255,1406,1274,1730,1385,1174,1261,1302,1527,1408,1531,1364,1569,1786,1921
20110324,1607,1192,1027,439,341,353,678,792,1224,1279,1348,1294,1560,1206,1061,1575,1696,1481,1403,1745,2201,2192,2122,2094
20110325,1502,862,495,370,452,390,517,915,1281,1576,2012,1992,2290,2197,2122,1843,1954,2314,2326,2124,1933,1911,2925,2711
20110326,1957,1518,1004,2796,515,457,571,710,1050,1414,1728,2106,2125,2712,2182,1708,1710,2187,2418,2149,2953,3415,2722,2858
20110327,2296,1762,986,688,580,585,793,1206,1451,2232,2227,2321,4436,4862,3066,2199,2030,3173,3010,2735,2927,3232,3140,3667
20110328,3109,2119,1073,702,418,579,895,1243,2194,2223,1753,2241,2450,1893,1569,1367,1673,2077,2201,2708,3059,3252,2773,3553
20110329,8376,4436,2164,986,823,721,1217,2030,2738,2563,2746,2659,3768,2646,1945,2264,2021,1938,2092,2173,1909,2104,2295,2344
20110330,2350,1842,742,563,412,451,1073,1658,2221,2089,2054,2164,4733,3460,2622,4634,6797,4918,3844,4141,3640,4142,4937,4425
20110331,2802,2087,979,576,325,458,1032,1444,1879,2274,2249,2302,2944,2576,1870,1549,1607,1479,2207,2036,2118,2463,2292,2114
20110401,2024,1216,997,496,348,346,595,957,1674,1537,1513,1551,2015,2085,1264,1478,1180,1327,1198,1032,1081,924,969,1132
20110402,1151,645,340,246,305,213,246,370,443,787,801,757,807,696,753,1084,706,1084,886,1092,1273,1166,1131,1251
