2011-03-17 20:28:48,東京電力 の 公式 アカウント です 。 今日 は 電力 需要 が かなり 多かっ た の です が 、 皆さま の ご 協力 で なんとか 乗り切る こと が でき まし た 。 ありがとう ござい まし た 。 明日 から も よろしく お願い いたし ます 。 計画 停電 について は こちら 。 http :// www . tepco . co . jp / index - j . html
2011-03-17 20:09:09,東京電力 の 公式 アカウント です 。 今日 は 電力 需要 が かなり 多かっ た の です が 、 皆さま の ご 協力 で なんとか 乗り切る こと が でき まし た 。 ありがとう ござい まし た 。 明日 から も よろしく お願い いたし ます 。 計画 停電 について は こちら 。
2011-03-18 13:07:35,■■ 計画 停電 第 ３ グループ ■ ■ ３月 １ ８ 日 今朝 から 第 １ ・ 第 ２ グループ の 計画 停電 を 実施 し まし た 。 寒 さ 厳しい 中 、 多く の 皆さま に ご 迷惑 を おかけ し た こと を 深く お詫び いたし ます 。 引き続き １ ２ 時 ２ ０ 分 頃 から 第 ３ グループ の 停電 を 実施 し て おり ます 。 大変 申し訳 あり ませ ん が 、 よろしく お願い いたし ます 。
2011-03-18 19:18:47,■■ 計画 停電 ■ ■ ３月 １ ８ 日 第 ４ グループ の 計画 停電 を 実施 し まし た 。 多く の 皆さま に ご 迷惑 を おかけ し て おり ます 。 現在 、 第 ５ グループ を 実施 中 です 。 本日 最後 と なり ます 。 皆様 ご 協力 よろしく お願い いたし ます 。 なお 、 明日 は 、 計画 停電 を 実施 いたし ませ ん 。
2011-03-18 22:05:14,■■ 計画 停電 ■ ■ ３月 １ ８ 日 第 ５ グループ の 計画 停電 が 終了 いたし まし た 。 寒い 中 、 計画 停電 に ご 協力 いただい た 皆さま 、 節電 に ご 協力 し て くださっ た 皆さま 、 ありがとう ござい まし た 。 なお 、 明日 は 計画 停電 を 実施 いたし ませ ん 。
2011-03-18 13:21:56,■■ 計画 停電 ■ ■ ３月 １ ８ 日 の 午後 に 予定 し て い た 第 １ グループ （ １ ３ 時 ５ ０ 分 ～） ・ 第 ２ グループ （ １ ６ 時 ５ ０ 分 ～） の ２ 回 目 の 計画 停電 は 実施 を 見送り まし た 。 節電 の ご 協力 に 心から 感謝 いたし ます 。 なお 、 本日 の 第 ３ グループ （ 実施 中 ） 、 第 ４ グループ 、 第 ５ グループ は 予定 通り 実施 いたし ます 。
2011-03-18 16:03:20,■■ 計画 停電 ■ ■ ３月 １ ８ 日 第 ３ グループ の 計画 停電 を 実施 し まし た 。 寒 さ 厳しい 中 、 多く の 皆さま に ご 迷惑 を おかけ し た こと を 深く お詫び いたし ます 。 なお 、 本日 の 第 ４ グループ （ 実施 中 ） 、 第 ５ グループ は 予定 通り 実施 いたし ます 。
2011-03-19 19:26:15,３月 19 日 午後 ６ 時 56 分 頃 、 茨城 県 北部 を 震源 地 と する 地震 が 発生 いたし まし た が 、 現在 の ところ 、 この 地震 による 当社 の 原子力 発電 所 を 含む 主 な 電力 設備 へ の 影響 は 確認 さ れ て おら ず 、 当社 サービス エリア 内 で の 停電 も 確認 さ れ て おり ませ ん 。
2011-03-19 18:37:09,■■ 計画 停電 ■ ■ 皆さま 、 節電 に ご 協力 いただき 、 ありがとう ござい ます 。 明日 （ 20 日 ） は 計画 停電 を 実施 いたし ませ ん が 、 引き続き ご 理解 と ご 協力 よろしく お願い いたし ます 。
2011-03-20 17:57:49,申し訳 あり ませ ん 。 再送 いたし ます 。 ３月 ２ １ 日 の 計画 停電 は 、 朝 から の 第 ４ 、 第 ５ 、 第 １ Ｇ の 実施 を 見送り ます 。 第 ２ 、 第 ３ Ｇ について は 午前 中 の 電力 需要 を 見極め て 決定 し ます 。 ２ 回 目 と なる 第 ４ 、 第 ５ Ｇ も 実施 し ませ ん 。 ご 迷惑 を おかけいたし ます が 、 よろしく お願い いたし ます 。
2011-03-21 19:20:23,■■ 計画 停電 ■ ■ 住所 から 計画 停電 の グループ を 検索 する システム を 当社 ＨＰ に 作成 し まし た ので 、 ご 利用 下さい 。
2011-03-21 11:23:34,■■ 計画 停電 （ 速報 ） ■ ■ 本日 （ ３月 21 日 ） の 第 ２ 、 第 ３ グループ の 計画 停電 も 実施 し ない こと と なり まし た 。 これ により 、 本日 の 計画 停電 は 行い ませ ん 。 皆さま の 節電 へ の ご 協力 に 感謝 いたし ます 。
2011-03-21 18:51:32,■■ 計画 停電 （ 速報 ） ■ ■ 明日 ３月 ２ ２ 日 の 最初 の 第 ５ グループ の 計画 停電 は 実施 いたし ませ ん が 、 第 １ 、 第 ２ 、 第 ３ 、 第 ４ グループ は 実施 いたし ます 。 その 日 の ２ 回 目 の 第 ５ 、 第 １ グループ の 実施 は 明日 の 電力 需要 を 見極め て 判断 いたし ます 。 何とぞ ご 理解 いただき ます よう お願い いたし ます 。
2011-03-21 21:12:48,■■ 計画 停電 ■ ■ 明日 ３月 22 日 朝 ９ 時 より 、 お客 さま から の 計画 停電 に関する お 問い合わせ を 受け付ける 「 計画 停電 ご 案内 専用 ダイヤル 」 を 開設 し ます 。 番号 は 0120 - 925 - 433 （ 土日 祝日 も 含め ２ ４ 時間 対応 ） 。 携帯 電話 ・ ＰＨＳ から も ご 利用 いただけ ます 。 よろしく お願い いたし ます
2011-03-22 09:02:33,■■ 電力 使用 状況 グラフ ■ ■ 本日 （ ２ ２ 日 ） から 、 ホームページ で １ 時間 ごと の 電力 の 使用 実績 など を お知らせ する 「 電力 の 使用 状況 グラフ 」 の 掲載 を 始め まし た 。 ぜひ ご覧 ください 。 また 、 寒 さ が 厳しく 、 大変 申し訳 ござい ませ ん が 、 引き続き 、 節電 および 計画 停電 へ の ご 協力 を お願い いたし ます 。
2011-03-22 09:20:15,■ 電力 使用 状況 グラフ ■ （ URL を 付け て 再送 ） 本日 ３月 ２ ２ 日 より 「 電力 の 使用 状況 グラフ 」 を HP 上 で 開始 し まし た 。 ご覧 下さい 。 節電 ・ 計画 停電 へ ご 協力 を お願い し ます 。
2011-03-22 09:32:44,■ 電力 使用 状況 グラフ ■ （ URL 再送 ） 本日 ３月 ２ ２ 日 より HP 上 で １ 時間 毎 の 使用 実績 を お知らせ する 「 電力 の 使用 状況 グラフ 」 を 始め まし た 。 ご覧 ください 。 節電 ・ 計画 停電 へ の ご 協力 を お願い いたし ます 。 http :// www . tepco . co . jp / forecast / index - j . html
2011-03-22 09:55:28,■■ 計画 停電 ■ ■ ３月 ２ ２ 日 ９ 時 ２ ０ 分 から 第 １ Ｇ の 計画 停電 を 実施 し て い ます 。 ご 迷惑 を おかけ し て 、 誠に 申し訳 ござい ませ ん 。 供給 力 が 大変 厳しく なっ て い ます 。 皆さま に は 一層 の 節電 の ご 協力 、 よろしく お願い し ます 。
2011-03-22 11:20:59,■■ 計画 停電 ■ ■ 本日 （ ３月 ２ ２ 日 ） 午後 に 予定 の 第 ５ Ｇ と 第 １ Ｇ の 本日 ２ 回 目 の 停電 は 実施 いたし ませ ん 。 第 ２ Ｇ 、 第 ３ Ｇ 、 第 ４ Ｇ について は 実施 いたし ます 。 ご 迷惑 を おかけ し て 申し訳 あり ませ ん 。
2011-03-22 13:10:28,■■ 計画 停電 ■ ■ 本日 （ 3 月 22 日 ） 午前 9 時 20 分 より 実施 し て い た 第 1 グループ の 計画 停電 が 終了 いたし まし た 。 ご 協力 ありがとう ござい まし た 。 現在 、 第 2 グループ の 計画 停電 を 実施 中 です 。 ご 迷惑 を おかけ し ます が 、 よろしく お願い いたし ます 。
2011-03-22 18:55:42,■■ 計画 停電 ■ ■ 明日 ３月 ２ ３ 日 の １ 回 目 の 第 １ ・ 第 ２ Ｇ は 実施 し ませ ん 。 午後 の 第 ４ ・ 第 ５ Ｇ は 実施 いたし ます 。 ご 理解 を お願い いたし ます 。 第 ３ Ｇ と 、 ２ 回 目 の 第 １ ・ ２ Ｇ は 今後 の 需給 状況 を 見極め て 開始 ２ 時間 前 まで に お知らせ いたし ます 。 大変 複雑 で 申し訳 あり ませ ん 。
2011-03-22 22:16:48,■■ 計画 停電 ■ ■ 先 ほど 本日 最後 と なる 第 ４ グループ の 計画 停電 が 終了 し まし た 。 本日 も 、 皆さま に ご 協力 いただき ありがとう ござい ます 。 明日 の 計画 停電 の スケジュール も 、 随時 、 お知らせ し て まいり たい と 思い ます 。
2011-03-23 10:05:16,■■ 計画 停電 ■ ■ おはよう ござい ます 。 本日 の 第 ３ グループ （ 12 : 20 ～ 16 : 00 ） 、 第 １ グループ （ 13 : 50 ～ 17 : 30 ） の 計画 停電 は 実施 いたし ませ ん 。 第 ２ グループ （ 16 : 50 ～ 20 : 30 ） について は 、 2 時間 前 を 目途 に お知らせ し ます 。 本日 も ご 協力 の ほど 、 よろしく お願い いたし ます 。
2011-03-23 15:16:00,■■ 計画 停電 ■ ■ まもなく 、 第 ４ Ｇ の 計画 停電 が スタート し ます 。 15 : 20 ～ 19 : 00 の 間 に ３ 時間 程度 を 予定 し て おり ます 。 ご 不便 を おかけ し ます が 、 よろしく お願い いたし ます 。 それ 以外 の 皆さま も 、 引き続き 節電 へ の ご 協力 を お願い いたし ます 。
2011-03-23 19:13:51,３月 ２ ３ 日 １ ８ 時 ５ ５ 分 頃 、 福島 県 浜 通り を 震源 地 と し た 震度 ５ 強 の 地震 が 発生 し まし た 。 この 地震 による 当社 の 原子力 発電 所 を 含む 主 な 電力 設備 へ の 影響 は 確認 さ れ て おら ず 、 当社 サービス エリア 内 で の 停電 も 確認 さ れ て おり ませ ん 。
2011-03-23 07:47:49,３月 23 日 午前 ７ 時 12 分 、 および ７ 時 34 分 頃 、 東北 地方 を 中心 と する 地震 が 発生 いたし まし た が 、 現在 の ところ 、 この 地震 による 当社 の 原子力 発電 所 を 含む 主 な 電力 設備 へ の 影響 は 確認 さ れ て おら ず 、 当社 サービス エリア 内 で の 停電 も 確認 さ れ て おり ませ ん 。
2011-03-23 12:27:33,■■ 計画 停電 ■ ■ 本日 の 第 ２ Ｇ （ 16 : 50 ～ 20 : 30 ） の 計画 停電 は 実施 し ない こと と なり まし た 。 なお 、 第 ４ Ｇ （ 15 : 20 ～ 19 : 00 ） 、 第 ５ Ｇ （ 18 : 20 ～ 22 : 00 ） は 、 昨日 お知らせ し た とおり 、 計画 停電 を 実施 いたし ます 。 ご 迷惑 を おかけ し ます が 、 ご 協力 の ほど お願い いたし ます 。
2011-03-23 18:35:40,■■ 計画 停電 ■ ■ 計画 停電 へ の ご 協力 、 誠に ありがとう ござい ます 。 明日 （ ３月 ２ ４ 日 ） は 、 第 ２ ～ ４ Ｇ まで の 計画 停電 は 実施 し ませ ん 。 第 ５ Ｇ （ １ ５ ： ２ ０ ～） 第 １ Ｇ （ １ ８ ： ２ ０ ～） は 当日 の 需給 状況 を み て 、 それぞれ の 計画 停電 開始 時間 の ２ 時間 前 まで に お知らせ し ます 。
2011-03-24 20:41:20,■■ 計画 停電 ■ ■ ２ ０ 時 ２ ７ 分 、 本日 の 計画 停電 は 終了 いたし まし た 。 ご 協力 、 誠に ありがとう ござい ます 。 明日 （ ３月 ２ ５ 日 ） は 、 第 ２ Ｇ （ 18 : 20 ～ 22 : 00 ） 以外 の 計画 停電 は 実施 し ませ ん 。 第 ２ Ｇ について は 、 明日 の 正午 を 目途 に お知らせ いたし ます 。 引き続き どうぞ よろしく お願い いたし ます 。
2011-03-24 11:28:37,■■ 計画 停電 ■ ■ 本日 （ ３月 ２ ４ 日 ） の 第 ５ Ｇ （ １ ５ ： ２ ０ ～ １ ９ ： ０ ０ ） は 計画 停電 を 実施 いたし ませ ん 。 第 １ Ｇ （ １ ８ ： ２ ０ ～ ２ ２ ： ０ ０ ） は 計画 停電 を 実施 いたし ます 。 大変 、 ご 迷惑 を おかけ し ます が 、 引き続き 、 節電 および 計画 停電 に ご 協力 を よろしく お願い いたし ます 。
2011-03-24 01:31:51,■ 電力 使用 状況 グラフ ■ ページ の 最 下段 に データ を 掲載 し まし た ので 、 ご 利用 いただける と 幸い です 。 これから も 皆さま の ニーズ に 合わせ て 改善 し て いき たい と 思い ます 。
2011-03-24 18:25:55,■■ 計画 停電 ■ ■ 明日 （ 3 / 25 ） の 第 3 ・ 4 ・ 5 ･ 1 Ｇ （ 6 : 20 ～ 19 : 00 、 随時 ） 、 第 3 ・ 4 Ｇ の 2 回 目 （ 13 : 50 ～、 16 : 50 ～） は 実施 いたし ませ ん 。 第 2 Ｇ （ 18 : 20 ～ 22 : 00 ） について は 、 明日 の 正午 を 目途 に お知らせ いたし ます 。 引き続き どうぞ よろしく お願い いたし ます 。
2011-03-24 18:22:23,■■ 計画 停電 ■ ■ 現在 、 第 １ Ｇ （ 18 : 20 ～ 22 : 00 ） の 計画 停電 を 実施 中 です 。 ご 迷惑 を おかけ し ます が 、 ご 協力 の ほど どうぞ よろしく お願い いたし ます 。
2011-03-24 22:08:46,■■ 計画 停電 ■ ■ スマート フォン で 計画 停電 予定 を 検索 できる アプリ 「 停電 検索 」 を 紹介 し ます 。 iPhone 版 Android 版 （ アプリ の 動作 ・ 内容 について 当社 で は 責任 を 負う もの で は あり ませ ん ）
2011-03-25 18:02:18,■■ 計画 停電 ■ ■ 計画 停電 および 節電 に ご 協力 を いただき 、 誠に ありがとう ござい ます 。 明日 （ ３月 ２ ６ 日 ） と 明後日 （ ３月 ２ ７ 日 ） は 計画 停電 を 実施 し ませ ん 。 本日 は 、 第 ２ Ｇ （ １ ８ ： ２ ０ ～ ２ ２ ： ０ ０ ） の 計画 停電 を 実施 し ます 。 ご 迷惑 を おかけ し ます が 、 ご 協力 よろしく お願い いたし ます 。
2011-03-25 11:50:07,■■ 計画 停電 ■ ■ 本日 （ ３月 ２ ５ 日 ） の 計画 停電 は 、 第 ２ Ｇ （ １ ８ ： ２ ０ ～ ２ ２ ： ０ ０ ） 実施 を 決定 し まし た 。 大変 ご 迷惑 を おかけいたし ます が 、 引き続き 、 節電 および 計画 停電 へ の ご 協力 を よろしく お願い いたし ます 。
2011-03-25 21:15:03,■■ 計画 停電 ■ ■ 本日 （ ３月 ２ ５ 日 ） の 第 ２ Ｇ の 計画 停電 は 終了 いたし まし た 。 ご 協力 いただき 、 誠に ありがとう ござい まし た 。
2011-03-27 18:35:45,■■ 計画 停電 ■ ■ 明日 （ 3 / 28 ） 、 第 2 G － A , B , C （ 9 ： 20 ～） の 計画 停電 を 実施 し ます 。 第 4 （ 15 : 20 ～）, 5 Ｇ （ 18 : 20 ～） について は 、 明日 の 正午 を 目途 に お知らせ し ます 。 それ 以外 の グループ は 実施 し ませ ん 。
2011-03-28 11:40:08,■■ 計画 停電 ■ ■ 本日 （ ３月 ２ ８ 日 ） の 第 ４ Ｇ （ 15 : 20 ～ 19 : 00 ） 、 第 ５ Ｇ （ 18 : 20 ～ 22 : 00 ） の 計画 停電 は 実施 いたし ませ ん 。 引き続き 節電 に ご 協力 お願い いたし ます 。
2011-03-28 17:52:18,■■ 計画 停電 ■ ■ 計画 停電 の 実施 にあたり 、 ご 迷惑 を おかけ し て 、 誠に 申し訳 ござい ませ ん 。 明日 （ ３月 ２ ９ 日 ） は 計画 停電 を 実施 いたし ませ ん が 、 引き続き 、 節電 に ご 協力 を よろしく お願い いたし ます 。
2011-03-28 09:14:14,■■ 計画 停電 ■ ■ 本日 ９ 時 ２ ０ 分 から 、 第 ２ Ｇ － Ａ 、 Ｂ 、 Ｃ 地域 の 計画 停電 を 実施 し ます 。 ご 迷惑 を おかけ し ます が 、 ご 協力 の ほど よろしく お願い いたし ます 。
2011-03-28 12:06:36,■■ 計画 停電 ■ ■ 先 ほど 、 第 ２ Ｇ － Ａ 、 Ｂ 、 Ｃ の 計画 停電 が 終了 いたし まし た 。 ご 協力 ありがとう ござい まし た 。
2011-03-29 12:31:33,■■ 計画 停電 ■ ■ 本日 同様 、 ３月 ３ ０ 日 （ 水 ） について も 計画 停電 を 実施 いたし ませ ん 。 引き続き 、 節電 に ご 協力 を よろしく お願い いたし ます 。
2011-03-30 12:16:30,■■ 計画 停電 ■ ■ 本日 同様 、 ３月 ３ １ 日 （ 木 ） について も 計画 停電 は 実施 いたし ませ ん 。 引き続き 、 節電 に ご 協力 を よろしく お願い いたし ます 。
2011-03-31 11:49:37,■■ 計画 停電 ■ ■ 明日 （ ４月 １ 日 ） の 計画 停電 は 実施 いたし ませ ん 。 引き続き 、 節電 へ の ご 協力 を よろしく お願い いたし ます 。
2011-04-01 11:02:15,■■ 計画 停電 ■ ■ 4 / 2 （ 土 ）～ 4 / 4 （ 月 ） は 計画 停電 を 実施 し ませ ん 。 引き続き 、 節電 へ の ご 協力 、 どうぞ よろしく お願い いたし ます 。
2011-04-02 17:13:52,４月 ２ 日 １ ６ 時 ５ ６ 分 頃 、 茨城 県 を 中心 と し た 震度 ５ 弱 の 地震 が 発生 いたし まし た 。 この 地震 による 当社 の 原子力 発電 所 を 含む 主 な 電力 設備 へ の 影響 は 確認 さ れ て おら ず 、 当社 サービス エリア 内 で の 停電 も 確認 さ れ て おり ませ ん 。
