14:0,0.0,0.0
14:1,0.0,0.0
14:2,0.0,0.0
14:3,0.0,0.0
14:4,0.0,0.0
14:5,0.0,0.0
14:6,0.0,0.0
14:7,0.0,0.0
14:8,0.0,0.0
14:9,0.0,0.0
14:10,3,0.0
14:11,6,1
14:12,7,0.0
14:13,6,0.0
14:14,4,0.0
14:15,4,0.0
14:16,7,0.0
14:17,7,0.0
14:18,2,0.0
14:19,9,0.0
14:20,7,0.0
14:21,5,0.0
14:22,2,0.0
14:23,8,1
14:24,9,0.0
14:25,6,1
14:26,10,0.0
14:27,9,0.0
14:28,6,0.0
14:29,10,0.0
14:30,4,0.0
14:31,5,0.0
14:32,6,0.0
14:33,8,0.0
14:34,4,0.0
14:35,7,0.0
14:36,8,0.0
14:37,8,0.0
14:38,9,0.0
14:39,6,0.0
14:40,9,0.0
14:41,9,0.0
14:42,3,0.0
14:43,4,0.0
14:44,8,0.0
14:45,2,0.0
14:46,6,0.0
14:47,5,0.0
14:48,10,0.0
14:49,3,0.0
14:50,10,1
14:51,5,1
14:52,7,0.0
14:53,8,0.0
14:54,4,0.0
14:55,9,1
14:56,5,0.0
14:57,7,0.0
14:58,13,0.0
14:59,5,0.0
15:0,0.0,0.0
15:1,0.0,0.0
15:2,0.0,0.0
15:3,0.0,0.0
15:4,0.0,0.0
15:5,0.0,0.0
15:6,0.0,0.0
15:7,0.0,0.0
15:8,0.0,0.0
15:9,0.0,0.0
15:10,13,0.0
15:11,9,0.0
15:12,12,0.0
15:13,9,0.0
15:14,15,0.0
15:15,20,0.0
15:16,11,0.0
15:17,14,1
15:18,4,0.0
15:19,16,0.0
15:20,12,0.0
15:21,8,0.0
15:22,13,1
15:23,11,0.0
15:24,13,0.0
15:25,12,0.0
15:26,8,0.0
15:27,11,1
15:28,6,0.0
15:29,8,0.0
15:30,7,0.0
15:31,13,0.0
15:32,15,0.0
15:33,9,0.0
15:34,7,0.0
15:35,13,0.0
15:36,5,0.0
15:37,7,0.0
15:38,9,0.0
15:39,9,0.0
15:40,10,0.0
15:41,15,0.0
15:42,6,0.0
15:43,10,0.0
15:44,15,0.0
15:45,9,0.0
15:46,8,0.0
15:47,7,0.0
15:48,7,0.0
15:49,10,0.0
15:50,6,0.0
15:51,12,0.0
15:52,10,0.0
15:53,13,0.0
15:54,10,0.0
15:55,14,0.0
15:56,15,0.0
15:57,11,0.0
15:58,7,0.0
15:59,13,0.0
16:0,0.0,0.0
16:1,0.0,0.0
16:2,0.0,0.0
16:3,0.0,0.0
16:4,0.0,0.0
16:5,0.0,0.0
16:6,0.0,0.0
16:7,0.0,0.0
16:8,0.0,0.0
16:9,0.0,0.0
16:10,11,0.0
16:11,13,1
16:12,12,0.0
16:13,12,0.0
16:14,10,0.0
16:15,4,1
16:16,6,0.0
16:17,5,0.0
16:18,10,0.0
16:19,6,0.0
16:20,5,0.0
16:21,6,0.0
16:22,7,0.0
16:23,5,0.0
16:24,8,0.0
16:25,3,0.0
16:26,6,0.0
16:27,7,0.0
16:28,8,0.0
16:29,7,0.0
16:30,6,0.0
16:31,5,0.0
16:32,6,0.0
16:33,8,0.0
16:34,4,0.0
16:35,5,0.0
16:36,7,1
16:37,5,0.0
16:38,7,0.0
16:39,5,0.0
16:40,5,0.0
16:41,8,0.0
16:42,8,0.0
16:43,12,0.0
16:44,14,0.0
16:45,12,0.0
16:46,4,0.0
16:47,3,0.0
16:48,7,0.0
16:49,6,0.0
16:50,3,0.0
16:51,4,0.0
16:52,9,0.0
16:53,7,1
16:54,11,0.0
16:55,4,0.0
16:56,6,1
16:57,6,0.0
16:58,5,0.0
16:59,6,0.0
17:0,0.0,0.0
17:1,0.0,0.0
17:2,0.0,0.0
17:3,0.0,0.0
17:4,0.0,0.0
17:5,0.0,0.0
17:6,0.0,0.0
17:7,0.0,0.0
17:8,0.0,0.0
17:9,0.0,0.0
17:10,6,0.0
17:11,7,0.0
17:12,8,0.0
17:13,5,0.0
17:14,5,0.0
17:15,8,1
17:16,3,0.0
17:17,4,0.0
17:18,5,1
17:19,4,0.0
17:20,4,0.0
17:21,4,0.0
17:22,9,0.0
17:23,5,0.0
17:24,5,0.0
17:25,7,0.0
17:26,9,0.0
17:27,16,0.0
17:28,13,1
17:29,6,0.0
17:30,6,0.0
17:31,4,0.0
17:32,4,0.0
17:33,9,0.0
17:34,9,0.0
17:35,7,0.0
17:36,4,0.0
17:37,2,0.0
17:38,4,0.0
17:39,3,1
17:40,4,0.0
17:41,5,0.0
17:42,8,0.0
17:43,8,0.0
17:44,8,0.0
17:45,8,0.0
17:46,6,0.0
17:47,4,0.0
17:48,6,0.0
17:49,2,0.0
17:50,7,0.0
17:51,2,0.0
17:52,7,0.0
17:53,3,0.0
17:54,4,0.0
17:55,4,0.0
17:56,5,0.0
17:57,6,0.0
17:58,3,0.0
17:59,5,0.0
18:0,0.0,0.0
18:1,0.0,0.0
18:2,0.0,0.0
18:3,0.0,0.0
18:4,0.0,0.0
18:5,0.0,0.0
18:6,0.0,0.0
18:7,0.0,0.0
18:8,0.0,0.0
18:9,0.0,0.0
18:10,5,0.0
18:11,4,0.0
18:12,0.0,0.0
18:13,7,0.0
18:14,6,0.0
18:15,6,0.0
18:16,3,0.0
18:17,5,0.0
18:18,6,0.0
18:19,3,0.0
18:20,10,1
18:21,6,0.0
18:22,4,0.0
18:23,4,0.0
18:24,5,0.0
18:25,5,0.0
18:26,2,0.0
18:27,3,0.0
18:28,4,0.0
18:29,6,0.0
18:30,3,0.0
18:31,8,0.0
18:32,7,0.0
18:33,6,0.0
18:34,4,0.0
18:35,5,0.0
18:36,4,0.0
18:37,5,0.0
18:38,5,0.0
18:39,4,0.0
18:40,3,1
18:41,1,0.0
18:42,3,0.0
18:43,5,0.0
18:44,5,0.0
18:45,4,0.0
18:46,5,0.0
18:47,7,0.0
18:48,4,0.0
18:49,4,0.0
18:50,6,0.0
18:51,7,1
18:52,6,0.0
18:53,4,0.0
18:54,11,0.0
18:55,4,0.0
18:56,5,0.0
18:57,11,0.0
18:58,7,0.0
18:59,8,0.0
19:0,0.0,0.0
19:1,0.0,0.0
19:2,0.0,0.0
19:3,0.0,0.0
19:4,0.0,0.0
19:5,0.0,0.0
19:6,0.0,0.0
19:7,0.0,0.0
19:8,0.0,0.0
19:9,0.0,0.0
19:10,9,0.0
19:11,10,0.0
19:12,8,0.0
19:13,9,1
19:14,7,0.0
19:15,15,0.0
19:16,11,0.0
19:17,8,1
19:18,9,1
19:19,10,0.0
19:20,15,0.0
19:21,7,0.0
19:22,15,0.0
19:23,5,1
19:24,11,0.0
19:25,6,0.0
19:26,7,0.0
19:27,6,0.0
19:28,14,0.0
19:29,11,1
19:30,9,0.0
19:31,6,0.0
19:32,16,2
19:33,11,0.0
19:34,9,0.0
19:35,10,1
19:36,7,0.0
19:37,13,3
19:38,14,3
19:39,12,4
19:40,13,2
19:41,10,3
19:42,8,2
19:43,6,1
19:44,7,2
19:45,9,2
19:46,12,1
19:47,11,3
19:48,6,0.0
19:49,6,0.0
19:50,6,2
19:51,13,3
19:52,17,4
19:53,10,2
19:54,15,0.0
19:55,17,2
19:56,11,0.0
19:57,11,3
19:58,9,0.0
19:59,14,3
20:0,0.0,0.0
20:1,0.0,0.0
20:2,0.0,0.0
20:3,0.0,0.0
20:4,0.0,0.0
20:5,0.0,0.0
20:6,0.0,0.0
20:7,0.0,0.0
20:8,0.0,0.0
20:9,0.0,0.0
20:10,38,20
20:11,39,26
20:12,40,19
20:13,33,12
20:14,31,14
20:15,18,10
20:16,20,10
20:17,22,8
20:18,27,12
20:19,39,20
20:20,20,12
20:21,29,14
20:22,28,16
20:23,20,12
20:24,17,11
20:25,29,17
20:26,14,6
20:27,18,10
20:28,17,11
20:29,17,9
20:30,14,7
20:31,9,3
20:32,14,5
20:33,11,3
20:34,15,6
20:35,13,2
20:36,17,2
20:37,20,8
20:38,18,5
20:39,11,4
20:40,15,9
20:41,11,4
20:42,7,2
20:43,17,9
20:44,23,7
20:45,18,8
20:46,17,10
20:47,10,8
20:48,20,6
20:49,7,1
20:50,14,4
20:51,9,5
20:52,15,4
20:53,13,7
20:54,13,6
20:55,11,2
20:56,10,2
20:57,18,4
20:58,11,2
20:59,10,5
21:0,0.0,0.0
21:1,0.0,0.0
21:2,0.0,0.0
21:3,0.0,0.0
21:4,0.0,0.0
21:5,0.0,0.0
21:6,0.0,0.0
21:7,0.0,0.0
21:8,0.0,0.0
21:9,0.0,0.0
21:10,9,2
21:11,17,8
21:12,10,0.0
21:13,15,0.0
21:14,17,5
21:15,8,1
21:16,17,4
21:17,97,4
21:18,25,5
21:19,15,4
21:20,17,1
21:21,5,2
21:22,14,3
21:23,16,2
21:24,12,6
21:25,12,1
21:26,9,3
21:27,12,1
21:28,16,1
21:29,19,0.0
21:30,13,4
21:31,13,1
21:32,13,3
21:33,9,2
21:34,6,0.0
21:35,16,13
21:36,25,18
21:37,14,10
21:38,11,3
21:39,11,2
21:40,11,3
21:41,15,6
21:42,18,5
21:43,10,5
21:44,12,3
21:45,15,5
21:46,13,3
21:47,9,1
21:48,14,4
21:49,16,1
21:50,7,3
21:51,11,2
21:52,11,3
21:53,12,4
21:54,17,4
21:55,14,2
21:56,15,5
21:57,15,1
21:58,7,0.0
21:59,13,0.0
22:0,0.0,0.0
22:1,0.0,0.0
22:2,0.0,0.0
22:3,0.0,0.0
22:4,0.0,0.0
22:5,0.0,0.0
22:6,0.0,0.0
22:7,0.0,0.0
22:8,0.0,0.0
22:9,0.0,0.0
22:10,13,5
22:11,22,3
22:12,13,3
22:13,13,1
22:14,18,1
22:15,15,1
22:16,18,1
22:17,21,1
22:18,10,0.0
22:19,9,0.0
22:20,17,1
22:21,12,0.0
22:22,9,1
22:23,16,3
22:24,11,0.0
22:25,16,0.0
22:26,21,1
22:27,18,3
22:28,17,0.0
22:29,15,0.0
22:30,17,1
22:31,14,0.0
22:32,17,0.0
22:33,15,0.0
22:34,9,2
22:35,12,0.0
22:36,18,1
22:37,9,1
22:38,16,0.0
22:39,21,4
22:40,8,1
22:41,14,2
22:42,13,3
22:43,10,0.0
22:44,13,2
22:45,7,0.0
22:46,13,0.0
22:47,13,3
22:48,9,0.0
22:49,13,2
22:50,20,0.0
22:51,9,1
22:52,13,1
22:53,18,1
22:54,9,2
22:55,9,0.0
22:56,13,0.0
22:57,12,0.0
22:58,12,0.0
22:59,9,1
23:0,0.0,0.0
23:1,0.0,0.0
23:2,0.0,0.0
23:3,0.0,0.0
23:4,0.0,0.0
23:5,0.0,0.0
23:6,0.0,0.0
23:7,0.0,0.0
23:8,0.0,0.0
23:9,0.0,0.0
23:10,39,4
23:11,30,3
23:12,29,3
23:13,21,0.0
23:14,30,2
23:15,22,3
23:16,31,2
23:17,20,0.0
23:18,21,1
23:19,15,0.0
23:20,31,4
23:21,16,0.0
23:22,18,0.0
23:23,18,1
23:24,23,1
23:25,13,1
23:26,16,4
23:27,19,1
23:28,15,1
23:29,21,1
23:30,16,0.0
23:31,20,0.0
23:32,17,1
23:33,17,3
23:34,16,2
23:35,21,0.0
23:36,27,3
23:37,19,4
23:38,17,0.0
23:39,28,1
23:40,48,4
23:41,42,2
23:42,59,0.0
23:43,85,1
23:44,71,0.0
23:45,94,0.0
23:46,93,1
23:47,76,1
23:48,86,1
23:49,84,0.0
23:50,69,1
23:51,71,0.0
23:52,70,2
23:53,60,1
23:54,55,1
23:55,56,0.0
23:56,56,0.0
23:57,51,1
23:58,41,1
23:59,26,1
