14:0,0.0,0.0
14:1,0.0,0.0
14:2,0.0,0.0
14:3,0.0,0.0
14:4,0.0,0.0
14:5,0.0,0.0
14:6,0.0,0.0
14:7,0.0,0.0
14:8,0.0,0.0
14:9,0.0,0.0
14:10,6,0.0
14:11,5,0.0
14:12,16,0.0
14:13,11,0.0
14:14,11,2
14:15,13,1
14:16,15,0.0
14:17,9,0.0
14:18,16,1
14:19,15,0.0
14:20,11,0.0
14:21,14,1
14:22,13,0.0
14:23,16,2
14:24,15,0.0
14:25,13,1
14:26,17,0.0
14:27,14,0.0
14:28,10,0.0
14:29,10,0.0
14:30,9,0.0
14:31,10,0.0
14:32,5,0.0
14:33,11,1
14:34,8,0.0
14:35,9,0.0
14:36,7,0.0
14:37,9,1
14:38,12,0.0
14:39,4,1
14:40,6,0.0
14:41,12,0.0
14:42,6,0.0
14:43,14,0.0
14:44,9,0.0
14:45,4,0.0
14:46,10,0.0
14:47,9,0.0
14:48,8,0.0
14:49,7,0.0
14:50,3,0.0
14:51,7,0.0
14:52,4,0.0
14:53,9,0.0
14:54,6,0.0
14:55,7,0.0
14:56,7,0.0
14:57,4,0.0
14:58,10,0.0
14:59,9,0.0
15:0,0.0,0.0
15:1,0.0,0.0
15:2,0.0,0.0
15:3,0.0,0.0
15:4,0.0,0.0
15:5,0.0,0.0
15:6,0.0,0.0
15:7,0.0,0.0
15:8,0.0,0.0
15:9,0.0,0.0
15:10,15,0.0
15:11,5,0.0
15:12,13,1
15:13,6,0.0
15:14,13,0.0
15:15,10,0.0
15:16,2,0.0
15:17,12,0.0
15:18,4,0.0
15:19,4,0.0
15:20,7,0.0
15:21,9,0.0
15:22,7,0.0
15:23,7,0.0
15:24,7,0.0
15:25,9,0.0
15:26,6,0.0
15:27,9,0.0
15:28,18,0.0
15:29,15,0.0
15:30,4,0.0
15:31,8,0.0
15:32,10,0.0
15:33,5,0.0
15:34,10,0.0
15:35,10,0.0
15:36,14,0.0
15:37,7,0.0
15:38,10,0.0
15:39,5,0.0
15:40,15,1
15:41,10,0.0
15:42,9,0.0
15:43,7,0.0
15:44,7,0.0
15:45,9,0.0
15:46,7,0.0
15:47,21,0.0
15:48,5,0.0
15:49,7,0.0
15:50,7,0.0
15:51,8,0.0
15:52,6,0.0
15:53,10,0.0
15:54,8,0.0
15:55,8,0.0
15:56,9,0.0
15:57,9,0.0
15:58,13,0.0
15:59,11,0.0
16:0,0.0,0.0
16:1,0.0,0.0
16:2,0.0,0.0
16:3,0.0,0.0
16:4,0.0,0.0
16:5,0.0,0.0
16:6,0.0,0.0
16:7,0.0,0.0
16:8,0.0,0.0
16:9,0.0,0.0
16:10,12,0.0
16:11,9,0.0
16:12,7,0.0
16:13,10,1
16:14,11,0.0
16:15,13,0.0
16:16,8,0.0
16:17,13,0.0
16:18,9,0.0
16:19,13,0.0
16:20,11,0.0
16:21,7,0.0
16:22,10,0.0
16:23,6,0.0
16:24,10,0.0
16:25,5,0.0
16:26,12,0.0
16:27,15,0.0
16:28,9,0.0
16:29,9,0.0
16:30,10,0.0
16:31,14,0.0
16:32,5,0.0
16:33,11,0.0
16:34,11,0.0
16:35,17,0.0
16:36,21,0.0
16:37,18,1
16:38,21,0.0
16:39,10,0.0
16:40,24,0.0
16:41,10,0.0
16:42,16,0.0
16:43,28,1
16:44,22,0.0
16:45,29,0.0
16:46,18,0.0
16:47,17,0.0
16:48,21,1
16:49,17,0.0
16:50,15,0.0
16:51,9,0.0
16:52,10,0.0
16:53,6,0.0
16:54,18,0.0
16:55,20,0.0
16:56,12,0.0
16:57,12,0.0
16:58,8,0.0
16:59,11,0.0
17:0,0.0,0.0
17:1,0.0,0.0
17:2,0.0,0.0
17:3,0.0,0.0
17:4,0.0,0.0
17:5,0.0,0.0
17:6,0.0,0.0
17:7,0.0,0.0
17:8,0.0,0.0
17:9,0.0,0.0
17:10,14,1
17:11,16,0.0
17:12,10,0.0
17:13,11,0.0
17:14,11,0.0
17:15,11,0.0
17:16,10,0.0
17:17,13,0.0
17:18,13,0.0
17:19,7,0.0
17:20,7,0.0
17:21,11,0.0
17:22,11,0.0
17:23,14,0.0
17:24,6,0.0
17:25,12,0.0
17:26,11,0.0
17:27,9,0.0
17:28,7,0.0
17:29,8,1
17:30,9,1
17:31,7,0.0
17:32,6,0.0
17:33,6,0.0
17:34,13,0.0
17:35,8,0.0
17:36,7,0.0
17:37,3,0.0
17:38,7,0.0
17:39,10,0.0
17:40,6,0.0
17:41,5,0.0
17:42,8,0.0
17:43,5,0.0
17:44,7,0.0
17:45,10,0.0
17:46,15,0.0
17:47,12,0.0
17:48,7,0.0
17:49,13,0.0
17:50,10,0.0
17:51,9,0.0
17:52,8,0.0
17:53,13,1
17:54,10,0.0
17:55,9,0.0
17:56,10,1
17:57,11,0.0
17:58,18,0.0
17:59,9,0.0
18:0,0.0,0.0
18:1,0.0,0.0
18:2,0.0,0.0
18:3,0.0,0.0
18:4,0.0,0.0
18:5,0.0,0.0
18:6,0.0,0.0
18:7,0.0,0.0
18:8,0.0,0.0
18:9,0.0,0.0
18:10,10,0.0
18:11,4,0.0
18:12,6,0.0
18:13,5,0.0
18:14,2,0.0
18:15,9,0.0
18:16,13,1
18:17,6,0.0
18:18,10,0.0
18:19,11,0.0
18:20,7,0.0
18:21,6,1
18:22,12,0.0
18:23,5,0.0
18:24,17,0.0
18:25,21,0.0
18:26,26,0.0
18:27,22,0.0
18:28,16,0.0
18:29,22,0.0
18:30,22,0.0
18:31,15,0.0
18:32,16,1
18:33,24,0.0
18:34,19,0.0
18:35,19,0.0
18:36,18,0.0
18:37,28,0.0
18:38,31,0.0
18:39,29,1
18:40,24,0.0
18:41,18,0.0
18:42,42,0.0
18:43,29,0.0
18:44,22,0.0
18:45,16,0.0
18:46,13,0.0
18:47,16,0.0
18:48,18,0.0
18:49,12,0.0
18:50,18,0.0
18:51,10,0.0
18:52,12,1
18:53,10,0.0
18:54,10,0.0
18:55,15,0.0
18:56,13,0.0
18:57,16,1
18:58,8,0.0
18:59,11,0.0
19:0,0.0,0.0
19:1,0.0,0.0
19:2,0.0,0.0
19:3,0.0,0.0
19:4,0.0,0.0
19:5,0.0,0.0
19:6,0.0,0.0
19:7,0.0,0.0
19:8,0.0,0.0
19:9,0.0,0.0
19:10,11,0.0
19:11,10,0.0
19:12,11,0.0
19:13,8,0.0
19:14,5,0.0
19:15,6,0.0
19:16,3,0.0
19:17,14,0.0
19:18,6,0.0
19:19,11,0.0
19:20,6,1
19:21,16,0.0
19:22,6,0.0
19:23,5,0.0
19:24,9,0.0
19:25,4,0.0
19:26,16,1
19:27,14,0.0
19:28,6,0.0
19:29,6,0.0
19:30,9,0.0
19:31,10,0.0
19:32,5,0.0
19:33,9,0.0
19:34,7,0.0
19:35,12,0.0
19:36,9,0.0
19:37,12,0.0
19:38,4,1
19:39,9,0.0
19:40,10,0.0
19:41,14,0.0
19:42,10,1
19:43,15,0.0
19:44,8,0.0
19:45,16,0.0
19:46,11,0.0
19:47,8,0.0
19:48,12,0.0
19:49,9,0.0
19:50,11,0.0
19:51,10,0.0
19:52,17,0.0
19:53,13,0.0
19:54,8,1
19:55,9,0.0
19:56,13,0.0
19:57,13,1
19:58,11,0.0
19:59,17,0.0
20:0,0.0,0.0
20:1,0.0,0.0
20:2,0.0,0.0
20:3,0.0,0.0
20:4,0.0,0.0
20:5,0.0,0.0
20:6,0.0,0.0
20:7,0.0,0.0
20:8,0.0,0.0
20:9,0.0,0.0
20:10,24,0.0
20:11,15,1
20:12,20,1
20:13,23,0.0
20:14,14,0.0
20:15,13,0.0
20:16,22,0.0
20:17,27,0.0
20:18,19,1
20:19,17,0.0
20:20,29,0.0
20:21,31,0.0
20:22,38,0.0
20:23,51,2
20:24,46,0.0
20:25,39,0.0
20:26,27,0.0
20:27,22,0.0
20:28,20,0.0
20:29,30,0.0
20:30,37,0.0
20:31,41,11
20:32,44,24
20:33,35,13
20:34,27,5
20:35,23,5
20:36,31,9
20:37,26,5
20:38,23,4
20:39,22,0.0
20:40,31,1
20:41,25,1
20:42,20,3
20:43,24,3
20:44,27,6
20:45,17,4
20:46,19,4
20:47,21,2
20:48,17,1
20:49,24,2
20:50,25,2
20:51,25,0.0
20:52,32,1
20:53,39,2
20:54,31,1
20:55,34,1
20:56,19,0.0
20:57,19,1
20:58,14,0.0
20:59,19,1
21:0,0.0,0.0
21:1,0.0,0.0
21:2,0.0,0.0
21:3,0.0,0.0
21:4,0.0,0.0
21:5,0.0,0.0
21:6,0.0,0.0
21:7,0.0,0.0
21:8,0.0,0.0
21:9,0.0,0.0
21:10,13,1
21:11,11,2
21:12,21,2
21:13,20,2
21:14,17,2
21:15,18,3
21:16,16,0.0
21:17,16,3
21:18,13,1
21:19,21,1
21:20,11,1
21:21,23,0.0
21:22,6,0.0
21:23,13,1
21:24,16,0.0
21:25,17,0.0
21:26,17,0.0
21:27,12,0.0
21:28,11,1
21:29,20,0.0
21:30,21,0.0
21:31,21,0.0
21:32,20,0.0
21:33,22,0.0
21:34,10,0.0
21:35,13,0.0
21:36,17,1
21:37,9,0.0
21:38,7,0.0
21:39,19,0.0
21:40,18,1
21:41,25,1
21:42,28,1
21:43,18,0.0
21:44,24,0.0
21:45,18,1
21:46,24,2
21:47,19,2
21:48,28,1
21:49,27,3
21:50,24,3
21:51,22,1
21:52,18,4
21:53,15,0.0
21:54,20,1
21:55,21,0.0
21:56,26,1
21:57,27,1
21:58,31,2
21:59,13,1
22:0,0.0,0.0
22:1,0.0,0.0
22:2,0.0,0.0
22:3,0.0,0.0
22:4,0.0,0.0
22:5,0.0,0.0
22:6,0.0,0.0
22:7,0.0,0.0
22:8,0.0,0.0
22:9,0.0,0.0
22:10,15,0.0
22:11,15,0.0
22:12,19,1
22:13,17,1
22:14,20,1
22:15,28,4
22:16,20,3
22:17,19,0.0
22:18,18,0.0
22:19,27,3
22:20,27,2
22:21,18,2
22:22,16,1
22:23,12,1
22:24,12,2
22:25,24,1
22:26,15,1
22:27,21,0.0
22:28,9,0.0
22:29,25,0.0
22:30,10,1
22:31,9,1
22:32,18,1
22:33,16,0.0
22:34,12,1
22:35,12,0.0
22:36,14,2
22:37,6,0.0
22:38,13,0.0
22:39,12,1
22:40,17,2
22:41,15,0.0
22:42,9,1
22:43,10,0.0
22:44,17,0.0
22:45,20,0.0
22:46,15,0.0
22:47,17,1
22:48,17,3
22:49,14,3
22:50,24,1
22:51,23,1
22:52,30,2
22:53,14,1
22:54,19,0.0
22:55,26,1
22:56,14,1
22:57,19,1
22:58,18,0.0
22:59,16,1
23:0,0.0,0.0
23:1,0.0,0.0
23:2,0.0,0.0
23:3,0.0,0.0
23:4,0.0,0.0
23:5,0.0,0.0
23:6,0.0,0.0
23:7,0.0,0.0
23:8,0.0,0.0
23:9,0.0,0.0
23:10,18,0.0
23:11,6,1
23:12,4,1
23:13,9,2
23:14,12,2
23:15,10,3
23:16,11,0.0
23:17,5,1
23:18,14,2
23:19,20,1
23:20,17,2
23:21,17,0.0
23:22,18,3
23:23,16,2
23:24,7,1
23:25,13,1
23:26,9,0.0
23:27,8,0.0
23:28,15,1
23:29,12,0.0
23:30,11,0.0
23:31,8,0.0
23:32,11,0.0
23:33,6,0.0
23:34,12,0.0
23:35,13,2
23:36,9,0.0
23:37,10,0.0
23:38,14,1
23:39,14,2
23:40,11,2
23:41,9,1
23:42,17,0.0
23:43,9,1
23:44,11,0.0
23:45,13,4
23:46,7,0.0
23:47,10,0.0
23:48,6,1
23:49,11,1
23:50,8,0.0
23:51,11,0.0
23:52,3,1
23:53,8,0.0
23:54,11,1
23:55,10,0.0
23:56,10,0.0
23:57,11,0.0
23:58,12,1
23:59,8,0.0
