14:0,0.0,0.0
14:1,0.0,0.0
14:2,0.0,0.0
14:3,0.0,0.0
14:4,0.0,0.0
14:5,0.0,0.0
14:6,0.0,0.0
14:7,0.0,0.0
14:8,0.0,0.0
14:9,0.0,0.0
14:10,7,2
14:11,6,0.0
14:12,8,2
14:13,11,2
14:14,9,3
14:15,6,1
14:16,5,1
14:17,7,1
14:18,7,1
14:19,5,1
14:20,5,1
14:21,6,1
14:22,8,1
14:23,3,0.0
14:24,7,0.0
14:25,5,1
14:26,5,0.0
14:27,3,0.0
14:28,4,0.0
14:29,6,0.0
14:30,5,2
14:31,4,0.0
14:32,14,8
14:33,5,3
14:34,3,0.0
14:35,12,3
14:36,3,1
14:37,6,1
14:38,6,0.0
14:39,7,0.0
14:40,9,1
14:41,9,1
14:42,9,1
14:43,9,1
14:44,4,0.0
14:45,7,0.0
14:46,8,1
14:47,8,1
14:48,12,0.0
14:49,5,2
14:50,5,0.0
14:51,9,1
14:52,5,0.0
14:53,4,1
14:54,8,0.0
14:55,5,1
14:56,4,1
14:57,1,0.0
14:58,6,0.0
14:59,10,1
15:0,0.0,0.0
15:1,0.0,0.0
15:2,0.0,0.0
15:3,0.0,0.0
15:4,0.0,0.0
15:5,0.0,0.0
15:6,0.0,0.0
15:7,0.0,0.0
15:8,0.0,0.0
15:9,0.0,0.0
15:10,8,3
15:11,7,0.0
15:12,8,1
15:13,6,0.0
15:14,6,0.0
15:15,7,1
15:16,6,1
15:17,4,3
15:18,3,0.0
15:19,6,0.0
15:20,8,1
15:21,9,1
15:22,9,2
15:23,8,1
15:24,13,0.0
15:25,3,0.0
15:26,5,1
15:27,6,1
15:28,4,0.0
15:29,3,0.0
15:30,7,0.0
15:31,11,1
15:32,8,0.0
15:33,6,2
15:34,9,0.0
15:35,6,2
15:36,2,0.0
15:37,7,2
15:38,10,2
15:39,9,1
15:40,10,2
15:41,6,0.0
15:42,7,0.0
15:43,7,0.0
15:44,7,0.0
15:45,7,0.0
15:46,12,1
15:47,8,0.0
15:48,3,0.0
15:49,4,0.0
15:50,6,0.0
15:51,6,0.0
15:52,5,0.0
15:53,4,0.0
15:54,5,1
15:55,6,0.0
15:56,6,0.0
15:57,10,1
15:58,7,2
15:59,6,0.0
16:0,0.0,0.0
16:1,0.0,0.0
16:2,0.0,0.0
16:3,0.0,0.0
16:4,0.0,0.0
16:5,0.0,0.0
16:6,0.0,0.0
16:7,0.0,0.0
16:8,0.0,0.0
16:9,0.0,0.0
16:10,6,0.0
16:11,11,0.0
16:12,5,0.0
16:13,10,1
16:14,9,0.0
16:15,8,1
16:16,5,1
16:17,8,1
16:18,8,0.0
16:19,7,2
16:20,12,4
16:21,4,1
16:22,8,5
16:23,12,2
16:24,12,1
16:25,9,2
16:26,17,2
16:27,9,1
16:28,6,0.0
16:29,9,1
16:30,7,0.0
16:31,10,5
16:32,6,0.0
16:33,16,1
16:34,8,3
16:35,10,2
16:36,8,1
16:37,9,1
16:38,10,1
16:39,6,0.0
16:40,8,2
16:41,5,1
16:42,6,0.0
16:43,11,0.0
16:44,12,0.0
16:45,11,1
16:46,10,1
16:47,8,1
16:48,9,2
16:49,4,0.0
16:50,12,0.0
16:51,13,0.0
16:52,8,1
16:53,8,3
16:54,8,0.0
16:55,11,2
16:56,6,0.0
16:57,15,0.0
16:58,7,1
16:59,6,1
17:0,0.0,0.0
17:1,0.0,0.0
17:2,0.0,0.0
17:3,0.0,0.0
17:4,0.0,0.0
17:5,0.0,0.0
17:6,0.0,0.0
17:7,0.0,0.0
17:8,0.0,0.0
17:9,0.0,0.0
17:10,12,3
17:11,12,0.0
17:12,4,0.0
17:13,10,2
17:14,11,2
17:15,10,2
17:16,6,0.0
17:17,7,0.0
17:18,10,0.0
17:19,4,1
17:20,6,0.0
17:21,6,0.0
17:22,9,4
17:23,5,0.0
17:24,5,2
17:25,5,0.0
17:26,8,0.0
17:27,5,0.0
17:28,10,1
17:29,5,0.0
17:30,8,0.0
17:31,12,0.0
17:32,10,1
17:33,14,0.0
17:34,10,0.0
17:35,3,0.0
17:36,13,2
17:37,10,1
17:38,13,0.0
17:39,6,0.0
17:40,7,0.0
17:41,4,0.0
17:42,12,0.0
17:43,12,1
17:44,12,1
17:45,7,0.0
17:46,15,2
17:47,7,0.0
17:48,12,1
17:49,7,0.0
17:50,14,1
17:51,11,2
17:52,8,1
17:53,5,0.0
17:54,13,1
17:55,10,0.0
17:56,8,0.0
17:57,3,0.0
17:58,8,0.0
17:59,13,1
18:0,0.0,0.0
18:1,0.0,0.0
18:2,0.0,0.0
18:3,0.0,0.0
18:4,0.0,0.0
18:5,0.0,0.0
18:6,0.0,0.0
18:7,0.0,0.0
18:8,0.0,0.0
18:9,0.0,0.0
18:10,8,1
18:11,7,0.0
18:12,3,0.0
18:13,6,0.0
18:14,11,2
18:15,8,1
18:16,11,3
18:17,11,3
18:18,17,1
18:19,20,2
18:20,17,4
18:21,12,4
18:22,10,2
18:23,10,2
18:24,13,3
18:25,10,0.0
18:26,14,2
18:27,14,4
18:28,6,1
18:29,9,2
18:30,13,1
18:31,8,1
18:32,10,1
18:33,16,2
18:34,6,1
18:35,9,2
18:36,14,2
18:37,13,2
18:38,8,0.0
18:39,14,3
18:40,13,0.0
18:41,14,2
18:42,15,2
18:43,10,2
18:44,6,2
18:45,15,3
18:46,11,1
18:47,9,1
18:48,13,1
18:49,12,1
18:50,14,1
18:51,12,1
18:52,14,2
18:53,5,1
18:54,18,3
18:55,9,2
18:56,11,2
18:57,19,1
18:58,13,1
18:59,13,0.0
19:0,0.0,0.0
19:1,0.0,0.0
19:2,0.0,0.0
19:3,0.0,0.0
19:4,0.0,0.0
19:5,0.0,0.0
19:6,0.0,0.0
19:7,0.0,0.0
19:8,0.0,0.0
19:9,0.0,0.0
19:10,12,1
19:11,10,1
19:12,11,2
19:13,8,2
19:14,6,1
19:15,9,3
19:16,8,1
19:17,5,1
19:18,9,5
19:19,8,1
19:20,10,5
19:21,9,1
19:22,7,2
19:23,16,3
19:24,11,0.0
19:25,10,1
19:26,10,1
19:27,15,0.0
19:28,11,1
19:29,16,2
19:30,12,0.0
19:31,15,3
19:32,12,0.0
19:33,16,1
19:34,14,0.0
19:35,15,1
19:36,11,2
19:37,14,4
19:38,19,9
19:39,13,4
19:40,12,2
19:41,20,8
19:42,9,2
19:43,16,7
19:44,16,5
19:45,16,3
19:46,17,1
19:47,24,4
19:48,12,4
19:49,15,3
19:50,17,4
19:51,13,3
19:52,13,5
19:53,10,6
19:54,21,6
19:55,12,5
19:56,15,7
19:57,8,3
19:58,14,2
19:59,14,6
20:0,0.0,0.0
20:1,0.0,0.0
20:2,0.0,0.0
20:3,0.0,0.0
20:4,0.0,0.0
20:5,0.0,0.0
20:6,0.0,0.0
20:7,0.0,0.0
20:8,0.0,0.0
20:9,0.0,0.0
20:10,9,1
20:11,15,2
20:12,18,3
20:13,20,2
20:14,16,2
20:15,23,1
20:16,15,2
20:17,8,2
20:18,21,3
20:19,23,3
20:20,16,3
20:21,16,6
20:22,14,1
20:23,9,2
20:24,12,2
20:25,11,2
20:26,15,2
20:27,10,0.0
20:28,15,1
20:29,11,2
20:30,6,2
20:31,20,1
20:32,10,1
20:33,9,1
20:34,12,5
20:35,13,5
20:36,20,2
20:37,16,1
20:38,19,4
20:39,12,1
20:40,12,2
20:41,18,0.0
20:42,14,2
20:43,21,3
20:44,11,2
20:45,18,3
20:46,13,6
20:47,10,4
20:48,8,1
20:49,6,1
20:50,15,3
20:51,12,1
20:52,21,4
20:53,11,1
20:54,15,3
20:55,11,2
20:56,15,3
20:57,19,1
20:58,16,2
20:59,12,2
21:0,0.0,0.0
21:1,0.0,0.0
21:2,0.0,0.0
21:3,0.0,0.0
21:4,0.0,0.0
21:5,0.0,0.0
21:6,0.0,0.0
21:7,0.0,0.0
21:8,0.0,0.0
21:9,0.0,0.0
21:10,8,2
21:11,14,3
21:12,15,1
21:13,18,2
21:14,21,5
21:15,13,0.0
21:16,13,1
21:17,12,2
21:18,11,1
21:19,16,4
21:20,20,0.0
21:21,16,2
21:22,11,1
21:23,14,0.0
21:24,12,0.0
21:25,8,0.0
21:26,6,1
21:27,11,1
21:28,9,0.0
21:29,6,0.0
21:30,14,2
21:31,11,0.0
21:32,10,1
21:33,8,2
21:34,9,0.0
21:35,9,2
21:36,14,1
21:37,14,1
21:38,10,2
21:39,5,0.0
21:40,5,1
21:41,14,0.0
21:42,5,0.0
21:43,12,3
21:44,13,2
21:45,13,1
21:46,12,0.0
21:47,13,0.0
21:48,20,2
21:49,7,0.0
21:50,10,0.0
21:51,10,1
21:52,9,0.0
21:53,14,0.0
21:54,11,0.0
21:55,10,1
21:56,14,2
21:57,9,0.0
21:58,14,2
21:59,16,1
22:0,0.0,0.0
22:1,0.0,0.0
22:2,0.0,0.0
22:3,0.0,0.0
22:4,0.0,0.0
22:5,0.0,0.0
22:6,0.0,0.0
22:7,0.0,0.0
22:8,0.0,0.0
22:9,0.0,0.0
22:10,29,7
22:11,12,4
22:12,12,4
22:13,17,5
22:14,12,2
22:15,26,5
22:16,21,4
22:17,16,3
22:18,16,3
22:19,15,2
22:20,17,2
22:21,16,2
22:22,14,2
22:23,15,3
22:24,16,4
22:25,11,4
22:26,25,3
22:27,15,1
22:28,20,2
22:29,30,9
22:30,11,0.0
22:31,23,2
22:32,20,3
22:33,9,1
22:34,11,2
22:35,14,4
22:36,22,5
22:37,17,5
22:38,14,4
22:39,19,1
22:40,22,4
22:41,11,2
22:42,15,3
22:43,22,1
22:44,20,6
22:45,16,2
22:46,14,2
22:47,17,3
22:48,18,4
22:49,18,2
22:50,14,5
22:51,15,2
22:52,21,3
22:53,13,3
22:54,16,2
22:55,15,2
22:56,14,1
22:57,9,1
22:58,15,3
22:59,20,2
23:0,0.0,0.0
23:1,0.0,0.0
23:2,0.0,0.0
23:3,0.0,0.0
23:4,0.0,0.0
23:5,0.0,0.0
23:6,0.0,0.0
23:7,0.0,0.0
23:8,0.0,0.0
23:9,0.0,0.0
23:10,14,0.0
23:11,16,0.0
23:12,24,2
23:13,17,0.0
23:14,14,2
23:15,12,4
23:16,18,2
23:17,10,1
23:18,8,0.0
23:19,19,5
23:20,11,3
23:21,13,3
23:22,12,2
23:23,17,4
23:24,11,3
23:25,14,5
23:26,12,1
23:27,15,0.0
23:28,22,9
23:29,19,6
23:30,13,4
23:31,9,0.0
23:32,11,5
23:33,6,1
23:34,10,1
23:35,14,2
23:36,10,3
23:37,8,0.0
23:38,10,1
23:39,9,1
23:40,11,4
23:41,11,1
23:42,15,4
23:43,10,1
23:44,12,3
23:45,12,2
23:46,16,6
23:47,10,2
23:48,15,2
23:49,13,4
23:50,9,3
23:51,12,4
23:52,14,2
23:53,14,3
23:54,10,2
23:55,19,6
23:56,9,1
23:57,8,5
23:58,11,2
23:59,6,2
