day,with hashtags, total, percentage
20110309,3474,40001,0.0868478288043
20110310,29622,390001,0.0759536514009
20110311,476942,8810001,0.0541364297234
20110312,716996,9740001,0.0736135448035
20110313,893243,9030001,0.0989194796324
20110314,1016999,11030001,0.0922029834811
20110315,996217,12500001,0.0796973536242
20110316,1001025,12950001,0.0772992218302
20110317,848597,11630001,0.0729662018086
20110318,766244,10880001,0.0704268317622
20110319,691410,10420001,0.0663541203115
20110320,777823,10330001,0.0752974757698
20110321,724376,10490001,0.0690539495659
20110322,576479,8580001,0.0671886868078
20110323,461454,8020001,0.0575378980626
20110324,445252,7550001,0.0589737670233
20110325,474916,7610001,0.0624068249137
20110326,498429,7360001,0.0677213223205
20110327,581548,7860001,0.0739882857521
20110328,529506,7980001,0.0663541270233
20110329,558377,8880001,0.0628802857117
20110330,627262,9270001,0.0676657963683
20110331,604753,9630001,0.0627988512151
20110401,597063,9600001,0.0621940560215
20110402,346966,4750001,0.0730454583062
