day,00:00:00,01:00:00,02:00:00,03:00:00,04:00:00,05:00:00,06:00:00,07:00:00,08:00:00,09:00:00,10:00:00,11:00:00,12:00:00,13:00:00,14:00:00,15:00:00,16:00:00,17:00:00,18:00:00,19:00:00,20:00:00,21:00:00,22:00:00,23:00:00,total
20110309,1799,1290,869,544,451,431,635,949,1189,1143,1167,1791,2366,1716,1613,1664,1704,2063,2476,2630,3001,3585,4283,5283,44642
20110310,6342,4889,3388,2827,1993,1824,3407,4505,5968,5760,5916,6615,9613,9081,8903,10290,11553,14126,17951,21591,27384,38878,57660,115396,395860
20110311,304544,227373,133045,83659,58083,51358,74446,124982,138219,136167,138491,148240,206444,185175,351491,978155,835257,745095,722444,644618,621817,634095,642385,629936,8815519
20110312,596230,448006,285387,227419,414840,265126,257137,283515,294865,322141,360905,391732,410825,412000,409326,386082,405542,467536,465522,454321,499686,515585,596150,575394,9745272
20110313,505354,345694,215794,141542,94398,79814,96331,153697,210905,260007,350095,385762,419188,411902,397576,393162,403372,421127,436924,462131,640825,743856,751233,710413,9031102
20110314,625861,429118,267684,159180,113711,112381,200232,300163,346668,364961,463402,501293,497648,457500,424596,484073,518869,564187,576617,612168,693675,766889,794887,754951,11030714
20110315,613072,425113,249594,165393,114204,191971,170387,272180,344844,353414,364039,442390,536366,520759,487930,493631,525291,548677,639625,691530,750394,836378,1413071,1359073,12509326
20110316,947665,566681,336682,206758,138351,127616,180279,285570,351126,374499,416259,478016,678123,706796,561595,540316,544568,585756,680857,737929,780443,858864,968453,901964,12955166
20110317,723512,495249,312233,191644,106616,110591,144139,270257,331703,365273,395312,436123,545046,532333,442440,492478,449637,399421,484353,765547,803171,1017303,955987,862235,11632603
20110318,725111,502292,315285,197597,133199,116500,162689,265238,327004,343895,368562,395968,487651,465800,450507,425127,442815,502178,562494,611012,720845,749281,798606,810716,10880372
20110319,698989,512553,323171,200983,135398,113434,135202,194216,269639,324131,368578,406919,434676,434827,413007,407875,432493,470315,555105,657431,624262,733930,760125,820550,10427809
20110320,708691,526507,348373,229152,162271,115236,124585,207984,297578,329130,367951,403829,416760,424679,437196,411626,428999,516645,491302,516101,618034,711496,754753,782525,10331403
20110321,725295,506102,338812,219448,143632,117910,125711,170882,234461,313556,372529,418393,455664,463230,443503,435447,449198,480329,516807,540839,634992,733952,842992,810295,10493979
20110322,643623,440038,280081,174097,114799,95845,119469,200047,248702,242501,256064,286175,398913,343297,307530,317020,358098,377294,480147,457014,520890,613996,655392,650452,8581484
20110323,558818,421364,230019,135953,86429,75686,106388,269706,255804,230644,236714,254651,329367,291452,284323,306913,313926,359658,426660,474163,517570,616978,629829,609293,8022308
20110324,508636,338112,206538,125108,82950,89323,109593,176249,238881,268826,242339,264097,346926,318298,285565,291504,292150,352240,382181,418338,454502,533227,617361,611088,7554032
20110325,525646,361189,229041,133750,88186,77026,106363,177070,232427,233280,248305,277344,354973,320667,297536,293307,302374,338923,394069,425556,504074,529283,570979,593348,7614716
20110326,551430,400700,260147,162659,79772,88085,103493,147001,203878,244910,269840,290326,319189,313643,297525,299543,304056,328156,354816,360732,408164,484539,541593,553414,7367611
20110327,534136,400657,271779,167848,106749,85466,96937,158103,246655,252486,269437,289198,309851,312702,298484,304883,314291,355279,361275,409075,478063,577769,618197,649146,7868466
20110328,570312,382866,231295,139294,93008,82924,112638,197195,228998,232612,246807,276985,351254,321486,295028,294798,308355,352797,410295,430698,494913,599967,655902,674692,7985119
20110329,605653,414979,263750,160910,107788,97009,130235,202115,262762,261776,276735,302230,384677,350360,324638,323196,331846,376668,431039,554967,631137,713491,668446,713043,8889450
20110330,631025,438735,288344,180092,123194,112573,143774,215157,277774,283805,300420,330110,425400,404565,360278,349052,352330,404320,455986,480767,559832,647685,760111,752125,9277454
20110331,656480,447279,287758,167908,91757,104195,143861,221972,285212,289196,309098,345105,443213,410617,368703,361312,379496,408969,470379,520169,578959,691209,831254,824655,9638756
20110401,1074780,614361,346092,199856,138423,130253,180255,280588,352244,339521,355054,377134,450994,385924,335667,325353,322281,358093,407421,443056,500876,571491,544915,572917,9607549
20110402,503540,326124,202705,121456,82092,69007,77208,106044,143185,166384,176823,186642,199960,195493,179998,177981,192107,211628,200097,200675,225477,255549,267766,285301,4753242
